%!PS-Adobe-3.0 EPSF-3.0
%%Creator: MATLAB, The MathWorks, Inc. Version 7.14.0.739 (R2012a). Operating System: Linux 2.6.33.7.2-rt30-rt #1 SMP PREEMPT RT Tue Apr 17 15:22:21 CEST 2012 x86_64.
%%Title: ./modulation_phase_shift_ap_peak.eps
%%CreationDate: 10/03/2013  09:27:30
%%DocumentNeededFonts: Helvetica
%%DocumentProcessColors: Cyan Magenta Yellow Black
%%LanguageLevel: 2
%%Pages: 1
%%BoundingBox:    24    31   532   545
%%EndComments

%%BeginProlog
% MathWorks dictionary
/MathWorks 160 dict begin
% definition operators
/bdef {bind def} bind def
/ldef {load def} bind def
/xdef {exch def} bdef
/xstore {exch store} bdef
% operator abbreviations
/c  /clip ldef
/cc /concat ldef
/cp /closepath ldef
/gr /grestore ldef
/gs /gsave ldef
/mt /moveto ldef
/np /newpath ldef
/cm /currentmatrix ldef
/sm /setmatrix ldef
/rm /rmoveto ldef
/rl /rlineto ldef
/s {show newpath} bdef
/sc {setcmykcolor} bdef
/sr /setrgbcolor ldef
/sg /setgray ldef
/w /setlinewidth ldef
/j /setlinejoin ldef
/cap /setlinecap ldef
/rc {rectclip} bdef
/rf {rectfill} bdef
% page state control
/pgsv () def
/bpage {/pgsv save def} bdef
/epage {pgsv restore} bdef
/bplot /gsave ldef
/eplot {stroke grestore} bdef
% orientation switch
/portraitMode 0 def /landscapeMode 1 def /rotateMode 2 def
% coordinate system mappings
/dpi2point 0 def
% font control
/FontSize 0 def
/FMS {/FontSize xstore findfont [FontSize 0 0 FontSize neg 0 0]
  makefont setfont} bdef
/reencode {exch dup where {pop load} {pop StandardEncoding} ifelse
  exch dup 3 1 roll findfont dup length dict begin
  { 1 index /FID ne {def}{pop pop} ifelse } forall
  /Encoding exch def currentdict end definefont pop} bdef
/isroman {findfont /CharStrings get /Agrave known} bdef
/FMSR {3 1 roll 1 index dup isroman {reencode} {pop pop} ifelse
  exch FMS} bdef
/csm {1 dpi2point div -1 dpi2point div scale neg translate
 dup landscapeMode eq {pop -90 rotate}
  {rotateMode eq {90 rotate} if} ifelse} bdef
% line types: solid, dotted, dashed, dotdash
/SO { [] 0 setdash } bdef
/DO { [.5 dpi2point mul 4 dpi2point mul] 0 setdash } bdef
/DA { [6 dpi2point mul] 0 setdash } bdef
/DD { [.5 dpi2point mul 4 dpi2point mul 6 dpi2point mul 4
  dpi2point mul] 0 setdash } bdef
% macros for lines and objects
/L {lineto stroke} bdef
/MP {3 1 roll moveto 1 sub {rlineto} repeat} bdef
/AP {{rlineto} repeat} bdef
/PDlw -1 def
/W {/PDlw currentlinewidth def setlinewidth} def
/PP {closepath eofill} bdef
/DP {closepath stroke} bdef
/MR {4 -2 roll moveto dup  0 exch rlineto exch 0 rlineto
  neg 0 exch rlineto closepath} bdef
/FR {MR stroke} bdef
/PR {MR fill} bdef
/L1i {{currentfile picstr readhexstring pop} image} bdef
/tMatrix matrix def
/MakeOval {newpath tMatrix currentmatrix pop translate scale
0 0 1 0 360 arc tMatrix setmatrix} bdef
/FO {MakeOval stroke} bdef
/PO {MakeOval fill} bdef
/PD {currentlinewidth 2 div 0 360 arc fill
   PDlw -1 eq not {PDlw w /PDlw -1 def} if} def
/FA {newpath tMatrix currentmatrix pop translate scale
  0 0 1 5 -2 roll arc tMatrix setmatrix stroke} bdef
/PA {newpath tMatrix currentmatrix pop	translate 0 0 moveto scale
  0 0 1 5 -2 roll arc closepath tMatrix setmatrix fill} bdef
/FAn {newpath tMatrix currentmatrix pop translate scale
  0 0 1 5 -2 roll arcn tMatrix setmatrix stroke} bdef
/PAn {newpath tMatrix currentmatrix pop translate 0 0 moveto scale
  0 0 1 5 -2 roll arcn closepath tMatrix setmatrix fill} bdef
/vradius 0 def /hradius 0 def /lry 0 def
/lrx 0 def /uly 0 def /ulx 0 def /rad 0 def
/MRR {/vradius xdef /hradius xdef /lry xdef /lrx xdef /uly xdef
  /ulx xdef newpath tMatrix currentmatrix pop ulx hradius add uly
  vradius add translate hradius vradius scale 0 0 1 180 270 arc 
  tMatrix setmatrix lrx hradius sub uly vradius add translate
  hradius vradius scale 0 0 1 270 360 arc tMatrix setmatrix
  lrx hradius sub lry vradius sub translate hradius vradius scale
  0 0 1 0 90 arc tMatrix setmatrix ulx hradius add lry vradius sub
  translate hradius vradius scale 0 0 1 90 180 arc tMatrix setmatrix
  closepath} bdef
/FRR {MRR stroke } bdef
/PRR {MRR fill } bdef
/MlrRR {/lry xdef /lrx xdef /uly xdef /ulx xdef /rad lry uly sub 2 div def
  newpath tMatrix currentmatrix pop ulx rad add uly rad add translate
  rad rad scale 0 0 1 90 270 arc tMatrix setmatrix lrx rad sub lry rad
  sub translate rad rad scale 0 0 1 270 90 arc tMatrix setmatrix
  closepath} bdef
/FlrRR {MlrRR stroke } bdef
/PlrRR {MlrRR fill } bdef
/MtbRR {/lry xdef /lrx xdef /uly xdef /ulx xdef /rad lrx ulx sub 2 div def
  newpath tMatrix currentmatrix pop ulx rad add uly rad add translate
  rad rad scale 0 0 1 180 360 arc tMatrix setmatrix lrx rad sub lry rad
  sub translate rad rad scale 0 0 1 0 180 arc tMatrix setmatrix
  closepath} bdef
/FtbRR {MtbRR stroke } bdef
/PtbRR {MtbRR fill } bdef
/stri 6 array def /dtri 6 array def
/smat 6 array def /dmat 6 array def
/tmat1 6 array def /tmat2 6 array def /dif 3 array def
/asub {/ind2 exch def /ind1 exch def dup dup
  ind1 get exch ind2 get sub exch } bdef
/tri_to_matrix {
  2 0 asub 3 1 asub 4 0 asub 5 1 asub
  dup 0 get exch 1 get 7 -1 roll astore } bdef
/compute_transform {
  dmat dtri tri_to_matrix tmat1 invertmatrix 
  smat stri tri_to_matrix tmat2 concatmatrix } bdef
/ds {stri astore pop} bdef
/dt {dtri astore pop} bdef
/db {2 copy /cols xdef /rows xdef mul dup 3 mul string
  currentfile 
  3 index 0 eq {/ASCIIHexDecode filter}
  {/ASCII85Decode filter 3 index 2 eq {/RunLengthDecode filter} if }
  ifelse exch readstring pop
  dup 0 3 index getinterval /rbmap xdef
  dup 2 index dup getinterval /gbmap xdef
  1 index dup 2 mul exch getinterval /bbmap xdef pop pop}bdef
/it {gs np dtri aload pop moveto lineto lineto cp c
  cols rows 8 compute_transform 
  rbmap gbmap bbmap true 3 colorimage gr}bdef
/il {newpath moveto lineto stroke}bdef
currentdict end def
%%EndProlog

%%BeginSetup
MathWorks begin

0 cap

end
%%EndSetup

%%Page: 1 1
%%BeginPageSetup
%%PageBoundingBox:    24    31   532   545
MathWorks begin
bpage
%%EndPageSetup

%%BeginObject: obj1
bplot

/dpi2point 12 def
portraitMode 0000 6912 csm

  292   366  6101  6163 rc
85 dict begin %Colortable dictionary
/c0 { 0.000000 0.000000 0.000000 sr} bdef
/c1 { 1.000000 1.000000 1.000000 sr} bdef
/c2 { 0.900000 0.000000 0.000000 sr} bdef
/c3 { 0.000000 0.820000 0.000000 sr} bdef
/c4 { 0.000000 0.000000 0.800000 sr} bdef
/c5 { 0.910000 0.820000 0.320000 sr} bdef
/c6 { 1.000000 0.260000 0.820000 sr} bdef
/c7 { 0.000000 0.820000 0.820000 sr} bdef
c0
1 j
1 sg
   0    0 6913 6913 rf
6 w
0 2359 5356 0 0 -2359 899 2877 4 MP
PP
-5356 0 0 2359 5356 0 0 -2359 899 2877 5 MP stroke
4 w
DO
SO
6 w
0 sg
 899 2877 mt 6255 2877 L
 899  518 mt 6255  518 L
 899 2877 mt  899  518 L
6255 2877 mt 6255  518 L
 899 2877 mt 6255 2877 L
 899 2877 mt  899  518 L
 899 2877 mt  899 2850 L
 899  518 mt  899  544 L
 899 2877 mt  899 2823 L
 899  518 mt  899  571 L
%%IncludeResource: font Helvetica
/Helvetica /ISOLatin1Encoding 120 FMSR

 811 3059 mt 
(10) s
%%IncludeResource: font Helvetica
/Helvetica /ISOLatin1Encoding 80 FMSR

 944 2985 mt 
(0) s
1436 2877 mt 1436 2850 L
1436  518 mt 1436  544 L
1750 2877 mt 1750 2850 L
1750  518 mt 1750  544 L
1973 2877 mt 1973 2850 L
1973  518 mt 1973  544 L
2146 2877 mt 2146 2850 L
2146  518 mt 2146  544 L
2288 2877 mt 2288 2850 L
2288  518 mt 2288  544 L
2407 2877 mt 2407 2850 L
2407  518 mt 2407  544 L
2511 2877 mt 2511 2850 L
2511  518 mt 2511  544 L
2602 2877 mt 2602 2850 L
2602  518 mt 2602  544 L
2684 2877 mt 2684 2850 L
2684  518 mt 2684  544 L
2684 2877 mt 2684 2823 L
2684  518 mt 2684  571 L
%%IncludeResource: font Helvetica
/Helvetica /ISOLatin1Encoding 120 FMSR

2596 3059 mt 
(10) s
%%IncludeResource: font Helvetica
/Helvetica /ISOLatin1Encoding 80 FMSR

2729 2985 mt 
(1) s
3221 2877 mt 3221 2850 L
3221  518 mt 3221  544 L
3536 2877 mt 3536 2850 L
3536  518 mt 3536  544 L
3759 2877 mt 3759 2850 L
3759  518 mt 3759  544 L
3932 2877 mt 3932 2850 L
3932  518 mt 3932  544 L
4073 2877 mt 4073 2850 L
4073  518 mt 4073  544 L
4193 2877 mt 4193 2850 L
4193  518 mt 4193  544 L
4296 2877 mt 4296 2850 L
4296  518 mt 4296  544 L
4387 2877 mt 4387 2850 L
4387  518 mt 4387  544 L
4469 2877 mt 4469 2850 L
4469  518 mt 4469  544 L
4469 2877 mt 4469 2823 L
4469  518 mt 4469  571 L
%%IncludeResource: font Helvetica
/Helvetica /ISOLatin1Encoding 120 FMSR

4381 3059 mt 
(10) s
%%IncludeResource: font Helvetica
/Helvetica /ISOLatin1Encoding 80 FMSR

4514 2985 mt 
(2) s
5007 2877 mt 5007 2850 L
5007  518 mt 5007  544 L
5321 2877 mt 5321 2850 L
5321  518 mt 5321  544 L
5544 2877 mt 5544 2850 L
5544  518 mt 5544  544 L
5717 2877 mt 5717 2850 L
5717  518 mt 5717  544 L
5858 2877 mt 5858 2850 L
5858  518 mt 5858  544 L
5978 2877 mt 5978 2850 L
5978  518 mt 5978  544 L
6081 2877 mt 6081 2850 L
6081  518 mt 6081  544 L
6173 2877 mt 6173 2850 L
6173  518 mt 6173  544 L
6255 2877 mt 6255 2850 L
6255  518 mt 6255  544 L
6255 2877 mt 6255 2823 L
6255  518 mt 6255  571 L
%%IncludeResource: font Helvetica
/Helvetica /ISOLatin1Encoding 120 FMSR

6167 3059 mt 
(10) s
%%IncludeResource: font Helvetica
/Helvetica /ISOLatin1Encoding 80 FMSR

6300 2985 mt 
(3) s
 899 2877 mt  925 2877 L
6255 2877 mt 6228 2877 L
 899 2877 mt  952 2877 L
6255 2877 mt 6201 2877 L
%%IncludeResource: font Helvetica
/Helvetica /ISOLatin1Encoding 120 FMSR

 640 2921 mt 
(10) s
%%IncludeResource: font Helvetica
/Helvetica /ISOLatin1Encoding 80 FMSR

 773 2847 mt 
(-3) s
 899 2640 mt  925 2640 L
6255 2640 mt 6228 2640 L
 899 2501 mt  925 2501 L
6255 2501 mt 6228 2501 L
 899 2403 mt  925 2403 L
6255 2403 mt 6228 2403 L
 899 2327 mt  925 2327 L
6255 2327 mt 6228 2327 L
 899 2265 mt  925 2265 L
6255 2265 mt 6228 2265 L
 899 2212 mt  925 2212 L
6255 2212 mt 6228 2212 L
 899 2166 mt  925 2166 L
6255 2166 mt 6228 2166 L
 899 2126 mt  925 2126 L
6255 2126 mt 6228 2126 L
 899 2090 mt  925 2090 L
6255 2090 mt 6228 2090 L
 899 2090 mt  952 2090 L
6255 2090 mt 6201 2090 L
%%IncludeResource: font Helvetica
/Helvetica /ISOLatin1Encoding 120 FMSR

 640 2134 mt 
(10) s
%%IncludeResource: font Helvetica
/Helvetica /ISOLatin1Encoding 80 FMSR

 773 2060 mt 
(-2) s
 899 1853 mt  925 1853 L
6255 1853 mt 6228 1853 L
 899 1715 mt  925 1715 L
6255 1715 mt 6228 1715 L
 899 1617 mt  925 1617 L
6255 1617 mt 6228 1617 L
 899 1541 mt  925 1541 L
6255 1541 mt 6228 1541 L
 899 1478 mt  925 1478 L
6255 1478 mt 6228 1478 L
 899 1426 mt  925 1426 L
6255 1426 mt 6228 1426 L
 899 1380 mt  925 1380 L
6255 1380 mt 6228 1380 L
 899 1340 mt  925 1340 L
6255 1340 mt 6228 1340 L
 899 1304 mt  925 1304 L
6255 1304 mt 6228 1304 L
 899 1304 mt  952 1304 L
6255 1304 mt 6201 1304 L
%%IncludeResource: font Helvetica
/Helvetica /ISOLatin1Encoding 120 FMSR

 640 1348 mt 
(10) s
%%IncludeResource: font Helvetica
/Helvetica /ISOLatin1Encoding 80 FMSR

 773 1274 mt 
(-1) s
 899 1067 mt  925 1067 L
6255 1067 mt 6228 1067 L
 899  929 mt  925  929 L
6255  929 mt 6228  929 L
 899  830 mt  925  830 L
6255  830 mt 6228  830 L
 899  754 mt  925  754 L
6255  754 mt 6228  754 L
 899  692 mt  925  692 L
6255  692 mt 6228  692 L
 899  639 mt  925  639 L
6255  639 mt 6228  639 L
 899  594 mt  925  594 L
6255  594 mt 6228  594 L
 899  553 mt  925  553 L
6255  553 mt 6228  553 L
 899  518 mt  925  518 L
6255  518 mt 6228  518 L
 899  518 mt  952  518 L
6255  518 mt 6201  518 L
%%IncludeResource: font Helvetica
/Helvetica /ISOLatin1Encoding 120 FMSR

 640  562 mt 
(10) s
%%IncludeResource: font Helvetica
/Helvetica /ISOLatin1Encoding 80 FMSR

 773  488 mt 
(0) s
 899 2877 mt 6255 2877 L
 899  518 mt 6255  518 L
 899 2877 mt  899  518 L
6255 2877 mt 6255  518 L
gs 899 517 5357 2361 rc
24 w
110 248 109 17 109 -113 110 122 109 -608 109 746 110 -157 109 -185 
109 175 110 -17 109 304 109 -127 109 -189 110 254 109 -172 109 199 
110 -79 109 281 109 102 110 99 109 41 109 45 110 19 109 50 
109 -18 109 41 110 34 109 -5 109 13 110 0 109 -14 109 -1 
110 26 109 3 109 9 110 0 109 1 109 -6 109 9 110 25 
109 -21 109 -43 110 48 109 2 109 -15 110 6 109 -14 109 -4 
109 20 899 782 50 MP stroke
gr

24 w
gs 825 687 5505 1655 rc
  24   24  899  782 PO
  24   24 1008  802 PO
  24   24 1117  798 PO
  24   24 1226  784 PO
  24   24 1336  790 PO
  24   24 1445  775 PO
  24   24 1554  777 PO
  24   24 1664  825 PO
  24   24 1773  782 PO
  24   24 1882  761 PO
  24   24 1992  786 PO
  24   24 2101  795 PO
  24   24 2210  789 PO
  24   24 2319  790 PO
  24   24 2429  790 PO
  24   24 2538  799 PO
  24   24 2647  802 PO
  24   24 2757  828 PO
  24   24 2866  827 PO
  24   24 2975  813 PO
  24   24 3085  813 PO
  24   24 3194  826 PO
  24   24 3303  821 PO
  24   24 3413  855 PO
  24   24 3522  896 PO
  24   24 3631  878 PO
  24   24 3740  928 PO
  24   24 3850  947 PO
  24   24 3959  992 PO
  24   24 4068 1033 PO
  24   24 4178 1132 PO
  24   24 4287 1234 PO
  24   24 4396 1515 PO
  24   24 4506 1436 PO
  24   24 4615 1635 PO
  24   24 4724 1463 PO
  24   24 4834 1717 PO
  24   24 4943 1528 PO
  24   24 5052 1401 PO
  24   24 5161 1705 PO
  24   24 5271 1688 PO
  24   24 5380 1863 PO
  24   24 5489 1678 PO
  24   24 5599 1521 PO
  24   24 5708 2267 PO
  24   24 5817 1659 PO
  24   24 5927 1781 PO
  24   24 6036 1668 PO
  24   24 6145 1685 PO
  24   24 6255 1933 PO
  24   24  899  782 FO
  24   24 1008  802 FO
  24   24 1117  798 FO
  24   24 1226  784 FO
  24   24 1336  790 FO
  24   24 1445  775 FO
  24   24 1554  777 FO
  24   24 1664  825 FO
  24   24 1773  782 FO
  24   24 1882  761 FO
  24   24 1992  786 FO
  24   24 2101  795 FO
  24   24 2210  789 FO
  24   24 2319  790 FO
  24   24 2429  790 FO
  24   24 2538  799 FO
  24   24 2647  802 FO
  24   24 2757  828 FO
  24   24 2866  827 FO
  24   24 2975  813 FO
  24   24 3085  813 FO
  24   24 3194  826 FO
  24   24 3303  821 FO
  24   24 3413  855 FO
  24   24 3522  896 FO
  24   24 3631  878 FO
  24   24 3740  928 FO
  24   24 3850  947 FO
  24   24 3959  992 FO
  24   24 4068 1033 FO
  24   24 4178 1132 FO
  24   24 4287 1234 FO
  24   24 4396 1515 FO
  24   24 4506 1436 FO
  24   24 4615 1635 FO
  24   24 4724 1463 FO
  24   24 4834 1717 FO
  24   24 4943 1528 FO
  24   24 5052 1401 FO
  24   24 5161 1705 FO
  24   24 5271 1688 FO
  24   24 5380 1863 FO
  24   24 5489 1678 FO
  24   24 5599 1521 FO
  24   24 5708 2267 FO
  24   24 5817 1659 FO
  24   24 5927 1781 FO
  24   24 6036 1668 FO
  24   24 6145 1685 FO
  24   24 6255 1933 FO
gr

gs 899 517 5357 2361 rc
gr

gs 825 1602 5505 279 rc
  24   24  899 1742 PO
  24   24 1008 1732 PO
  24   24 1117 1762 PO
  24   24 1226 1764 PO
  24   24 1336 1750 PO
  24   24 1445 1769 PO
  24   24 1554 1764 PO
  24   24 1664 1756 PO
  24   24 1773 1772 PO
  24   24 1882 1719 PO
  24   24 1992 1765 PO
  24   24 2101 1781 PO
  24   24 2210 1739 PO
  24   24 2319 1789 PO
  24   24 2429 1728 PO
  24   24 2538 1802 PO
  24   24 2647 1797 PO
  24   24 2757 1782 PO
  24   24 2866 1806 PO
  24   24 2975 1798 PO
  24   24 3085 1795 PO
  24   24 3194 1761 PO
  24   24 3303 1768 PO
  24   24 3413 1767 PO
  24   24 3522 1805 PO
  24   24 3631 1756 PO
  24   24 3740 1766 PO
  24   24 3850 1723 PO
  24   24 3959 1690 PO
  24   24 4068 1703 PO
  24   24 4178 1740 PO
  24   24 4287 1676 PO
  24   24 4396 1684 PO
  24   24 4506 1730 PO
  24   24 4615 1737 PO
  24   24 4724 1705 PO
  24   24 4834 1726 PO
  24   24 4943 1766 PO
  24   24 5052 1707 PO
  24   24 5161 1726 PO
  24   24 5271 1731 PO
  24   24 5380 1681 PO
  24   24 5489 1756 PO
  24   24 5599 1753 PO
  24   24 5708 1753 PO
  24   24 5817 1721 PO
  24   24 5927 1725 PO
  24   24 6036 1758 PO
  24   24 6145 1728 PO
  24   24 6255 1733 PO
/c8 { 0.000000 0.000000 1.000000 sr} bdef
c8
  24   24  899 1742 FO
  24   24 1008 1732 FO
  24   24 1117 1762 FO
  24   24 1226 1764 FO
  24   24 1336 1750 FO
  24   24 1445 1769 FO
  24   24 1554 1764 FO
  24   24 1664 1756 FO
  24   24 1773 1772 FO
  24   24 1882 1719 FO
  24   24 1992 1765 FO
  24   24 2101 1781 FO
  24   24 2210 1739 FO
  24   24 2319 1789 FO
  24   24 2429 1728 FO
  24   24 2538 1802 FO
  24   24 2647 1797 FO
  24   24 2757 1782 FO
  24   24 2866 1806 FO
  24   24 2975 1798 FO
  24   24 3085 1795 FO
  24   24 3194 1761 FO
  24   24 3303 1768 FO
  24   24 3413 1767 FO
  24   24 3522 1805 FO
  24   24 3631 1756 FO
  24   24 3740 1766 FO
  24   24 3850 1723 FO
  24   24 3959 1690 FO
  24   24 4068 1703 FO
  24   24 4178 1740 FO
  24   24 4287 1676 FO
  24   24 4396 1684 FO
  24   24 4506 1730 FO
  24   24 4615 1737 FO
  24   24 4724 1705 FO
  24   24 4834 1726 FO
  24   24 4943 1766 FO
  24   24 5052 1707 FO
  24   24 5161 1726 FO
  24   24 5271 1731 FO
  24   24 5380 1681 FO
  24   24 5489 1756 FO
  24   24 5599 1753 FO
  24   24 5708 1753 FO
  24   24 5817 1721 FO
  24   24 5927 1725 FO
  24   24 6036 1758 FO
  24   24 6145 1728 FO
  24   24 6255 1733 FO
gr

c8
gs 899 517 5357 2361 rc
gr

0 sg
%%IncludeResource: font Helvetica
/Helvetica /ISOLatin1Encoding 120 FMSR

 504 1807 mt  -90 rotate
(r) s
90 rotate
%%IncludeResource: font Helvetica
/Helvetica /ISOLatin1Encoding 96 FMSR

 564 1768 mt  -90 rotate
(1) s
90 rotate
%%IncludeResource: font Helvetica
/Helvetica /ISOLatin1Encoding 120 FMSR

 504 1715 mt  -90 rotate
(/r) s
90 rotate
%%IncludeResource: font Helvetica
/Helvetica /ISOLatin1Encoding 96 FMSR

 564 1642 mt  -90 rotate
(0) s
90 rotate
%%IncludeResource: font Helvetica
/Helvetica /ISOLatin1Encoding 120 FMSR

 882 2920 mt 
( ) s
6239  559 mt 
( ) s
6 w
1 sg
0 334 1577 0 0 -334 959 2818 4 MP
PP
-1577 0 0 334 1577 0 0 -334 959 2818 5 MP stroke
4 w
DO
SO
6 w
0 sg
 959 2818 mt 2536 2818 L
 959 2484 mt 2536 2484 L
 959 2818 mt  959 2484 L
2536 2818 mt 2536 2484 L
 959 2818 mt 2536 2818 L
 959 2818 mt  959 2484 L
 959 2818 mt 2536 2818 L
 959 2484 mt 2536 2484 L
 959 2818 mt  959 2484 L
2536 2818 mt 2536 2484 L
1427 2618 mt 
(Real spike times) s
gs 959 2484 1578 335 rc
24 w
360 0 1030 2575 2 MP stroke
gs 1136 2501 149 149 rc
  24   24 1210 2575 PO
  24   24 1210 2575 FO
gr

gr

24 w
1427 2769 mt 
(Shuffled spike times) s
gs 959 2484 1578 335 rc
gs 1136 2652 149 149 rc
  24   24 1210 2726 PO
c8
  24   24 1210 2726 FO
gr

c8
6 w
gr

6 w
c8
1 sg
0 2358 5356 0 0 -2358 899 6152 4 MP
PP
-5356 0 0 2358 5356 0 0 -2358 899 6152 5 MP stroke
4 w
DO
SO
6 w
0 sg
 899 6152 mt 6255 6152 L
 899 3794 mt 6255 3794 L
 899 6152 mt  899 3794 L
6255 6152 mt 6255 3794 L
 899 6152 mt 6255 6152 L
 899 6152 mt  899 3794 L
 899 6152 mt  899 6125 L
 899 3794 mt  899 3820 L
 899 6152 mt  899 6098 L
 899 3794 mt  899 3847 L
 811 6334 mt 
(10) s
%%IncludeResource: font Helvetica
/Helvetica /ISOLatin1Encoding 80 FMSR

 944 6260 mt 
(0) s
1436 6152 mt 1436 6125 L
1436 3794 mt 1436 3820 L
1750 6152 mt 1750 6125 L
1750 3794 mt 1750 3820 L
1973 6152 mt 1973 6125 L
1973 3794 mt 1973 3820 L
2146 6152 mt 2146 6125 L
2146 3794 mt 2146 3820 L
2288 6152 mt 2288 6125 L
2288 3794 mt 2288 3820 L
2407 6152 mt 2407 6125 L
2407 3794 mt 2407 3820 L
2511 6152 mt 2511 6125 L
2511 3794 mt 2511 3820 L
2602 6152 mt 2602 6125 L
2602 3794 mt 2602 3820 L
2684 6152 mt 2684 6125 L
2684 3794 mt 2684 3820 L
2684 6152 mt 2684 6098 L
2684 3794 mt 2684 3847 L
%%IncludeResource: font Helvetica
/Helvetica /ISOLatin1Encoding 120 FMSR

2596 6334 mt 
(10) s
%%IncludeResource: font Helvetica
/Helvetica /ISOLatin1Encoding 80 FMSR

2729 6260 mt 
(1) s
3221 6152 mt 3221 6125 L
3221 3794 mt 3221 3820 L
3536 6152 mt 3536 6125 L
3536 3794 mt 3536 3820 L
3759 6152 mt 3759 6125 L
3759 3794 mt 3759 3820 L
3932 6152 mt 3932 6125 L
3932 3794 mt 3932 3820 L
4073 6152 mt 4073 6125 L
4073 3794 mt 4073 3820 L
4193 6152 mt 4193 6125 L
4193 3794 mt 4193 3820 L
4296 6152 mt 4296 6125 L
4296 3794 mt 4296 3820 L
4387 6152 mt 4387 6125 L
4387 3794 mt 4387 3820 L
4469 6152 mt 4469 6125 L
4469 3794 mt 4469 3820 L
4469 6152 mt 4469 6098 L
4469 3794 mt 4469 3847 L
%%IncludeResource: font Helvetica
/Helvetica /ISOLatin1Encoding 120 FMSR

4381 6334 mt 
(10) s
%%IncludeResource: font Helvetica
/Helvetica /ISOLatin1Encoding 80 FMSR

4514 6260 mt 
(2) s
5007 6152 mt 5007 6125 L
5007 3794 mt 5007 3820 L
5321 6152 mt 5321 6125 L
5321 3794 mt 5321 3820 L
5544 6152 mt 5544 6125 L
5544 3794 mt 5544 3820 L
5717 6152 mt 5717 6125 L
5717 3794 mt 5717 3820 L
5858 6152 mt 5858 6125 L
5858 3794 mt 5858 3820 L
5978 6152 mt 5978 6125 L
5978 3794 mt 5978 3820 L
6081 6152 mt 6081 6125 L
6081 3794 mt 6081 3820 L
6173 6152 mt 6173 6125 L
6173 3794 mt 6173 3820 L
6255 6152 mt 6255 6125 L
6255 3794 mt 6255 3820 L
6255 6152 mt 6255 6098 L
6255 3794 mt 6255 3847 L
%%IncludeResource: font Helvetica
/Helvetica /ISOLatin1Encoding 120 FMSR

6167 6334 mt 
(10) s
%%IncludeResource: font Helvetica
/Helvetica /ISOLatin1Encoding 80 FMSR

6300 6260 mt 
(3) s
 899 6152 mt  952 6152 L
6255 6152 mt 6201 6152 L
%%IncludeResource: font Helvetica
/Helvetica /ISOLatin1Encoding 120 FMSR

 528 6196 mt 
(-1400) s
 899 5857 mt  952 5857 L
6255 5857 mt 6201 5857 L
 528 5901 mt 
(-1200) s
 899 5562 mt  952 5562 L
6255 5562 mt 6201 5562 L
 528 5606 mt 
(-1000) s
 899 5267 mt  952 5267 L
6255 5267 mt 6201 5267 L
 594 5311 mt 
(-800) s
 899 4973 mt  952 4973 L
6255 4973 mt 6201 4973 L
 594 5017 mt 
(-600) s
 899 4678 mt  952 4678 L
6255 4678 mt 6201 4678 L
 594 4722 mt 
(-400) s
 899 4383 mt  952 4383 L
6255 4383 mt 6201 4383 L
 594 4427 mt 
(-200) s
 899 4088 mt  952 4088 L
6255 4088 mt 6201 4088 L
 798 4132 mt 
(0) s
 899 3794 mt  952 3794 L
6255 3794 mt 6201 3794 L
 664 3838 mt 
(200) s
 899 6152 mt 6255 6152 L
 899 3794 mt 6255 3794 L
 899 6152 mt  899 3794 L
6255 6152 mt 6255 3794 L
gs 899 3794 5357 2359 rc
24 w
110 387 109 -59 109 -25 110 47 109 331 109 44 110 285 109 -23 
109 211 110 167 109 337 109 -98 109 104 110 4 109 -88 109 83 
110 -35 109 36 109 11 110 20 109 23 109 29 110 -6 109 15 
109 14 109 13 110 10 109 10 109 6 110 18 109 -3 109 5 
110 10 109 -3 109 18 110 -2 109 3 109 -3 109 -1 110 11 
109 -1 109 0 110 0 109 4 109 -4 110 6 109 3 109 5 
109 -1 899 4087 50 MP stroke
gr

24 w
gs 825 4012 5505 2068 rc
  24   24  899 4087 PO
  24   24 1008 4086 PO
  24   24 1117 4091 PO
  24   24 1226 4094 PO
  24   24 1336 4100 PO
  24   24 1445 4096 PO
  24   24 1554 4100 PO
  24   24 1664 4100 PO
  24   24 1773 4100 PO
  24   24 1882 4099 PO
  24   24 1992 4110 PO
  24   24 2101 4109 PO
  24   24 2210 4106 PO
  24   24 2319 4109 PO
  24   24 2429 4107 PO
  24   24 2538 4125 PO
  24   24 2647 4122 PO
  24   24 2757 4132 PO
  24   24 2866 4137 PO
  24   24 2975 4134 PO
  24   24 3085 4152 PO
  24   24 3194 4158 PO
  24   24 3303 4168 PO
  24   24 3413 4178 PO
  24   24 3522 4191 PO
  24   24 3631 4205 PO
  24   24 3740 4220 PO
  24   24 3850 4214 PO
  24   24 3959 4243 PO
  24   24 4068 4266 PO
  24   24 4178 4286 PO
  24   24 4287 4297 PO
  24   24 4396 4333 PO
  24   24 4506 4298 PO
  24   24 4615 4381 PO
  24   24 4724 4293 PO
  24   24 4834 4297 PO
  24   24 4943 4401 PO
  24   24 5052 4303 PO
  24   24 5161 4640 PO
  24   24 5271 4807 PO
  24   24 5380 5018 PO
  24   24 5489 4995 PO
  24   24 5599 5280 PO
  24   24 5708 5324 PO
  24   24 5817 5655 PO
  24   24 5927 5702 PO
  24   24 6036 5677 PO
  24   24 6145 5618 PO
  24   24 6255 6005 PO
  24   24  899 4087 FO
  24   24 1008 4086 FO
  24   24 1117 4091 FO
  24   24 1226 4094 FO
  24   24 1336 4100 FO
  24   24 1445 4096 FO
  24   24 1554 4100 FO
  24   24 1664 4100 FO
  24   24 1773 4100 FO
  24   24 1882 4099 FO
  24   24 1992 4110 FO
  24   24 2101 4109 FO
  24   24 2210 4106 FO
  24   24 2319 4109 FO
  24   24 2429 4107 FO
  24   24 2538 4125 FO
  24   24 2647 4122 FO
  24   24 2757 4132 FO
  24   24 2866 4137 FO
  24   24 2975 4134 FO
  24   24 3085 4152 FO
  24   24 3194 4158 FO
  24   24 3303 4168 FO
  24   24 3413 4178 FO
  24   24 3522 4191 FO
  24   24 3631 4205 FO
  24   24 3740 4220 FO
  24   24 3850 4214 FO
  24   24 3959 4243 FO
  24   24 4068 4266 FO
  24   24 4178 4286 FO
  24   24 4287 4297 FO
  24   24 4396 4333 FO
  24   24 4506 4298 FO
  24   24 4615 4381 FO
  24   24 4724 4293 FO
  24   24 4834 4297 FO
  24   24 4943 4401 FO
  24   24 5052 4303 FO
  24   24 5161 4640 FO
  24   24 5271 4807 FO
  24   24 5380 5018 FO
  24   24 5489 4995 FO
  24   24 5599 5280 FO
  24   24 5708 5324 FO
  24   24 5817 5655 FO
  24   24 5927 5702 FO
  24   24 6036 5677 FO
  24   24 6145 5618 FO
  24   24 6255 6005 FO
gr

gs 899 3794 5357 2359 rc
gr

3409 6477 mt 
(F \(Hz\)) s
%%IncludeResource: font Symbol
/Symbol /ISOLatin1Encoding 120 FMSR

 438 5020 mt  -90 rotate
(F) s
90 rotate
6 w

end %%Color Dict

eplot
%%EndObject

epage
end

showpage

%%Trailer
%%EOF
