%!PS-Adobe-3.0 EPSF-3.0
%%Creator: MATLAB, The MathWorks, Inc. Version 7.14.0.739 (R2012a). Operating System: Linux 2.6.33.7.2-rt30-rt #1 SMP PREEMPT RT Tue Apr 17 15:22:21 CEST 2012 x86_64.
%%Title: ./modulation_phase_shift_ap_peak.eps
%%CreationDate: 10/03/2013  09:24:20
%%DocumentNeededFonts: Helvetica
%%DocumentProcessColors: Cyan Magenta Yellow Black
%%LanguageLevel: 2
%%Pages: 1
%%BoundingBox:    24    31   532   545
%%EndComments

%%BeginProlog
% MathWorks dictionary
/MathWorks 160 dict begin
% definition operators
/bdef {bind def} bind def
/ldef {load def} bind def
/xdef {exch def} bdef
/xstore {exch store} bdef
% operator abbreviations
/c  /clip ldef
/cc /concat ldef
/cp /closepath ldef
/gr /grestore ldef
/gs /gsave ldef
/mt /moveto ldef
/np /newpath ldef
/cm /currentmatrix ldef
/sm /setmatrix ldef
/rm /rmoveto ldef
/rl /rlineto ldef
/s {show newpath} bdef
/sc {setcmykcolor} bdef
/sr /setrgbcolor ldef
/sg /setgray ldef
/w /setlinewidth ldef
/j /setlinejoin ldef
/cap /setlinecap ldef
/rc {rectclip} bdef
/rf {rectfill} bdef
% page state control
/pgsv () def
/bpage {/pgsv save def} bdef
/epage {pgsv restore} bdef
/bplot /gsave ldef
/eplot {stroke grestore} bdef
% orientation switch
/portraitMode 0 def /landscapeMode 1 def /rotateMode 2 def
% coordinate system mappings
/dpi2point 0 def
% font control
/FontSize 0 def
/FMS {/FontSize xstore findfont [FontSize 0 0 FontSize neg 0 0]
  makefont setfont} bdef
/reencode {exch dup where {pop load} {pop StandardEncoding} ifelse
  exch dup 3 1 roll findfont dup length dict begin
  { 1 index /FID ne {def}{pop pop} ifelse } forall
  /Encoding exch def currentdict end definefont pop} bdef
/isroman {findfont /CharStrings get /Agrave known} bdef
/FMSR {3 1 roll 1 index dup isroman {reencode} {pop pop} ifelse
  exch FMS} bdef
/csm {1 dpi2point div -1 dpi2point div scale neg translate
 dup landscapeMode eq {pop -90 rotate}
  {rotateMode eq {90 rotate} if} ifelse} bdef
% line types: solid, dotted, dashed, dotdash
/SO { [] 0 setdash } bdef
/DO { [.5 dpi2point mul 4 dpi2point mul] 0 setdash } bdef
/DA { [6 dpi2point mul] 0 setdash } bdef
/DD { [.5 dpi2point mul 4 dpi2point mul 6 dpi2point mul 4
  dpi2point mul] 0 setdash } bdef
% macros for lines and objects
/L {lineto stroke} bdef
/MP {3 1 roll moveto 1 sub {rlineto} repeat} bdef
/AP {{rlineto} repeat} bdef
/PDlw -1 def
/W {/PDlw currentlinewidth def setlinewidth} def
/PP {closepath eofill} bdef
/DP {closepath stroke} bdef
/MR {4 -2 roll moveto dup  0 exch rlineto exch 0 rlineto
  neg 0 exch rlineto closepath} bdef
/FR {MR stroke} bdef
/PR {MR fill} bdef
/L1i {{currentfile picstr readhexstring pop} image} bdef
/tMatrix matrix def
/MakeOval {newpath tMatrix currentmatrix pop translate scale
0 0 1 0 360 arc tMatrix setmatrix} bdef
/FO {MakeOval stroke} bdef
/PO {MakeOval fill} bdef
/PD {currentlinewidth 2 div 0 360 arc fill
   PDlw -1 eq not {PDlw w /PDlw -1 def} if} def
/FA {newpath tMatrix currentmatrix pop translate scale
  0 0 1 5 -2 roll arc tMatrix setmatrix stroke} bdef
/PA {newpath tMatrix currentmatrix pop	translate 0 0 moveto scale
  0 0 1 5 -2 roll arc closepath tMatrix setmatrix fill} bdef
/FAn {newpath tMatrix currentmatrix pop translate scale
  0 0 1 5 -2 roll arcn tMatrix setmatrix stroke} bdef
/PAn {newpath tMatrix currentmatrix pop translate 0 0 moveto scale
  0 0 1 5 -2 roll arcn closepath tMatrix setmatrix fill} bdef
/vradius 0 def /hradius 0 def /lry 0 def
/lrx 0 def /uly 0 def /ulx 0 def /rad 0 def
/MRR {/vradius xdef /hradius xdef /lry xdef /lrx xdef /uly xdef
  /ulx xdef newpath tMatrix currentmatrix pop ulx hradius add uly
  vradius add translate hradius vradius scale 0 0 1 180 270 arc 
  tMatrix setmatrix lrx hradius sub uly vradius add translate
  hradius vradius scale 0 0 1 270 360 arc tMatrix setmatrix
  lrx hradius sub lry vradius sub translate hradius vradius scale
  0 0 1 0 90 arc tMatrix setmatrix ulx hradius add lry vradius sub
  translate hradius vradius scale 0 0 1 90 180 arc tMatrix setmatrix
  closepath} bdef
/FRR {MRR stroke } bdef
/PRR {MRR fill } bdef
/MlrRR {/lry xdef /lrx xdef /uly xdef /ulx xdef /rad lry uly sub 2 div def
  newpath tMatrix currentmatrix pop ulx rad add uly rad add translate
  rad rad scale 0 0 1 90 270 arc tMatrix setmatrix lrx rad sub lry rad
  sub translate rad rad scale 0 0 1 270 90 arc tMatrix setmatrix
  closepath} bdef
/FlrRR {MlrRR stroke } bdef
/PlrRR {MlrRR fill } bdef
/MtbRR {/lry xdef /lrx xdef /uly xdef /ulx xdef /rad lrx ulx sub 2 div def
  newpath tMatrix currentmatrix pop ulx rad add uly rad add translate
  rad rad scale 0 0 1 180 360 arc tMatrix setmatrix lrx rad sub lry rad
  sub translate rad rad scale 0 0 1 0 180 arc tMatrix setmatrix
  closepath} bdef
/FtbRR {MtbRR stroke } bdef
/PtbRR {MtbRR fill } bdef
/stri 6 array def /dtri 6 array def
/smat 6 array def /dmat 6 array def
/tmat1 6 array def /tmat2 6 array def /dif 3 array def
/asub {/ind2 exch def /ind1 exch def dup dup
  ind1 get exch ind2 get sub exch } bdef
/tri_to_matrix {
  2 0 asub 3 1 asub 4 0 asub 5 1 asub
  dup 0 get exch 1 get 7 -1 roll astore } bdef
/compute_transform {
  dmat dtri tri_to_matrix tmat1 invertmatrix 
  smat stri tri_to_matrix tmat2 concatmatrix } bdef
/ds {stri astore pop} bdef
/dt {dtri astore pop} bdef
/db {2 copy /cols xdef /rows xdef mul dup 3 mul string
  currentfile 
  3 index 0 eq {/ASCIIHexDecode filter}
  {/ASCII85Decode filter 3 index 2 eq {/RunLengthDecode filter} if }
  ifelse exch readstring pop
  dup 0 3 index getinterval /rbmap xdef
  dup 2 index dup getinterval /gbmap xdef
  1 index dup 2 mul exch getinterval /bbmap xdef pop pop}bdef
/it {gs np dtri aload pop moveto lineto lineto cp c
  cols rows 8 compute_transform 
  rbmap gbmap bbmap true 3 colorimage gr}bdef
/il {newpath moveto lineto stroke}bdef
currentdict end def
%%EndProlog

%%BeginSetup
MathWorks begin

0 cap

end
%%EndSetup

%%Page: 1 1
%%BeginPageSetup
%%PageBoundingBox:    24    31   532   545
MathWorks begin
bpage
%%EndPageSetup

%%BeginObject: obj1
bplot

/dpi2point 12 def
portraitMode 0000 6912 csm

  292   366  6101  6163 rc
85 dict begin %Colortable dictionary
/c0 { 0.000000 0.000000 0.000000 sr} bdef
/c1 { 1.000000 1.000000 1.000000 sr} bdef
/c2 { 0.900000 0.000000 0.000000 sr} bdef
/c3 { 0.000000 0.820000 0.000000 sr} bdef
/c4 { 0.000000 0.000000 0.800000 sr} bdef
/c5 { 0.910000 0.820000 0.320000 sr} bdef
/c6 { 1.000000 0.260000 0.820000 sr} bdef
/c7 { 0.000000 0.820000 0.820000 sr} bdef
c0
1 j
1 sg
   0    0 6913 6913 rf
6 w
0 2359 5356 0 0 -2359 899 2877 4 MP
PP
-5356 0 0 2359 5356 0 0 -2359 899 2877 5 MP stroke
4 w
DO
SO
6 w
0 sg
 899 2877 mt 6255 2877 L
 899  518 mt 6255  518 L
 899 2877 mt  899  518 L
6255 2877 mt 6255  518 L
 899 2877 mt 6255 2877 L
 899 2877 mt  899  518 L
 899 2877 mt  899 2850 L
 899  518 mt  899  544 L
 899 2877 mt  899 2823 L
 899  518 mt  899  571 L
%%IncludeResource: font Helvetica
/Helvetica /ISOLatin1Encoding 120 FMSR

 811 3059 mt 
(10) s
%%IncludeResource: font Helvetica
/Helvetica /ISOLatin1Encoding 80 FMSR

 944 2985 mt 
(0) s
1436 2877 mt 1436 2850 L
1436  518 mt 1436  544 L
1750 2877 mt 1750 2850 L
1750  518 mt 1750  544 L
1973 2877 mt 1973 2850 L
1973  518 mt 1973  544 L
2146 2877 mt 2146 2850 L
2146  518 mt 2146  544 L
2288 2877 mt 2288 2850 L
2288  518 mt 2288  544 L
2407 2877 mt 2407 2850 L
2407  518 mt 2407  544 L
2511 2877 mt 2511 2850 L
2511  518 mt 2511  544 L
2602 2877 mt 2602 2850 L
2602  518 mt 2602  544 L
2684 2877 mt 2684 2850 L
2684  518 mt 2684  544 L
2684 2877 mt 2684 2823 L
2684  518 mt 2684  571 L
%%IncludeResource: font Helvetica
/Helvetica /ISOLatin1Encoding 120 FMSR

2596 3059 mt 
(10) s
%%IncludeResource: font Helvetica
/Helvetica /ISOLatin1Encoding 80 FMSR

2729 2985 mt 
(1) s
3221 2877 mt 3221 2850 L
3221  518 mt 3221  544 L
3536 2877 mt 3536 2850 L
3536  518 mt 3536  544 L
3759 2877 mt 3759 2850 L
3759  518 mt 3759  544 L
3932 2877 mt 3932 2850 L
3932  518 mt 3932  544 L
4073 2877 mt 4073 2850 L
4073  518 mt 4073  544 L
4193 2877 mt 4193 2850 L
4193  518 mt 4193  544 L
4296 2877 mt 4296 2850 L
4296  518 mt 4296  544 L
4387 2877 mt 4387 2850 L
4387  518 mt 4387  544 L
4469 2877 mt 4469 2850 L
4469  518 mt 4469  544 L
4469 2877 mt 4469 2823 L
4469  518 mt 4469  571 L
%%IncludeResource: font Helvetica
/Helvetica /ISOLatin1Encoding 120 FMSR

4381 3059 mt 
(10) s
%%IncludeResource: font Helvetica
/Helvetica /ISOLatin1Encoding 80 FMSR

4514 2985 mt 
(2) s
5007 2877 mt 5007 2850 L
5007  518 mt 5007  544 L
5321 2877 mt 5321 2850 L
5321  518 mt 5321  544 L
5544 2877 mt 5544 2850 L
5544  518 mt 5544  544 L
5717 2877 mt 5717 2850 L
5717  518 mt 5717  544 L
5858 2877 mt 5858 2850 L
5858  518 mt 5858  544 L
5978 2877 mt 5978 2850 L
5978  518 mt 5978  544 L
6081 2877 mt 6081 2850 L
6081  518 mt 6081  544 L
6173 2877 mt 6173 2850 L
6173  518 mt 6173  544 L
6255 2877 mt 6255 2850 L
6255  518 mt 6255  544 L
6255 2877 mt 6255 2823 L
6255  518 mt 6255  571 L
%%IncludeResource: font Helvetica
/Helvetica /ISOLatin1Encoding 120 FMSR

6167 3059 mt 
(10) s
%%IncludeResource: font Helvetica
/Helvetica /ISOLatin1Encoding 80 FMSR

6300 2985 mt 
(3) s
 899 2877 mt  925 2877 L
6255 2877 mt 6228 2877 L
 899 2877 mt  952 2877 L
6255 2877 mt 6201 2877 L
%%IncludeResource: font Helvetica
/Helvetica /ISOLatin1Encoding 120 FMSR

 640 2921 mt 
(10) s
%%IncludeResource: font Helvetica
/Helvetica /ISOLatin1Encoding 80 FMSR

 773 2847 mt 
(-3) s
 899 2640 mt  925 2640 L
6255 2640 mt 6228 2640 L
 899 2501 mt  925 2501 L
6255 2501 mt 6228 2501 L
 899 2403 mt  925 2403 L
6255 2403 mt 6228 2403 L
 899 2327 mt  925 2327 L
6255 2327 mt 6228 2327 L
 899 2265 mt  925 2265 L
6255 2265 mt 6228 2265 L
 899 2212 mt  925 2212 L
6255 2212 mt 6228 2212 L
 899 2166 mt  925 2166 L
6255 2166 mt 6228 2166 L
 899 2126 mt  925 2126 L
6255 2126 mt 6228 2126 L
 899 2090 mt  925 2090 L
6255 2090 mt 6228 2090 L
 899 2090 mt  952 2090 L
6255 2090 mt 6201 2090 L
%%IncludeResource: font Helvetica
/Helvetica /ISOLatin1Encoding 120 FMSR

 640 2134 mt 
(10) s
%%IncludeResource: font Helvetica
/Helvetica /ISOLatin1Encoding 80 FMSR

 773 2060 mt 
(-2) s
 899 1853 mt  925 1853 L
6255 1853 mt 6228 1853 L
 899 1715 mt  925 1715 L
6255 1715 mt 6228 1715 L
 899 1617 mt  925 1617 L
6255 1617 mt 6228 1617 L
 899 1541 mt  925 1541 L
6255 1541 mt 6228 1541 L
 899 1478 mt  925 1478 L
6255 1478 mt 6228 1478 L
 899 1426 mt  925 1426 L
6255 1426 mt 6228 1426 L
 899 1380 mt  925 1380 L
6255 1380 mt 6228 1380 L
 899 1340 mt  925 1340 L
6255 1340 mt 6228 1340 L
 899 1304 mt  925 1304 L
6255 1304 mt 6228 1304 L
 899 1304 mt  952 1304 L
6255 1304 mt 6201 1304 L
%%IncludeResource: font Helvetica
/Helvetica /ISOLatin1Encoding 120 FMSR

 640 1348 mt 
(10) s
%%IncludeResource: font Helvetica
/Helvetica /ISOLatin1Encoding 80 FMSR

 773 1274 mt 
(-1) s
 899 1067 mt  925 1067 L
6255 1067 mt 6228 1067 L
 899  929 mt  925  929 L
6255  929 mt 6228  929 L
 899  830 mt  925  830 L
6255  830 mt 6228  830 L
 899  754 mt  925  754 L
6255  754 mt 6228  754 L
 899  692 mt  925  692 L
6255  692 mt 6228  692 L
 899  639 mt  925  639 L
6255  639 mt 6228  639 L
 899  594 mt  925  594 L
6255  594 mt 6228  594 L
 899  553 mt  925  553 L
6255  553 mt 6228  553 L
 899  518 mt  925  518 L
6255  518 mt 6228  518 L
 899  518 mt  952  518 L
6255  518 mt 6201  518 L
%%IncludeResource: font Helvetica
/Helvetica /ISOLatin1Encoding 120 FMSR

 640  562 mt 
(10) s
%%IncludeResource: font Helvetica
/Helvetica /ISOLatin1Encoding 80 FMSR

 773  488 mt 
(0) s
 899 2877 mt 6255 2877 L
 899  518 mt 6255  518 L
 899 2877 mt  899  518 L
6255 2877 mt 6255  518 L
gs 899 517 5357 2361 rc
24 w
110 350 109 -639 109 739 110 -97 109 11 109 -76 110 -19 109 -228 
109 228 110 10 109 -173 109 -254 109 352 110 -670 109 681 109 -20 
110 366 109 -95 109 184 110 -51 109 171 109 33 110 47 109 85 
109 27 109 -27 110 75 109 -20 109 1 110 45 109 -20 109 -8 
110 30 109 30 109 3 110 -19 109 19 109 1 109 -8 110 22 
109 -24 109 -9 110 -1 109 21 109 -11 110 0 109 36 109 -62 
109 43 899 640 50 MP stroke
gr

24 w
gs 825 547 5505 1713 rc
  24   24  899  640 PO
  24   24 1008  683 PO
  24   24 1117  621 PO
  24   24 1226  657 PO
  24   24 1336  657 PO
  24   24 1445  646 PO
  24   24 1554  667 PO
  24   24 1664  666 PO
  24   24 1773  657 PO
  24   24 1882  633 PO
  24   24 1992  655 PO
  24   24 2101  647 PO
  24   24 2210  648 PO
  24   24 2319  667 PO
  24   24 2429  648 PO
  24   24 2538  651 PO
  24   24 2647  681 PO
  24   24 2757  711 PO
  24   24 2866  703 PO
  24   24 2975  683 PO
  24   24 3085  728 PO
  24   24 3194  729 PO
  24   24 3303  709 PO
  24   24 3413  784 PO
  24   24 3522  757 PO
  24   24 3631  784 PO
  24   24 3740  869 PO
  24   24 3850  916 PO
  24   24 3959  949 PO
  24   24 4068 1120 PO
  24   24 4178 1069 PO
  24   24 4287 1253 PO
  24   24 4396 1158 PO
  24   24 4506 1524 PO
  24   24 4615 1504 PO
  24   24 4724 2185 PO
  24   24 4834 1515 PO
  24   24 4943 1867 PO
  24   24 5052 1613 PO
  24   24 5161 1440 PO
  24   24 5271 1450 PO
  24   24 5380 1678 PO
  24   24 5489 1450 PO
  24   24 5599 1431 PO
  24   24 5708 1355 PO
  24   24 5817 1366 PO
  24   24 5927 1269 PO
  24   24 6036 2008 PO
  24   24 6145 1369 PO
  24   24 6255 1719 PO
  24   24  899  640 FO
  24   24 1008  683 FO
  24   24 1117  621 FO
  24   24 1226  657 FO
  24   24 1336  657 FO
  24   24 1445  646 FO
  24   24 1554  667 FO
  24   24 1664  666 FO
  24   24 1773  657 FO
  24   24 1882  633 FO
  24   24 1992  655 FO
  24   24 2101  647 FO
  24   24 2210  648 FO
  24   24 2319  667 FO
  24   24 2429  648 FO
  24   24 2538  651 FO
  24   24 2647  681 FO
  24   24 2757  711 FO
  24   24 2866  703 FO
  24   24 2975  683 FO
  24   24 3085  728 FO
  24   24 3194  729 FO
  24   24 3303  709 FO
  24   24 3413  784 FO
  24   24 3522  757 FO
  24   24 3631  784 FO
  24   24 3740  869 FO
  24   24 3850  916 FO
  24   24 3959  949 FO
  24   24 4068 1120 FO
  24   24 4178 1069 FO
  24   24 4287 1253 FO
  24   24 4396 1158 FO
  24   24 4506 1524 FO
  24   24 4615 1504 FO
  24   24 4724 2185 FO
  24   24 4834 1515 FO
  24   24 4943 1867 FO
  24   24 5052 1613 FO
  24   24 5161 1440 FO
  24   24 5271 1450 FO
  24   24 5380 1678 FO
  24   24 5489 1450 FO
  24   24 5599 1431 FO
  24   24 5708 1355 FO
  24   24 5817 1366 FO
  24   24 5927 1269 FO
  24   24 6036 2008 FO
  24   24 6145 1369 FO
  24   24 6255 1719 FO
gr

gs 899 517 5357 2361 rc
gr

gs 825 1372 5505 252 rc
  24   24  899 1455 PO
  24   24 1008 1470 PO
  24   24 1117 1486 PO
  24   24 1226 1446 PO
  24   24 1336 1472 PO
  24   24 1445 1477 PO
  24   24 1554 1504 PO
  24   24 1664 1451 PO
  24   24 1773 1484 PO
  24   24 1882 1503 PO
  24   24 1992 1477 PO
  24   24 2101 1479 PO
  24   24 2210 1513 PO
  24   24 2319 1484 PO
  24   24 2429 1506 PO
  24   24 2538 1489 PO
  24   24 2647 1468 PO
  24   24 2757 1510 PO
  24   24 2866 1519 PO
  24   24 2975 1518 PO
  24   24 3085 1538 PO
  24   24 3194 1502 PO
  24   24 3303 1544 PO
  24   24 3413 1507 PO
  24   24 3522 1517 PO
  24   24 3631 1511 PO
  24   24 3740 1503 PO
  24   24 3850 1461 PO
  24   24 3959 1507 PO
  24   24 4068 1476 PO
  24   24 4178 1549 PO
  24   24 4287 1507 PO
  24   24 4396 1542 PO
  24   24 4506 1491 PO
  24   24 4615 1520 PO
  24   24 4724 1502 PO
  24   24 4834 1492 PO
  24   24 4943 1542 PO
  24   24 5052 1527 PO
  24   24 5161 1524 PO
  24   24 5271 1474 PO
  24   24 5380 1549 PO
  24   24 5489 1542 PO
  24   24 5599 1465 PO
  24   24 5708 1469 PO
  24   24 5817 1515 PO
  24   24 5927 1450 PO
  24   24 6036 1491 PO
  24   24 6145 1483 PO
  24   24 6255 1490 PO
/c8 { 0.000000 0.000000 1.000000 sr} bdef
c8
  24   24  899 1455 FO
  24   24 1008 1470 FO
  24   24 1117 1486 FO
  24   24 1226 1446 FO
  24   24 1336 1472 FO
  24   24 1445 1477 FO
  24   24 1554 1504 FO
  24   24 1664 1451 FO
  24   24 1773 1484 FO
  24   24 1882 1503 FO
  24   24 1992 1477 FO
  24   24 2101 1479 FO
  24   24 2210 1513 FO
  24   24 2319 1484 FO
  24   24 2429 1506 FO
  24   24 2538 1489 FO
  24   24 2647 1468 FO
  24   24 2757 1510 FO
  24   24 2866 1519 FO
  24   24 2975 1518 FO
  24   24 3085 1538 FO
  24   24 3194 1502 FO
  24   24 3303 1544 FO
  24   24 3413 1507 FO
  24   24 3522 1517 FO
  24   24 3631 1511 FO
  24   24 3740 1503 FO
  24   24 3850 1461 FO
  24   24 3959 1507 FO
  24   24 4068 1476 FO
  24   24 4178 1549 FO
  24   24 4287 1507 FO
  24   24 4396 1542 FO
  24   24 4506 1491 FO
  24   24 4615 1520 FO
  24   24 4724 1502 FO
  24   24 4834 1492 FO
  24   24 4943 1542 FO
  24   24 5052 1527 FO
  24   24 5161 1524 FO
  24   24 5271 1474 FO
  24   24 5380 1549 FO
  24   24 5489 1542 FO
  24   24 5599 1465 FO
  24   24 5708 1469 FO
  24   24 5817 1515 FO
  24   24 5927 1450 FO
  24   24 6036 1491 FO
  24   24 6145 1483 FO
  24   24 6255 1490 FO
gr

c8
gs 899 517 5357 2361 rc
gr

0 sg
%%IncludeResource: font Helvetica
/Helvetica /ISOLatin1Encoding 120 FMSR

 504 1807 mt  -90 rotate
(r) s
90 rotate
%%IncludeResource: font Helvetica
/Helvetica /ISOLatin1Encoding 96 FMSR

 564 1768 mt  -90 rotate
(1) s
90 rotate
%%IncludeResource: font Helvetica
/Helvetica /ISOLatin1Encoding 120 FMSR

 504 1715 mt  -90 rotate
(/r) s
90 rotate
%%IncludeResource: font Helvetica
/Helvetica /ISOLatin1Encoding 96 FMSR

 564 1642 mt  -90 rotate
(0) s
90 rotate
%%IncludeResource: font Helvetica
/Helvetica /ISOLatin1Encoding 120 FMSR

 882 2920 mt 
( ) s
6239  559 mt 
( ) s
6 w
1 sg
0 334 1577 0 0 -334 959 2818 4 MP
PP
-1577 0 0 334 1577 0 0 -334 959 2818 5 MP stroke
4 w
DO
SO
6 w
0 sg
 959 2818 mt 2536 2818 L
 959 2484 mt 2536 2484 L
 959 2818 mt  959 2484 L
2536 2818 mt 2536 2484 L
 959 2818 mt 2536 2818 L
 959 2818 mt  959 2484 L
 959 2818 mt 2536 2818 L
 959 2484 mt 2536 2484 L
 959 2818 mt  959 2484 L
2536 2818 mt 2536 2484 L
1427 2618 mt 
(Real spike times) s
gs 959 2484 1578 335 rc
24 w
360 0 1030 2575 2 MP stroke
gs 1136 2501 149 149 rc
  24   24 1210 2575 PO
  24   24 1210 2575 FO
gr

gr

24 w
1427 2769 mt 
(Shuffled spike times) s
gs 959 2484 1578 335 rc
gs 1136 2652 149 149 rc
  24   24 1210 2726 PO
c8
  24   24 1210 2726 FO
gr

c8
6 w
gr

6 w
c8
1 sg
0 2358 5356 0 0 -2358 899 6152 4 MP
PP
-5356 0 0 2358 5356 0 0 -2358 899 6152 5 MP stroke
4 w
DO
SO
6 w
0 sg
 899 6152 mt 6255 6152 L
 899 3794 mt 6255 3794 L
 899 6152 mt  899 3794 L
6255 6152 mt 6255 3794 L
 899 6152 mt 6255 6152 L
 899 6152 mt  899 3794 L
 899 6152 mt  899 6125 L
 899 3794 mt  899 3820 L
 899 6152 mt  899 6098 L
 899 3794 mt  899 3847 L
 811 6334 mt 
(10) s
%%IncludeResource: font Helvetica
/Helvetica /ISOLatin1Encoding 80 FMSR

 944 6260 mt 
(0) s
1436 6152 mt 1436 6125 L
1436 3794 mt 1436 3820 L
1750 6152 mt 1750 6125 L
1750 3794 mt 1750 3820 L
1973 6152 mt 1973 6125 L
1973 3794 mt 1973 3820 L
2146 6152 mt 2146 6125 L
2146 3794 mt 2146 3820 L
2288 6152 mt 2288 6125 L
2288 3794 mt 2288 3820 L
2407 6152 mt 2407 6125 L
2407 3794 mt 2407 3820 L
2511 6152 mt 2511 6125 L
2511 3794 mt 2511 3820 L
2602 6152 mt 2602 6125 L
2602 3794 mt 2602 3820 L
2684 6152 mt 2684 6125 L
2684 3794 mt 2684 3820 L
2684 6152 mt 2684 6098 L
2684 3794 mt 2684 3847 L
%%IncludeResource: font Helvetica
/Helvetica /ISOLatin1Encoding 120 FMSR

2596 6334 mt 
(10) s
%%IncludeResource: font Helvetica
/Helvetica /ISOLatin1Encoding 80 FMSR

2729 6260 mt 
(1) s
3221 6152 mt 3221 6125 L
3221 3794 mt 3221 3820 L
3536 6152 mt 3536 6125 L
3536 3794 mt 3536 3820 L
3759 6152 mt 3759 6125 L
3759 3794 mt 3759 3820 L
3932 6152 mt 3932 6125 L
3932 3794 mt 3932 3820 L
4073 6152 mt 4073 6125 L
4073 3794 mt 4073 3820 L
4193 6152 mt 4193 6125 L
4193 3794 mt 4193 3820 L
4296 6152 mt 4296 6125 L
4296 3794 mt 4296 3820 L
4387 6152 mt 4387 6125 L
4387 3794 mt 4387 3820 L
4469 6152 mt 4469 6125 L
4469 3794 mt 4469 3820 L
4469 6152 mt 4469 6098 L
4469 3794 mt 4469 3847 L
%%IncludeResource: font Helvetica
/Helvetica /ISOLatin1Encoding 120 FMSR

4381 6334 mt 
(10) s
%%IncludeResource: font Helvetica
/Helvetica /ISOLatin1Encoding 80 FMSR

4514 6260 mt 
(2) s
5007 6152 mt 5007 6125 L
5007 3794 mt 5007 3820 L
5321 6152 mt 5321 6125 L
5321 3794 mt 5321 3820 L
5544 6152 mt 5544 6125 L
5544 3794 mt 5544 3820 L
5717 6152 mt 5717 6125 L
5717 3794 mt 5717 3820 L
5858 6152 mt 5858 6125 L
5858 3794 mt 5858 3820 L
5978 6152 mt 5978 6125 L
5978 3794 mt 5978 3820 L
6081 6152 mt 6081 6125 L
6081 3794 mt 6081 3820 L
6173 6152 mt 6173 6125 L
6173 3794 mt 6173 3820 L
6255 6152 mt 6255 6125 L
6255 3794 mt 6255 3820 L
6255 6152 mt 6255 6098 L
6255 3794 mt 6255 3847 L
%%IncludeResource: font Helvetica
/Helvetica /ISOLatin1Encoding 120 FMSR

6167 6334 mt 
(10) s
%%IncludeResource: font Helvetica
/Helvetica /ISOLatin1Encoding 80 FMSR

6300 6260 mt 
(3) s
 899 6152 mt  952 6152 L
6255 6152 mt 6201 6152 L
%%IncludeResource: font Helvetica
/Helvetica /ISOLatin1Encoding 120 FMSR

 528 6196 mt 
(-1600) s
 899 5890 mt  952 5890 L
6255 5890 mt 6201 5890 L
 528 5934 mt 
(-1400) s
 899 5628 mt  952 5628 L
6255 5628 mt 6201 5628 L
 528 5672 mt 
(-1200) s
 899 5366 mt  952 5366 L
6255 5366 mt 6201 5366 L
 528 5410 mt 
(-1000) s
 899 5104 mt  952 5104 L
6255 5104 mt 6201 5104 L
 594 5148 mt 
(-800) s
 899 4842 mt  952 4842 L
6255 4842 mt 6201 4842 L
 594 4886 mt 
(-600) s
 899 4580 mt  952 4580 L
6255 4580 mt 6201 4580 L
 594 4624 mt 
(-400) s
 899 4318 mt  952 4318 L
6255 4318 mt 6201 4318 L
 594 4362 mt 
(-200) s
 899 4056 mt  952 4056 L
6255 4056 mt 6201 4056 L
 798 4100 mt 
(0) s
 899 3794 mt  952 3794 L
6255 3794 mt 6201 3794 L
 664 3838 mt 
(200) s
 899 6152 mt 6255 6152 L
 899 3794 mt 6255 3794 L
 899 6152 mt  899 3794 L
6255 6152 mt 6255 3794 L
gs 899 3794 5357 2359 rc
24 w
110 178 109 290 109 181 110 157 109 53 109 117 110 329 109 47 
109 158 110 306 109 -41 109 -68 109 91 110 -77 109 -37 109 160 
110 -59 109 5 109 12 110 29 109 18 109 12 110 -1 109 12 
109 19 109 20 110 12 109 13 109 -2 110 29 109 -12 109 9 
110 12 109 3 109 9 110 8 109 -4 109 -3 109 -1 110 10 
109 6 109 -10 110 7 109 8 109 -9 110 2 109 9 109 0 
109 3 899 4054 50 MP stroke
gr

24 w
gs 825 3980 5505 2159 rc
  24   24  899 4054 PO
  24   24 1008 4057 PO
  24   24 1117 4057 PO
  24   24 1226 4066 PO
  24   24 1336 4068 PO
  24   24 1445 4059 PO
  24   24 1554 4067 PO
  24   24 1664 4074 PO
  24   24 1773 4064 PO
  24   24 1882 4070 PO
  24   24 1992 4080 PO
  24   24 2101 4079 PO
  24   24 2210 4076 PO
  24   24 2319 4072 PO
  24   24 2429 4080 PO
  24   24 2538 4089 PO
  24   24 2647 4092 PO
  24   24 2757 4104 PO
  24   24 2866 4113 PO
  24   24 2975 4101 PO
  24   24 3085 4130 PO
  24   24 3194 4128 PO
  24   24 3303 4141 PO
  24   24 3413 4153 PO
  24   24 3522 4173 PO
  24   24 3631 4192 PO
  24   24 3740 4204 PO
  24   24 3850 4203 PO
  24   24 3959 4215 PO
  24   24 4068 4233 PO
  24   24 4178 4262 PO
  24   24 4287 4274 PO
  24   24 4396 4279 PO
  24   24 4506 4220 PO
  24   24 4615 4380 PO
  24   24 4724 4343 PO
  24   24 4834 4266 PO
  24   24 4943 4357 PO
  24   24 5052 4289 PO
  24   24 5161 4248 PO
  24   24 5271 4554 PO
  24   24 5380 4712 PO
  24   24 5489 4759 PO
  24   24 5599 5088 PO
  24   24 5708 5205 PO
  24   24 5817 5258 PO
  24   24 5927 5415 PO
  24   24 6036 5596 PO
  24   24 6145 5886 PO
  24   24 6255 6064 PO
  24   24  899 4054 FO
  24   24 1008 4057 FO
  24   24 1117 4057 FO
  24   24 1226 4066 FO
  24   24 1336 4068 FO
  24   24 1445 4059 FO
  24   24 1554 4067 FO
  24   24 1664 4074 FO
  24   24 1773 4064 FO
  24   24 1882 4070 FO
  24   24 1992 4080 FO
  24   24 2101 4079 FO
  24   24 2210 4076 FO
  24   24 2319 4072 FO
  24   24 2429 4080 FO
  24   24 2538 4089 FO
  24   24 2647 4092 FO
  24   24 2757 4104 FO
  24   24 2866 4113 FO
  24   24 2975 4101 FO
  24   24 3085 4130 FO
  24   24 3194 4128 FO
  24   24 3303 4141 FO
  24   24 3413 4153 FO
  24   24 3522 4173 FO
  24   24 3631 4192 FO
  24   24 3740 4204 FO
  24   24 3850 4203 FO
  24   24 3959 4215 FO
  24   24 4068 4233 FO
  24   24 4178 4262 FO
  24   24 4287 4274 FO
  24   24 4396 4279 FO
  24   24 4506 4220 FO
  24   24 4615 4380 FO
  24   24 4724 4343 FO
  24   24 4834 4266 FO
  24   24 4943 4357 FO
  24   24 5052 4289 FO
  24   24 5161 4248 FO
  24   24 5271 4554 FO
  24   24 5380 4712 FO
  24   24 5489 4759 FO
  24   24 5599 5088 FO
  24   24 5708 5205 FO
  24   24 5817 5258 FO
  24   24 5927 5415 FO
  24   24 6036 5596 FO
  24   24 6145 5886 FO
  24   24 6255 6064 FO
gr

gs 899 3794 5357 2359 rc
gr

3409 6477 mt 
(F \(Hz\)) s
%%IncludeResource: font Symbol
/Symbol /ISOLatin1Encoding 120 FMSR

 438 5020 mt  -90 rotate
(F) s
90 rotate
6 w

end %%Color Dict

eplot
%%EndObject

epage
end

showpage

%%Trailer
%%EOF
