%!PS-Adobe-3.0 EPSF-3.0
%%Creator: MATLAB, The MathWorks, Inc. Version 7.14.0.739 (R2012a). Operating System: Linux 2.6.33.7.2-rt30-rt #1 SMP PREEMPT RT Tue Apr 17 15:22:21 CEST 2012 x86_64.
%%Title: ./modulation_phase_shift_ap_peak.eps
%%CreationDate: 10/02/2013  17:55:14
%%DocumentNeededFonts: Helvetica
%%DocumentProcessColors: Cyan Magenta Yellow Black
%%LanguageLevel: 2
%%Pages: 1
%%BoundingBox:    29    31   532   545
%%EndComments

%%BeginProlog
% MathWorks dictionary
/MathWorks 160 dict begin
% definition operators
/bdef {bind def} bind def
/ldef {load def} bind def
/xdef {exch def} bdef
/xstore {exch store} bdef
% operator abbreviations
/c  /clip ldef
/cc /concat ldef
/cp /closepath ldef
/gr /grestore ldef
/gs /gsave ldef
/mt /moveto ldef
/np /newpath ldef
/cm /currentmatrix ldef
/sm /setmatrix ldef
/rm /rmoveto ldef
/rl /rlineto ldef
/s {show newpath} bdef
/sc {setcmykcolor} bdef
/sr /setrgbcolor ldef
/sg /setgray ldef
/w /setlinewidth ldef
/j /setlinejoin ldef
/cap /setlinecap ldef
/rc {rectclip} bdef
/rf {rectfill} bdef
% page state control
/pgsv () def
/bpage {/pgsv save def} bdef
/epage {pgsv restore} bdef
/bplot /gsave ldef
/eplot {stroke grestore} bdef
% orientation switch
/portraitMode 0 def /landscapeMode 1 def /rotateMode 2 def
% coordinate system mappings
/dpi2point 0 def
% font control
/FontSize 0 def
/FMS {/FontSize xstore findfont [FontSize 0 0 FontSize neg 0 0]
  makefont setfont} bdef
/reencode {exch dup where {pop load} {pop StandardEncoding} ifelse
  exch dup 3 1 roll findfont dup length dict begin
  { 1 index /FID ne {def}{pop pop} ifelse } forall
  /Encoding exch def currentdict end definefont pop} bdef
/isroman {findfont /CharStrings get /Agrave known} bdef
/FMSR {3 1 roll 1 index dup isroman {reencode} {pop pop} ifelse
  exch FMS} bdef
/csm {1 dpi2point div -1 dpi2point div scale neg translate
 dup landscapeMode eq {pop -90 rotate}
  {rotateMode eq {90 rotate} if} ifelse} bdef
% line types: solid, dotted, dashed, dotdash
/SO { [] 0 setdash } bdef
/DO { [.5 dpi2point mul 4 dpi2point mul] 0 setdash } bdef
/DA { [6 dpi2point mul] 0 setdash } bdef
/DD { [.5 dpi2point mul 4 dpi2point mul 6 dpi2point mul 4
  dpi2point mul] 0 setdash } bdef
% macros for lines and objects
/L {lineto stroke} bdef
/MP {3 1 roll moveto 1 sub {rlineto} repeat} bdef
/AP {{rlineto} repeat} bdef
/PDlw -1 def
/W {/PDlw currentlinewidth def setlinewidth} def
/PP {closepath eofill} bdef
/DP {closepath stroke} bdef
/MR {4 -2 roll moveto dup  0 exch rlineto exch 0 rlineto
  neg 0 exch rlineto closepath} bdef
/FR {MR stroke} bdef
/PR {MR fill} bdef
/L1i {{currentfile picstr readhexstring pop} image} bdef
/tMatrix matrix def
/MakeOval {newpath tMatrix currentmatrix pop translate scale
0 0 1 0 360 arc tMatrix setmatrix} bdef
/FO {MakeOval stroke} bdef
/PO {MakeOval fill} bdef
/PD {currentlinewidth 2 div 0 360 arc fill
   PDlw -1 eq not {PDlw w /PDlw -1 def} if} def
/FA {newpath tMatrix currentmatrix pop translate scale
  0 0 1 5 -2 roll arc tMatrix setmatrix stroke} bdef
/PA {newpath tMatrix currentmatrix pop	translate 0 0 moveto scale
  0 0 1 5 -2 roll arc closepath tMatrix setmatrix fill} bdef
/FAn {newpath tMatrix currentmatrix pop translate scale
  0 0 1 5 -2 roll arcn tMatrix setmatrix stroke} bdef
/PAn {newpath tMatrix currentmatrix pop translate 0 0 moveto scale
  0 0 1 5 -2 roll arcn closepath tMatrix setmatrix fill} bdef
/vradius 0 def /hradius 0 def /lry 0 def
/lrx 0 def /uly 0 def /ulx 0 def /rad 0 def
/MRR {/vradius xdef /hradius xdef /lry xdef /lrx xdef /uly xdef
  /ulx xdef newpath tMatrix currentmatrix pop ulx hradius add uly
  vradius add translate hradius vradius scale 0 0 1 180 270 arc 
  tMatrix setmatrix lrx hradius sub uly vradius add translate
  hradius vradius scale 0 0 1 270 360 arc tMatrix setmatrix
  lrx hradius sub lry vradius sub translate hradius vradius scale
  0 0 1 0 90 arc tMatrix setmatrix ulx hradius add lry vradius sub
  translate hradius vradius scale 0 0 1 90 180 arc tMatrix setmatrix
  closepath} bdef
/FRR {MRR stroke } bdef
/PRR {MRR fill } bdef
/MlrRR {/lry xdef /lrx xdef /uly xdef /ulx xdef /rad lry uly sub 2 div def
  newpath tMatrix currentmatrix pop ulx rad add uly rad add translate
  rad rad scale 0 0 1 90 270 arc tMatrix setmatrix lrx rad sub lry rad
  sub translate rad rad scale 0 0 1 270 90 arc tMatrix setmatrix
  closepath} bdef
/FlrRR {MlrRR stroke } bdef
/PlrRR {MlrRR fill } bdef
/MtbRR {/lry xdef /lrx xdef /uly xdef /ulx xdef /rad lrx ulx sub 2 div def
  newpath tMatrix currentmatrix pop ulx rad add uly rad add translate
  rad rad scale 0 0 1 180 360 arc tMatrix setmatrix lrx rad sub lry rad
  sub translate rad rad scale 0 0 1 0 180 arc tMatrix setmatrix
  closepath} bdef
/FtbRR {MtbRR stroke } bdef
/PtbRR {MtbRR fill } bdef
/stri 6 array def /dtri 6 array def
/smat 6 array def /dmat 6 array def
/tmat1 6 array def /tmat2 6 array def /dif 3 array def
/asub {/ind2 exch def /ind1 exch def dup dup
  ind1 get exch ind2 get sub exch } bdef
/tri_to_matrix {
  2 0 asub 3 1 asub 4 0 asub 5 1 asub
  dup 0 get exch 1 get 7 -1 roll astore } bdef
/compute_transform {
  dmat dtri tri_to_matrix tmat1 invertmatrix 
  smat stri tri_to_matrix tmat2 concatmatrix } bdef
/ds {stri astore pop} bdef
/dt {dtri astore pop} bdef
/db {2 copy /cols xdef /rows xdef mul dup 3 mul string
  currentfile 
  3 index 0 eq {/ASCIIHexDecode filter}
  {/ASCII85Decode filter 3 index 2 eq {/RunLengthDecode filter} if }
  ifelse exch readstring pop
  dup 0 3 index getinterval /rbmap xdef
  dup 2 index dup getinterval /gbmap xdef
  1 index dup 2 mul exch getinterval /bbmap xdef pop pop}bdef
/it {gs np dtri aload pop moveto lineto lineto cp c
  cols rows 8 compute_transform 
  rbmap gbmap bbmap true 3 colorimage gr}bdef
/il {newpath moveto lineto stroke}bdef
currentdict end def
%%EndProlog

%%BeginSetup
MathWorks begin

0 cap

end
%%EndSetup

%%Page: 1 1
%%BeginPageSetup
%%PageBoundingBox:    29    31   532   545
MathWorks begin
bpage
%%EndPageSetup

%%BeginObject: obj1
bplot

/dpi2point 12 def
portraitMode 0000 6912 csm

  358   366  6035  6163 rc
85 dict begin %Colortable dictionary
/c0 { 0.000000 0.000000 0.000000 sr} bdef
/c1 { 1.000000 1.000000 1.000000 sr} bdef
/c2 { 0.900000 0.000000 0.000000 sr} bdef
/c3 { 0.000000 0.820000 0.000000 sr} bdef
/c4 { 0.000000 0.000000 0.800000 sr} bdef
/c5 { 0.910000 0.820000 0.320000 sr} bdef
/c6 { 1.000000 0.260000 0.820000 sr} bdef
/c7 { 0.000000 0.820000 0.820000 sr} bdef
c0
1 j
1 sg
   0    0 6913 6913 rf
6 w
0 2359 5356 0 0 -2359 899 2877 4 MP
PP
-5356 0 0 2359 5356 0 0 -2359 899 2877 5 MP stroke
4 w
DO
SO
6 w
0 sg
 899 2877 mt 6255 2877 L
 899  518 mt 6255  518 L
 899 2877 mt  899  518 L
6255 2877 mt 6255  518 L
 899 2877 mt 6255 2877 L
 899 2877 mt  899  518 L
 899 2877 mt  899 2850 L
 899  518 mt  899  544 L
 899 2877 mt  899 2823 L
 899  518 mt  899  571 L
%%IncludeResource: font Helvetica
/Helvetica /ISOLatin1Encoding 120 FMSR

 811 3059 mt 
(10) s
%%IncludeResource: font Helvetica
/Helvetica /ISOLatin1Encoding 80 FMSR

 944 2985 mt 
(0) s
1436 2877 mt 1436 2850 L
1436  518 mt 1436  544 L
1750 2877 mt 1750 2850 L
1750  518 mt 1750  544 L
1973 2877 mt 1973 2850 L
1973  518 mt 1973  544 L
2146 2877 mt 2146 2850 L
2146  518 mt 2146  544 L
2288 2877 mt 2288 2850 L
2288  518 mt 2288  544 L
2407 2877 mt 2407 2850 L
2407  518 mt 2407  544 L
2511 2877 mt 2511 2850 L
2511  518 mt 2511  544 L
2602 2877 mt 2602 2850 L
2602  518 mt 2602  544 L
2684 2877 mt 2684 2850 L
2684  518 mt 2684  544 L
2684 2877 mt 2684 2823 L
2684  518 mt 2684  571 L
%%IncludeResource: font Helvetica
/Helvetica /ISOLatin1Encoding 120 FMSR

2596 3059 mt 
(10) s
%%IncludeResource: font Helvetica
/Helvetica /ISOLatin1Encoding 80 FMSR

2729 2985 mt 
(1) s
3221 2877 mt 3221 2850 L
3221  518 mt 3221  544 L
3536 2877 mt 3536 2850 L
3536  518 mt 3536  544 L
3759 2877 mt 3759 2850 L
3759  518 mt 3759  544 L
3932 2877 mt 3932 2850 L
3932  518 mt 3932  544 L
4073 2877 mt 4073 2850 L
4073  518 mt 4073  544 L
4193 2877 mt 4193 2850 L
4193  518 mt 4193  544 L
4296 2877 mt 4296 2850 L
4296  518 mt 4296  544 L
4387 2877 mt 4387 2850 L
4387  518 mt 4387  544 L
4469 2877 mt 4469 2850 L
4469  518 mt 4469  544 L
4469 2877 mt 4469 2823 L
4469  518 mt 4469  571 L
%%IncludeResource: font Helvetica
/Helvetica /ISOLatin1Encoding 120 FMSR

4381 3059 mt 
(10) s
%%IncludeResource: font Helvetica
/Helvetica /ISOLatin1Encoding 80 FMSR

4514 2985 mt 
(2) s
5007 2877 mt 5007 2850 L
5007  518 mt 5007  544 L
5321 2877 mt 5321 2850 L
5321  518 mt 5321  544 L
5544 2877 mt 5544 2850 L
5544  518 mt 5544  544 L
5717 2877 mt 5717 2850 L
5717  518 mt 5717  544 L
5858 2877 mt 5858 2850 L
5858  518 mt 5858  544 L
5978 2877 mt 5978 2850 L
5978  518 mt 5978  544 L
6081 2877 mt 6081 2850 L
6081  518 mt 6081  544 L
6173 2877 mt 6173 2850 L
6173  518 mt 6173  544 L
6255 2877 mt 6255 2850 L
6255  518 mt 6255  544 L
6255 2877 mt 6255 2823 L
6255  518 mt 6255  571 L
%%IncludeResource: font Helvetica
/Helvetica /ISOLatin1Encoding 120 FMSR

6167 3059 mt 
(10) s
%%IncludeResource: font Helvetica
/Helvetica /ISOLatin1Encoding 80 FMSR

6300 2985 mt 
(3) s
 899 2877 mt  925 2877 L
6255 2877 mt 6228 2877 L
 899 2877 mt  952 2877 L
6255 2877 mt 6201 2877 L
%%IncludeResource: font Helvetica
/Helvetica /ISOLatin1Encoding 120 FMSR

 640 2921 mt 
(10) s
%%IncludeResource: font Helvetica
/Helvetica /ISOLatin1Encoding 80 FMSR

 773 2847 mt 
(-2) s
 899 2521 mt  925 2521 L
6255 2521 mt 6228 2521 L
 899 2314 mt  925 2314 L
6255 2314 mt 6228 2314 L
 899 2166 mt  925 2166 L
6255 2166 mt 6228 2166 L
 899 2052 mt  925 2052 L
6255 2052 mt 6228 2052 L
 899 1959 mt  925 1959 L
6255 1959 mt 6228 1959 L
 899 1880 mt  925 1880 L
6255 1880 mt 6228 1880 L
 899 1811 mt  925 1811 L
6255 1811 mt 6228 1811 L
 899 1751 mt  925 1751 L
6255 1751 mt 6228 1751 L
 899 1697 mt  925 1697 L
6255 1697 mt 6228 1697 L
 899 1697 mt  952 1697 L
6255 1697 mt 6201 1697 L
%%IncludeResource: font Helvetica
/Helvetica /ISOLatin1Encoding 120 FMSR

 640 1741 mt 
(10) s
%%IncludeResource: font Helvetica
/Helvetica /ISOLatin1Encoding 80 FMSR

 773 1667 mt 
(-1) s
 899 1342 mt  925 1342 L
6255 1342 mt 6228 1342 L
 899 1134 mt  925 1134 L
6255 1134 mt 6228 1134 L
 899  987 mt  925  987 L
6255  987 mt 6228  987 L
 899  873 mt  925  873 L
6255  873 mt 6228  873 L
 899  779 mt  925  779 L
6255  779 mt 6228  779 L
 899  700 mt  925  700 L
6255  700 mt 6228  700 L
 899  632 mt  925  632 L
6255  632 mt 6228  632 L
 899  571 mt  925  571 L
6255  571 mt 6228  571 L
 899  518 mt  925  518 L
6255  518 mt 6228  518 L
 899  518 mt  952  518 L
6255  518 mt 6201  518 L
%%IncludeResource: font Helvetica
/Helvetica /ISOLatin1Encoding 120 FMSR

 640  562 mt 
(10) s
%%IncludeResource: font Helvetica
/Helvetica /ISOLatin1Encoding 80 FMSR

 773  488 mt 
(0) s
 899 2877 mt 6255 2877 L
 899  518 mt 6255  518 L
 899 2877 mt  899  518 L
6255 2877 mt 6255  518 L
gs 899 518 5357 2360 rc
24 w
110 -168 109 712 109 43 110 -210 109 -47 109 181 110 -490 109 886 
109 -166 110 -60 109 157 109 44 109 184 110 18 109 188 109 3 
110 33 109 71 109 40 110 87 109 114 109 -22 110 -13 109 80 
109 -14 109 33 110 24 109 -4 109 8 110 16 109 22 109 17 
110 27 109 -37 109 -4 110 26 109 -13 109 4 109 26 110 -23 
109 5 109 -4 110 -1 109 14 109 -5 110 -53 109 44 109 -22 
109 -30 899 655 50 MP stroke
gr

24 w
gs 825 506 5505 2113 rc
  24   24  899  655 PO
  24   24 1008  625 PO
  24   24 1117  603 PO
  24   24 1226  647 PO
  24   24 1336  594 PO
  24   24 1445  589 PO
  24   24 1554  603 PO
  24   24 1664  602 PO
  24   24 1773  598 PO
  24   24 1882  603 PO
  24   24 1992  580 PO
  24   24 2101  606 PO
  24   24 2210  610 PO
  24   24 2319  597 PO
  24   24 2429  623 PO
  24   24 2538  619 PO
  24   24 2647  582 PO
  24   24 2757  609 PO
  24   24 2866  626 PO
  24   24 2975  648 PO
  24   24 3085  664 PO
  24   24 3194  672 PO
  24   24 3303  668 PO
  24   24 3413  692 PO
  24   24 3522  725 PO
  24   24 3631  711 PO
  24   24 3740  791 PO
  24   24 3850  778 PO
  24   24 3959  756 PO
  24   24 4068  870 PO
  24   24 4178  957 PO
  24   24 4287  997 PO
  24   24 4396 1068 PO
  24   24 4506 1101 PO
  24   24 4615 1104 PO
  24   24 4724 1292 PO
  24   24 4834 1310 PO
  24   24 4943 1494 PO
  24   24 5052 1538 PO
  24   24 5161 1695 PO
  24   24 5271 1635 PO
  24   24 5380 1469 PO
  24   24 5489 2355 PO
  24   24 5599 1865 PO
  24   24 5708 2046 PO
  24   24 5817 1999 PO
  24   24 5927 1789 PO
  24   24 6036 1832 PO
  24   24 6145 2544 PO
  24   24 6255 2376 PO
  24   24  899  655 FO
  24   24 1008  625 FO
  24   24 1117  603 FO
  24   24 1226  647 FO
  24   24 1336  594 FO
  24   24 1445  589 FO
  24   24 1554  603 FO
  24   24 1664  602 FO
  24   24 1773  598 FO
  24   24 1882  603 FO
  24   24 1992  580 FO
  24   24 2101  606 FO
  24   24 2210  610 FO
  24   24 2319  597 FO
  24   24 2429  623 FO
  24   24 2538  619 FO
  24   24 2647  582 FO
  24   24 2757  609 FO
  24   24 2866  626 FO
  24   24 2975  648 FO
  24   24 3085  664 FO
  24   24 3194  672 FO
  24   24 3303  668 FO
  24   24 3413  692 FO
  24   24 3522  725 FO
  24   24 3631  711 FO
  24   24 3740  791 FO
  24   24 3850  778 FO
  24   24 3959  756 FO
  24   24 4068  870 FO
  24   24 4178  957 FO
  24   24 4287  997 FO
  24   24 4396 1068 FO
  24   24 4506 1101 FO
  24   24 4615 1104 FO
  24   24 4724 1292 FO
  24   24 4834 1310 FO
  24   24 4943 1494 FO
  24   24 5052 1538 FO
  24   24 5161 1695 FO
  24   24 5271 1635 FO
  24   24 5380 1469 FO
  24   24 5489 2355 FO
  24   24 5599 1865 FO
  24   24 5708 2046 FO
  24   24 5817 1999 FO
  24   24 5927 1789 FO
  24   24 6036 1832 FO
  24   24 6145 2544 FO
  24   24 6255 2376 FO
gr

gs 899 518 5357 2360 rc
gr

gs 825 1786 5505 472 rc
  24   24  899 1940 PO
  24   24 1008 1893 PO
  24   24 1117 1914 PO
  24   24 1226 1963 PO
  24   24 1336 1923 PO
  24   24 1445 1922 PO
  24   24 1554 1862 PO
  24   24 1664 1964 PO
  24   24 1773 1905 PO
  24   24 1882 1860 PO
  24   24 1992 1921 PO
  24   24 2101 1904 PO
  24   24 2210 1963 PO
  24   24 2319 1949 PO
  24   24 2429 2015 PO
  24   24 2538 1971 PO
  24   24 2647 1975 PO
  24   24 2757 1998 PO
  24   24 2866 1979 PO
  24   24 2975 2118 PO
  24   24 3085 2081 PO
  24   24 3194 2077 PO
  24   24 3303 2105 PO
  24   24 3413 2149 PO
  24   24 3522 2168 PO
  24   24 3631 2144 PO
  24   24 3740 2139 PO
  24   24 3850 2099 PO
  24   24 3959 2087 PO
  24   24 4068 2043 PO
  24   24 4178 2025 PO
  24   24 4287 2028 PO
  24   24 4396 2038 PO
  24   24 4506 2177 PO
  24   24 4615 2148 PO
  24   24 4724 2025 PO
  24   24 4834 2106 PO
  24   24 4943 1996 PO
  24   24 5052 2039 PO
  24   24 5161 2099 PO
  24   24 5271 2083 PO
  24   24 5380 2130 PO
  24   24 5489 2077 PO
  24   24 5599 2068 PO
  24   24 5708 2055 PO
  24   24 5817 2039 PO
  24   24 5927 2073 PO
  24   24 6036 2029 PO
  24   24 6145 2183 PO
  24   24 6255 2047 PO
/c8 { 0.000000 0.000000 1.000000 sr} bdef
c8
  24   24  899 1940 FO
  24   24 1008 1893 FO
  24   24 1117 1914 FO
  24   24 1226 1963 FO
  24   24 1336 1923 FO
  24   24 1445 1922 FO
  24   24 1554 1862 FO
  24   24 1664 1964 FO
  24   24 1773 1905 FO
  24   24 1882 1860 FO
  24   24 1992 1921 FO
  24   24 2101 1904 FO
  24   24 2210 1963 FO
  24   24 2319 1949 FO
  24   24 2429 2015 FO
  24   24 2538 1971 FO
  24   24 2647 1975 FO
  24   24 2757 1998 FO
  24   24 2866 1979 FO
  24   24 2975 2118 FO
  24   24 3085 2081 FO
  24   24 3194 2077 FO
  24   24 3303 2105 FO
  24   24 3413 2149 FO
  24   24 3522 2168 FO
  24   24 3631 2144 FO
  24   24 3740 2139 FO
  24   24 3850 2099 FO
  24   24 3959 2087 FO
  24   24 4068 2043 FO
  24   24 4178 2025 FO
  24   24 4287 2028 FO
  24   24 4396 2038 FO
  24   24 4506 2177 FO
  24   24 4615 2148 FO
  24   24 4724 2025 FO
  24   24 4834 2106 FO
  24   24 4943 1996 FO
  24   24 5052 2039 FO
  24   24 5161 2099 FO
  24   24 5271 2083 FO
  24   24 5380 2130 FO
  24   24 5489 2077 FO
  24   24 5599 2068 FO
  24   24 5708 2055 FO
  24   24 5817 2039 FO
  24   24 5927 2073 FO
  24   24 6036 2029 FO
  24   24 6145 2183 FO
  24   24 6255 2047 FO
gr

c8
gs 899 518 5357 2360 rc
gr

0 sg
%%IncludeResource: font Helvetica
/Helvetica /ISOLatin1Encoding 120 FMSR

 504 1807 mt  -90 rotate
(r) s
90 rotate
%%IncludeResource: font Helvetica
/Helvetica /ISOLatin1Encoding 96 FMSR

 564 1768 mt  -90 rotate
(1) s
90 rotate
%%IncludeResource: font Helvetica
/Helvetica /ISOLatin1Encoding 120 FMSR

 504 1715 mt  -90 rotate
(/r) s
90 rotate
%%IncludeResource: font Helvetica
/Helvetica /ISOLatin1Encoding 96 FMSR

 564 1642 mt  -90 rotate
(0) s
90 rotate
%%IncludeResource: font Helvetica
/Helvetica /ISOLatin1Encoding 120 FMSR

 882 2920 mt 
( ) s
6239  560 mt 
( ) s
6 w
1 sg
0 334 1577 0 0 -334 959 2818 4 MP
PP
-1577 0 0 334 1577 0 0 -334 959 2818 5 MP stroke
4 w
DO
SO
6 w
0 sg
 959 2818 mt 2536 2818 L
 959 2484 mt 2536 2484 L
 959 2818 mt  959 2484 L
2536 2818 mt 2536 2484 L
 959 2818 mt 2536 2818 L
 959 2818 mt  959 2484 L
 959 2818 mt 2536 2818 L
 959 2484 mt 2536 2484 L
 959 2818 mt  959 2484 L
2536 2818 mt 2536 2484 L
1427 2618 mt 
(Real spike times) s
gs 959 2484 1578 335 rc
24 w
360 0 1030 2575 2 MP stroke
gs 1136 2501 149 149 rc
  24   24 1210 2575 PO
  24   24 1210 2575 FO
gr

gr

24 w
1427 2769 mt 
(Shuffled spike times) s
gs 959 2484 1578 335 rc
gs 1136 2652 149 149 rc
  24   24 1210 2726 PO
c8
  24   24 1210 2726 FO
gr

c8
6 w
gr

6 w
c8
1 sg
0 2358 5356 0 0 -2358 899 6152 4 MP
PP
-5356 0 0 2358 5356 0 0 -2358 899 6152 5 MP stroke
4 w
DO
SO
6 w
0 sg
 899 6152 mt 6255 6152 L
 899 3794 mt 6255 3794 L
 899 6152 mt  899 3794 L
6255 6152 mt 6255 3794 L
 899 6152 mt 6255 6152 L
 899 6152 mt  899 3794 L
 899 6152 mt  899 6125 L
 899 3794 mt  899 3820 L
 899 6152 mt  899 6098 L
 899 3794 mt  899 3847 L
 811 6334 mt 
(10) s
%%IncludeResource: font Helvetica
/Helvetica /ISOLatin1Encoding 80 FMSR

 944 6260 mt 
(0) s
1436 6152 mt 1436 6125 L
1436 3794 mt 1436 3820 L
1750 6152 mt 1750 6125 L
1750 3794 mt 1750 3820 L
1973 6152 mt 1973 6125 L
1973 3794 mt 1973 3820 L
2146 6152 mt 2146 6125 L
2146 3794 mt 2146 3820 L
2288 6152 mt 2288 6125 L
2288 3794 mt 2288 3820 L
2407 6152 mt 2407 6125 L
2407 3794 mt 2407 3820 L
2511 6152 mt 2511 6125 L
2511 3794 mt 2511 3820 L
2602 6152 mt 2602 6125 L
2602 3794 mt 2602 3820 L
2684 6152 mt 2684 6125 L
2684 3794 mt 2684 3820 L
2684 6152 mt 2684 6098 L
2684 3794 mt 2684 3847 L
%%IncludeResource: font Helvetica
/Helvetica /ISOLatin1Encoding 120 FMSR

2596 6334 mt 
(10) s
%%IncludeResource: font Helvetica
/Helvetica /ISOLatin1Encoding 80 FMSR

2729 6260 mt 
(1) s
3221 6152 mt 3221 6125 L
3221 3794 mt 3221 3820 L
3536 6152 mt 3536 6125 L
3536 3794 mt 3536 3820 L
3759 6152 mt 3759 6125 L
3759 3794 mt 3759 3820 L
3932 6152 mt 3932 6125 L
3932 3794 mt 3932 3820 L
4073 6152 mt 4073 6125 L
4073 3794 mt 4073 3820 L
4193 6152 mt 4193 6125 L
4193 3794 mt 4193 3820 L
4296 6152 mt 4296 6125 L
4296 3794 mt 4296 3820 L
4387 6152 mt 4387 6125 L
4387 3794 mt 4387 3820 L
4469 6152 mt 4469 6125 L
4469 3794 mt 4469 3820 L
4469 6152 mt 4469 6098 L
4469 3794 mt 4469 3847 L
%%IncludeResource: font Helvetica
/Helvetica /ISOLatin1Encoding 120 FMSR

4381 6334 mt 
(10) s
%%IncludeResource: font Helvetica
/Helvetica /ISOLatin1Encoding 80 FMSR

4514 6260 mt 
(2) s
5007 6152 mt 5007 6125 L
5007 3794 mt 5007 3820 L
5321 6152 mt 5321 6125 L
5321 3794 mt 5321 3820 L
5544 6152 mt 5544 6125 L
5544 3794 mt 5544 3820 L
5717 6152 mt 5717 6125 L
5717 3794 mt 5717 3820 L
5858 6152 mt 5858 6125 L
5858 3794 mt 5858 3820 L
5978 6152 mt 5978 6125 L
5978 3794 mt 5978 3820 L
6081 6152 mt 6081 6125 L
6081 3794 mt 6081 3820 L
6173 6152 mt 6173 6125 L
6173 3794 mt 6173 3820 L
6255 6152 mt 6255 6125 L
6255 3794 mt 6255 3820 L
6255 6152 mt 6255 6098 L
6255 3794 mt 6255 3847 L
%%IncludeResource: font Helvetica
/Helvetica /ISOLatin1Encoding 120 FMSR

6167 6334 mt 
(10) s
%%IncludeResource: font Helvetica
/Helvetica /ISOLatin1Encoding 80 FMSR

6300 6260 mt 
(3) s
 899 6152 mt  952 6152 L
6255 6152 mt 6201 6152 L
%%IncludeResource: font Helvetica
/Helvetica /ISOLatin1Encoding 120 FMSR

 594 6196 mt 
(-140) s
 899 5857 mt  952 5857 L
6255 5857 mt 6201 5857 L
 594 5901 mt 
(-120) s
 899 5562 mt  952 5562 L
6255 5562 mt 6201 5562 L
 594 5606 mt 
(-100) s
 899 5267 mt  952 5267 L
6255 5267 mt 6201 5267 L
 661 5311 mt 
(-80) s
 899 4973 mt  952 4973 L
6255 4973 mt 6201 4973 L
 661 5017 mt 
(-60) s
 899 4678 mt  952 4678 L
6255 4678 mt 6201 4678 L
 661 4722 mt 
(-40) s
 899 4383 mt  952 4383 L
6255 4383 mt 6201 4383 L
 661 4427 mt 
(-20) s
 899 4088 mt  952 4088 L
6255 4088 mt 6201 4088 L
 798 4132 mt 
(0) s
 899 3794 mt  952 3794 L
6255 3794 mt 6201 3794 L
 731 3838 mt 
(20) s
 899 6152 mt 6255 6152 L
 899 3794 mt 6255 3794 L
 899 6152 mt  899 3794 L
6255 6152 mt 6255 3794 L
gs 899 3794 5357 2359 rc
24 w
110 177 109 -723 109 -723 110 263 109 653 109 -365 110 -213 109 44 
109 -754 110 632 109 174 109 -191 109 -51 110 314 109 -136 109 111 
110 -56 109 41 109 127 110 128 109 57 109 34 110 55 109 188 
109 10 109 -30 110 2 109 82 109 19 110 53 109 4 109 92 
110 -43 109 46 109 12 110 109 109 14 109 -26 109 54 110 -37 
109 61 109 37 110 -85 109 79 109 31 110 -44 109 -5 109 98 
109 42 899 3995 50 MP stroke
gr

24 w
gs 825 3921 5505 2151 rc
  24   24  899 3995 PO
  24   24 1008 4037 PO
  24   24 1117 4135 PO
  24   24 1226 4130 PO
  24   24 1336 4086 PO
  24   24 1445 4117 PO
  24   24 1554 4196 PO
  24   24 1664 4111 PO
  24   24 1773 4148 PO
  24   24 1882 4209 PO
  24   24 1992 4172 PO
  24   24 2101 4226 PO
  24   24 2210 4200 PO
  24   24 2319 4214 PO
  24   24 2429 4323 PO
  24   24 2538 4335 PO
  24   24 2647 4381 PO
  24   24 2757 4338 PO
  24   24 2866 4430 PO
  24   24 2975 4434 PO
  24   24 3085 4487 PO
  24   24 3194 4506 PO
  24   24 3303 4588 PO
  24   24 3413 4590 PO
  24   24 3522 4560 PO
  24   24 3631 4570 PO
  24   24 3740 4758 PO
  24   24 3850 4813 PO
  24   24 3959 4847 PO
  24   24 4068 4904 PO
  24   24 4178 5032 PO
  24   24 4287 5159 PO
  24   24 4396 5200 PO
  24   24 4506 5144 PO
  24   24 4615 5255 PO
  24   24 4724 5119 PO
  24   24 4834 5433 PO
  24   24 4943 5382 PO
  24   24 5052 5191 PO
  24   24 5161 5365 PO
  24   24 5271 5997 PO
  24   24 5380 5243 PO
  24   24 5489 5287 PO
  24   24 5599 5074 PO
  24   24 5708 4709 PO
  24   24 5817 5362 PO
  24   24 5927 5625 PO
  24   24 6036 4902 PO
  24   24 6145 4179 PO
  24   24 6255 4356 PO
  24   24  899 3995 FO
  24   24 1008 4037 FO
  24   24 1117 4135 FO
  24   24 1226 4130 FO
  24   24 1336 4086 FO
  24   24 1445 4117 FO
  24   24 1554 4196 FO
  24   24 1664 4111 FO
  24   24 1773 4148 FO
  24   24 1882 4209 FO
  24   24 1992 4172 FO
  24   24 2101 4226 FO
  24   24 2210 4200 FO
  24   24 2319 4214 FO
  24   24 2429 4323 FO
  24   24 2538 4335 FO
  24   24 2647 4381 FO
  24   24 2757 4338 FO
  24   24 2866 4430 FO
  24   24 2975 4434 FO
  24   24 3085 4487 FO
  24   24 3194 4506 FO
  24   24 3303 4588 FO
  24   24 3413 4590 FO
  24   24 3522 4560 FO
  24   24 3631 4570 FO
  24   24 3740 4758 FO
  24   24 3850 4813 FO
  24   24 3959 4847 FO
  24   24 4068 4904 FO
  24   24 4178 5032 FO
  24   24 4287 5159 FO
  24   24 4396 5200 FO
  24   24 4506 5144 FO
  24   24 4615 5255 FO
  24   24 4724 5119 FO
  24   24 4834 5433 FO
  24   24 4943 5382 FO
  24   24 5052 5191 FO
  24   24 5161 5365 FO
  24   24 5271 5997 FO
  24   24 5380 5243 FO
  24   24 5489 5287 FO
  24   24 5599 5074 FO
  24   24 5708 4709 FO
  24   24 5817 5362 FO
  24   24 5927 5625 FO
  24   24 6036 4902 FO
  24   24 6145 4179 FO
  24   24 6255 4356 FO
gr

gs 899 3794 5357 2359 rc
gr

3409 6477 mt 
(F \(Hz\)) s
%%IncludeResource: font Symbol
/Symbol /ISOLatin1Encoding 120 FMSR

 504 5020 mt  -90 rotate
(F) s
90 rotate
6 w

end %%Color Dict

eplot
%%EndObject

epage
end

showpage

%%Trailer
%%EOF
