%!PS-Adobe-3.0 EPSF-3.0
%%Creator: MATLAB, The MathWorks, Inc. Version 7.14.0.739 (R2012a). Operating System: Linux 2.6.33.7.2-rt30-rt #1 SMP PREEMPT RT Tue Apr 17 15:22:21 CEST 2012 x86_64.
%%Title: ./fit_transfer_function.eps
%%CreationDate: 10/02/2013  18:01:38
%%DocumentNeededFonts: Helvetica
%%DocumentProcessColors: Cyan Magenta Yellow Black
%%LanguageLevel: 2
%%Pages: 1
%%BoundingBox:    11     8   396   356
%%EndComments

%%BeginProlog
% MathWorks dictionary
/MathWorks 160 dict begin
% definition operators
/bdef {bind def} bind def
/ldef {load def} bind def
/xdef {exch def} bdef
/xstore {exch store} bdef
% operator abbreviations
/c  /clip ldef
/cc /concat ldef
/cp /closepath ldef
/gr /grestore ldef
/gs /gsave ldef
/mt /moveto ldef
/np /newpath ldef
/cm /currentmatrix ldef
/sm /setmatrix ldef
/rm /rmoveto ldef
/rl /rlineto ldef
/s {show newpath} bdef
/sc {setcmykcolor} bdef
/sr /setrgbcolor ldef
/sg /setgray ldef
/w /setlinewidth ldef
/j /setlinejoin ldef
/cap /setlinecap ldef
/rc {rectclip} bdef
/rf {rectfill} bdef
% page state control
/pgsv () def
/bpage {/pgsv save def} bdef
/epage {pgsv restore} bdef
/bplot /gsave ldef
/eplot {stroke grestore} bdef
% orientation switch
/portraitMode 0 def /landscapeMode 1 def /rotateMode 2 def
% coordinate system mappings
/dpi2point 0 def
% font control
/FontSize 0 def
/FMS {/FontSize xstore findfont [FontSize 0 0 FontSize neg 0 0]
  makefont setfont} bdef
/reencode {exch dup where {pop load} {pop StandardEncoding} ifelse
  exch dup 3 1 roll findfont dup length dict begin
  { 1 index /FID ne {def}{pop pop} ifelse } forall
  /Encoding exch def currentdict end definefont pop} bdef
/isroman {findfont /CharStrings get /Agrave known} bdef
/FMSR {3 1 roll 1 index dup isroman {reencode} {pop pop} ifelse
  exch FMS} bdef
/csm {1 dpi2point div -1 dpi2point div scale neg translate
 dup landscapeMode eq {pop -90 rotate}
  {rotateMode eq {90 rotate} if} ifelse} bdef
% line types: solid, dotted, dashed, dotdash
/SO { [] 0 setdash } bdef
/DO { [.5 dpi2point mul 4 dpi2point mul] 0 setdash } bdef
/DA { [6 dpi2point mul] 0 setdash } bdef
/DD { [.5 dpi2point mul 4 dpi2point mul 6 dpi2point mul 4
  dpi2point mul] 0 setdash } bdef
% macros for lines and objects
/L {lineto stroke} bdef
/MP {3 1 roll moveto 1 sub {rlineto} repeat} bdef
/AP {{rlineto} repeat} bdef
/PDlw -1 def
/W {/PDlw currentlinewidth def setlinewidth} def
/PP {closepath eofill} bdef
/DP {closepath stroke} bdef
/MR {4 -2 roll moveto dup  0 exch rlineto exch 0 rlineto
  neg 0 exch rlineto closepath} bdef
/FR {MR stroke} bdef
/PR {MR fill} bdef
/L1i {{currentfile picstr readhexstring pop} image} bdef
/tMatrix matrix def
/MakeOval {newpath tMatrix currentmatrix pop translate scale
0 0 1 0 360 arc tMatrix setmatrix} bdef
/FO {MakeOval stroke} bdef
/PO {MakeOval fill} bdef
/PD {currentlinewidth 2 div 0 360 arc fill
   PDlw -1 eq not {PDlw w /PDlw -1 def} if} def
/FA {newpath tMatrix currentmatrix pop translate scale
  0 0 1 5 -2 roll arc tMatrix setmatrix stroke} bdef
/PA {newpath tMatrix currentmatrix pop	translate 0 0 moveto scale
  0 0 1 5 -2 roll arc closepath tMatrix setmatrix fill} bdef
/FAn {newpath tMatrix currentmatrix pop translate scale
  0 0 1 5 -2 roll arcn tMatrix setmatrix stroke} bdef
/PAn {newpath tMatrix currentmatrix pop translate 0 0 moveto scale
  0 0 1 5 -2 roll arcn closepath tMatrix setmatrix fill} bdef
/vradius 0 def /hradius 0 def /lry 0 def
/lrx 0 def /uly 0 def /ulx 0 def /rad 0 def
/MRR {/vradius xdef /hradius xdef /lry xdef /lrx xdef /uly xdef
  /ulx xdef newpath tMatrix currentmatrix pop ulx hradius add uly
  vradius add translate hradius vradius scale 0 0 1 180 270 arc 
  tMatrix setmatrix lrx hradius sub uly vradius add translate
  hradius vradius scale 0 0 1 270 360 arc tMatrix setmatrix
  lrx hradius sub lry vradius sub translate hradius vradius scale
  0 0 1 0 90 arc tMatrix setmatrix ulx hradius add lry vradius sub
  translate hradius vradius scale 0 0 1 90 180 arc tMatrix setmatrix
  closepath} bdef
/FRR {MRR stroke } bdef
/PRR {MRR fill } bdef
/MlrRR {/lry xdef /lrx xdef /uly xdef /ulx xdef /rad lry uly sub 2 div def
  newpath tMatrix currentmatrix pop ulx rad add uly rad add translate
  rad rad scale 0 0 1 90 270 arc tMatrix setmatrix lrx rad sub lry rad
  sub translate rad rad scale 0 0 1 270 90 arc tMatrix setmatrix
  closepath} bdef
/FlrRR {MlrRR stroke } bdef
/PlrRR {MlrRR fill } bdef
/MtbRR {/lry xdef /lrx xdef /uly xdef /ulx xdef /rad lrx ulx sub 2 div def
  newpath tMatrix currentmatrix pop ulx rad add uly rad add translate
  rad rad scale 0 0 1 180 360 arc tMatrix setmatrix lrx rad sub lry rad
  sub translate rad rad scale 0 0 1 0 180 arc tMatrix setmatrix
  closepath} bdef
/FtbRR {MtbRR stroke } bdef
/PtbRR {MtbRR fill } bdef
/stri 6 array def /dtri 6 array def
/smat 6 array def /dmat 6 array def
/tmat1 6 array def /tmat2 6 array def /dif 3 array def
/asub {/ind2 exch def /ind1 exch def dup dup
  ind1 get exch ind2 get sub exch } bdef
/tri_to_matrix {
  2 0 asub 3 1 asub 4 0 asub 5 1 asub
  dup 0 get exch 1 get 7 -1 roll astore } bdef
/compute_transform {
  dmat dtri tri_to_matrix tmat1 invertmatrix 
  smat stri tri_to_matrix tmat2 concatmatrix } bdef
/ds {stri astore pop} bdef
/dt {dtri astore pop} bdef
/db {2 copy /cols xdef /rows xdef mul dup 3 mul string
  currentfile 
  3 index 0 eq {/ASCIIHexDecode filter}
  {/ASCII85Decode filter 3 index 2 eq {/RunLengthDecode filter} if }
  ifelse exch readstring pop
  dup 0 3 index getinterval /rbmap xdef
  dup 2 index dup getinterval /gbmap xdef
  1 index dup 2 mul exch getinterval /bbmap xdef pop pop}bdef
/it {gs np dtri aload pop moveto lineto lineto cp c
  cols rows 8 compute_transform 
  rbmap gbmap bbmap true 3 colorimage gr}bdef
/il {newpath moveto lineto stroke}bdef
currentdict end def
%%EndProlog

%%BeginSetup
MathWorks begin

0 cap

end
%%EndSetup

%%Page: 1 1
%%BeginPageSetup
%%PageBoundingBox:    11     8   396   356
MathWorks begin
bpage
%%EndPageSetup

%%BeginObject: obj1
bplot

/dpi2point 12 def
portraitMode 0000 4320 csm

  133    46  4627  4176 rc
86 dict begin %Colortable dictionary
/c0 { 0.000000 0.000000 0.000000 sr} bdef
/c1 { 1.000000 1.000000 1.000000 sr} bdef
/c2 { 0.900000 0.000000 0.000000 sr} bdef
/c3 { 0.000000 0.820000 0.000000 sr} bdef
/c4 { 0.000000 0.000000 0.800000 sr} bdef
/c5 { 0.910000 0.820000 0.320000 sr} bdef
/c6 { 1.000000 0.260000 0.820000 sr} bdef
/c7 { 0.000000 0.820000 0.820000 sr} bdef
c0
1 j
1 sg
   0    0 5185 4321 rf
6 w
0 1473 4019 0 0 -1473 673 1798 4 MP
PP
-4019 0 0 1473 4019 0 0 -1473 673 1798 5 MP stroke
4 w
DO
SO
6 w
0 sg
 673 1798 mt 4692 1798 L
 673 1798 mt  673  325 L
 996 1798 mt  996 1777 L
 936 1798 mt  936 1777 L
 870 1798 mt  870 1777 L
 794 1798 mt  794 1777 L
 707 1798 mt  707 1777 L
 996 1798 mt  996 1757 L
%%IncludeResource: font Helvetica
/Helvetica /ISOLatin1Encoding 120 FMSR

 908 1980 mt 
(10) s
%%IncludeResource: font Helvetica
/Helvetica /ISOLatin1Encoding 80 FMSR

1041 1906 mt 
(1) s
1388 1798 mt 1388 1777 L
1617 1798 mt 1617 1777 L
1779 1798 mt 1779 1777 L
1905 1798 mt 1905 1777 L
2009 1798 mt 2009 1777 L
2096 1798 mt 2096 1777 L
2171 1798 mt 2171 1777 L
2238 1798 mt 2238 1777 L
2297 1798 mt 2297 1777 L
2297 1798 mt 2297 1757 L
%%IncludeResource: font Helvetica
/Helvetica /ISOLatin1Encoding 120 FMSR

2209 1980 mt 
(10) s
%%IncludeResource: font Helvetica
/Helvetica /ISOLatin1Encoding 80 FMSR

2342 1906 mt 
(2) s
2689 1798 mt 2689 1777 L
2918 1798 mt 2918 1777 L
3081 1798 mt 3081 1777 L
3207 1798 mt 3207 1777 L
3310 1798 mt 3310 1777 L
3397 1798 mt 3397 1777 L
3473 1798 mt 3473 1777 L
3539 1798 mt 3539 1777 L
3599 1798 mt 3599 1777 L
3599 1798 mt 3599 1757 L
%%IncludeResource: font Helvetica
/Helvetica /ISOLatin1Encoding 120 FMSR

3511 1980 mt 
(10) s
%%IncludeResource: font Helvetica
/Helvetica /ISOLatin1Encoding 80 FMSR

3644 1906 mt 
(3) s
3991 1798 mt 3991 1777 L
4220 1798 mt 4220 1777 L
4382 1798 mt 4382 1777 L
4509 1798 mt 4509 1777 L
4612 1798 mt 4612 1777 L
 673 1798 mt  714 1798 L
%%IncludeResource: font Helvetica
/Helvetica /ISOLatin1Encoding 120 FMSR

 436 1842 mt 
(-40) s
 673 1429 mt  714 1429 L
 436 1473 mt 
(-30) s
 673 1061 mt  714 1061 L
 436 1105 mt 
(-20) s
 673  693 mt  714  693 L
 436  737 mt 
(-10) s
 673  325 mt  714  325 L
 573  369 mt 
(0) s
gs 673 325 4020 1474 rc
24 w
/c8 { 1.000000 0.000000 0.000000 sr} bdef
c8
20 11 20 11 19 11 20 11 19 11 20 11 20 11 19 11 
20 11 20 11 19 11 20 11 19 12 20 11 20 11 19 11 
20 11 20 11 19 11 20 11 19 11 20 11 20 11 19 11 
20 11 20 11 19 11 20 11 19 11 20 11 20 11 19 11 
20 11 19 10 20 11 20 11 19 11 20 11 20 11 19 11 
20 10 19 11 20 11 20 11 19 10 20 11 20 11 19 10 
20 11 19 10 20 11 20 10 19 11 20 10 20 10 19 11 
20 10 19 10 20 10 20 10 19 10 20 10 19 10 20 10 
20 9 19 10 20 9 20 10 19 9 20 9 19 9 20 9 
20 9 19 8 20 9 20 8 19 8 20 9 19 7 20 8 
20 8 19 7 20 7 20 8 19 6 20 7 19 7 20 6 
20 6 19 6 20 6 20 6 19 5 20 5 19 5 20 5 
20 5 19 4 20 4 19 4 20 4 20 4 19 4 20 3 
20 3 19 3 20 3 19 3 20 3 20 2 19 2 20 3 
20 2 19 2 20 2 19 1 20 2 20 2 19 1 20 2 
20 1 19 1 20 1 19 1 20 1 20 1 19 1 20 1 
19 1 20 1 20 0 19 1 20 1 20 0 19 1 20 0 
19 1 20 0 20 1 19 0 20 0 20 1 19 0 20 0 
19 1 20 0 20 0 19 0 20 1 20 0 19 0 20 0 
19 0 20 0 20 1 19 0 20 0 19 0 20 0 20 0 
19 0 20 0 20 0 19 0 20 1 19 0 20 0 20 0 
19 0 20 0 20 0 19 0 20 0 19 0 20 0 20 0 
19 0 20 0 20 0 19 0 20 0 19 0 20 0 20 0 
19 0 20 0 19 0 20 0 20 0 19 0 20 0 20 0 
19 0 20 0 19 0 20 0 20 0 19 0 20 0 733 364 200 MP stroke
6 w
gr

c8
gs 660 278 4052 1350 rc
0 sg
  36   36  733  357 PO
  36   36  813  394 PO
  36   36  892  360 PO
  36   36  972  377 PO
  36   36 1052  370 PO
  36   36 1131  365 PO
  36   36 1211  376 PO
  36   36 1291  383 PO
  36   36 1371  362 PO
  36   36 1450  352 PO
  36   36 1530  357 PO
  36   36 1610  364 PO
  36   36 1689  367 PO
  36   36 1769  366 PO
  36   36 1849  361 PO
  36   36 1928  357 PO
  36   36 2008  364 PO
  36   36 2088  398 PO
  36   36 2167  384 PO
  36   36 2247  351 PO
  36   36 2327  393 PO
  36   36 2406  384 PO
  36   36 2486  366 PO
  36   36 2566  399 PO
  36   36 2645  412 PO
  36   36 2725  421 PO
  36   36 2805  446 PO
  36   36 2885  432 PO
  36   36 2964  454 PO
  36   36 3044  531 PO
  36   36 3124  552 PO
  36   36 3203  652 PO
  36   36 3283  670 PO
  36   36 3363  645 PO
  36   36 3442  865 PO
  36   36 3522  844 PO
  36   36 3602  842 PO
  36   36 3681  950 PO
  36   36 3761 1068 PO
  36   36 3841  962 PO
  36   36 3920  999 PO
  36   36 4000 1077 PO
  36   36 4080 1107 PO
  36   36 4160 1093 PO
  36   36 4239  990 PO
  36   36 4319 1264 PO
  36   36 4399 1062 PO
  36   36 4478 1132 PO
  36   36 4558 1272 PO
  36   36 4638 1554 PO
  36   36  733  357 FO
  36   36  813  394 FO
  36   36  892  360 FO
  36   36  972  377 FO
  36   36 1052  370 FO
  36   36 1131  365 FO
  36   36 1211  376 FO
  36   36 1291  383 FO
  36   36 1371  362 FO
  36   36 1450  352 FO
  36   36 1530  357 FO
  36   36 1610  364 FO
  36   36 1689  367 FO
  36   36 1769  366 FO
  36   36 1849  361 FO
  36   36 1928  357 FO
  36   36 2008  364 FO
  36   36 2088  398 FO
  36   36 2167  384 FO
  36   36 2247  351 FO
  36   36 2327  393 FO
  36   36 2406  384 FO
  36   36 2486  366 FO
  36   36 2566  399 FO
  36   36 2645  412 FO
  36   36 2725  421 FO
  36   36 2805  446 FO
  36   36 2885  432 FO
  36   36 2964  454 FO
  36   36 3044  531 FO
  36   36 3124  552 FO
  36   36 3203  652 FO
  36   36 3283  670 FO
  36   36 3363  645 FO
  36   36 3442  865 FO
  36   36 3522  844 FO
  36   36 3602  842 FO
  36   36 3681  950 FO
  36   36 3761 1068 FO
  36   36 3841  962 FO
  36   36 3920  999 FO
  36   36 4000 1077 FO
  36   36 4080 1107 FO
  36   36 4160 1093 FO
  36   36 4239  990 FO
  36   36 4319 1264 FO
  36   36 4399 1062 FO
  36   36 4478 1132 FO
  36   36 4558 1272 FO
  36   36 4638 1554 FO
gr

0 sg
gs 673 325 4020 1474 rc
DA
/c9 { 0.000000 1.000000 0.000000 sr} bdef
c9
0 -1473 2839 1798 2 MP stroke
gr

c9
DA
0 sg
 300 1569 mt  -90 rotate
(20 log) s
90 rotate
%%IncludeResource: font Helvetica
/Helvetica /ISOLatin1Encoding 96 FMSR

 360 1243 mt  -90 rotate
(10) s
90 rotate
%%IncludeResource: font Helvetica
/Helvetica /ISOLatin1Encoding 120 FMSR

 300 1137 mt  -90 rotate
( \(r) s
90 rotate
%%IncludeResource: font Helvetica
/Helvetica /ISOLatin1Encoding 96 FMSR

 360 1024 mt  -90 rotate
(1) s
90 rotate
%%IncludeResource: font Helvetica
/Helvetica /ISOLatin1Encoding 120 FMSR

 300  971 mt  -90 rotate
(/r) s
90 rotate
%%IncludeResource: font Helvetica
/Helvetica /ISOLatin1Encoding 96 FMSR

 360  898 mt  -90 rotate
(0) s
90 rotate
%%IncludeResource: font Helvetica
/Helvetica /ISOLatin1Encoding 120 FMSR

 300  845 mt  -90 rotate
(\) \(dB\)) s
90 rotate
2283  230 mt 
(M = 0  -  N = 1) s
SO
1 sg
0 1473 4019 0 0 -1473 673 3845 4 MP
PP
-4019 0 0 1473 4019 0 0 -1473 673 3845 5 MP stroke
4 w
DO
SO
6 w
0 sg
 673 3845 mt 4692 3845 L
 673 3845 mt  673 2372 L
 996 3845 mt  996 3824 L
 936 3845 mt  936 3824 L
 870 3845 mt  870 3824 L
 794 3845 mt  794 3824 L
 707 3845 mt  707 3824 L
 996 3845 mt  996 3804 L
 908 4027 mt 
(10) s
%%IncludeResource: font Helvetica
/Helvetica /ISOLatin1Encoding 80 FMSR

1041 3953 mt 
(1) s
1388 3845 mt 1388 3824 L
1617 3845 mt 1617 3824 L
1779 3845 mt 1779 3824 L
1905 3845 mt 1905 3824 L
2009 3845 mt 2009 3824 L
2096 3845 mt 2096 3824 L
2171 3845 mt 2171 3824 L
2238 3845 mt 2238 3824 L
2297 3845 mt 2297 3824 L
2297 3845 mt 2297 3804 L
%%IncludeResource: font Helvetica
/Helvetica /ISOLatin1Encoding 120 FMSR

2209 4027 mt 
(10) s
%%IncludeResource: font Helvetica
/Helvetica /ISOLatin1Encoding 80 FMSR

2342 3953 mt 
(2) s
2689 3845 mt 2689 3824 L
2918 3845 mt 2918 3824 L
3081 3845 mt 3081 3824 L
3207 3845 mt 3207 3824 L
3310 3845 mt 3310 3824 L
3397 3845 mt 3397 3824 L
3473 3845 mt 3473 3824 L
3539 3845 mt 3539 3824 L
3599 3845 mt 3599 3824 L
3599 3845 mt 3599 3804 L
%%IncludeResource: font Helvetica
/Helvetica /ISOLatin1Encoding 120 FMSR

3511 4027 mt 
(10) s
%%IncludeResource: font Helvetica
/Helvetica /ISOLatin1Encoding 80 FMSR

3644 3953 mt 
(3) s
3991 3845 mt 3991 3824 L
4220 3845 mt 4220 3824 L
4382 3845 mt 4382 3824 L
4509 3845 mt 4509 3824 L
4612 3845 mt 4612 3824 L
 673 3845 mt  714 3845 L
%%IncludeResource: font Helvetica
/Helvetica /ISOLatin1Encoding 120 FMSR

 369 3889 mt 
(-600) s
 673 3476 mt  714 3476 L
 369 3520 mt 
(-400) s
 673 3108 mt  714 3108 L
 369 3152 mt 
(-200) s
 673 2740 mt  714 2740 L
 573 2784 mt 
(0) s
 673 2372 mt  714 2372 L
 439 2416 mt 
(200) s
gs 673 2372 4020 1474 rc
24 w
c8
20 0 20 0 19 0 20 1 19 0 20 0 20 0 19 0 
20 1 20 0 19 0 20 0 19 0 20 1 20 0 19 0 
20 0 20 1 19 0 20 0 19 1 20 0 20 0 19 1 
20 0 20 0 19 1 20 0 19 0 20 1 20 0 19 1 
20 0 19 1 20 0 20 1 19 0 20 1 20 0 19 1 
20 1 19 0 20 1 20 0 19 1 20 1 20 1 19 0 
20 1 19 1 20 1 20 1 19 1 20 0 20 1 19 1 
20 1 19 1 20 1 20 1 19 2 20 1 19 1 20 1 
20 1 19 2 20 1 20 1 19 2 20 1 19 1 20 2 
20 1 19 2 20 1 20 2 19 2 20 1 19 2 20 2 
20 1 19 2 20 2 20 2 19 1 20 2 19 2 20 2 
20 2 19 1 20 2 20 2 19 2 20 2 19 2 20 1 
20 2 19 2 20 2 19 1 20 2 20 2 19 2 20 1 
20 2 19 2 20 1 19 2 20 1 20 2 19 1 20 2 
20 1 19 2 20 1 19 1 20 2 20 1 19 1 20 2 
20 1 19 1 20 1 19 1 20 1 20 1 19 1 20 1 
19 1 20 1 20 1 19 1 20 1 20 0 19 1 20 1 
19 1 20 0 20 1 19 1 20 0 20 1 19 1 20 0 
19 1 20 0 20 1 19 0 20 1 20 0 19 1 20 0 
19 1 20 0 20 1 19 0 20 0 19 1 20 0 20 0 
19 1 20 0 20 0 19 1 20 0 19 0 20 1 20 0 
19 0 20 0 20 1 19 0 20 0 19 0 20 0 20 1 
19 0 20 0 20 0 19 0 20 1 19 0 20 0 20 0 
19 0 20 0 19 0 20 1 20 0 19 0 20 0 20 0 
19 0 20 0 19 0 20 0 20 1 19 0 20 0 733 2742 200 MP stroke
6 w
gr

c8
gs 660 2588 4052 1259 rc
0 sg
  36   36  733 2734 PO
  36   36  813 2736 PO
  36   36  892 2738 PO
  36   36  972 2745 PO
  36   36 1052 2746 PO
  36   36 1131 2739 PO
  36   36 1211 2744 PO
  36   36 1291 2753 PO
  36   36 1371 2737 PO
  36   36 1450 2747 PO
  36   36 1530 2757 PO
  36   36 1610 2752 PO
  36   36 1689 2748 PO
  36   36 1769 2742 PO
  36   36 1849 2750 PO
  36   36 1928 2758 PO
  36   36 2008 2757 PO
  36   36 2088 2761 PO
  36   36 2167 2763 PO
  36   36 2247 2762 PO
  36   36 2327 2781 PO
  36   36 2406 2776 PO
  36   36 2486 2783 PO
  36   36 2566 2785 PO
  36   36 2645 2804 PO
  36   36 2725 2818 PO
  36   36 2805 2824 PO
  36   36 2885 2822 PO
  36   36 2964 2832 PO
  36   36 3044 2830 PO
  36   36 3124 2860 PO
  36   36 3203 2847 PO
  36   36 3283 2879 PO
  36   36 3363 2842 PO
  36   36 3442 2862 PO
  36   36 3522 2821 PO
  36   36 3602 2864 PO
  36   36 3681 2877 PO
  36   36 3761 2850 PO
  36   36 3841 2839 PO
  36   36 3920 2729 PO
  36   36 4000 2794 PO
  36   36 4080 2811 PO
  36   36 4160 2661 PO
  36   36 4239 2766 PO
  36   36 4319 2734 PO
  36   36 4399 3069 PO
  36   36 4478 3151 PO
  36   36 4558 3558 PO
  36   36 4638 3773 PO
  36   36  733 2734 FO
  36   36  813 2736 FO
  36   36  892 2738 FO
  36   36  972 2745 FO
  36   36 1052 2746 FO
  36   36 1131 2739 FO
  36   36 1211 2744 FO
  36   36 1291 2753 FO
  36   36 1371 2737 FO
  36   36 1450 2747 FO
  36   36 1530 2757 FO
  36   36 1610 2752 FO
  36   36 1689 2748 FO
  36   36 1769 2742 FO
  36   36 1849 2750 FO
  36   36 1928 2758 FO
  36   36 2008 2757 FO
  36   36 2088 2761 FO
  36   36 2167 2763 FO
  36   36 2247 2762 FO
  36   36 2327 2781 FO
  36   36 2406 2776 FO
  36   36 2486 2783 FO
  36   36 2566 2785 FO
  36   36 2645 2804 FO
  36   36 2725 2818 FO
  36   36 2805 2824 FO
  36   36 2885 2822 FO
  36   36 2964 2832 FO
  36   36 3044 2830 FO
  36   36 3124 2860 FO
  36   36 3203 2847 FO
  36   36 3283 2879 FO
  36   36 3363 2842 FO
  36   36 3442 2862 FO
  36   36 3522 2821 FO
  36   36 3602 2864 FO
  36   36 3681 2877 FO
  36   36 3761 2850 FO
  36   36 3841 2839 FO
  36   36 3920 2729 FO
  36   36 4000 2794 FO
  36   36 4080 2811 FO
  36   36 4160 2661 FO
  36   36 4239 2766 FO
  36   36 4319 2734 FO
  36   36 4399 3069 FO
  36   36 4478 3151 FO
  36   36 4558 3558 FO
  36   36 4638 3773 FO
gr

0 sg
gs 673 2372 4020 1474 rc
DA
c9
0 -1473 2839 3845 2 MP stroke
gr

c9
DA
0 sg
2340 2277 mt 
(Dt = 0.70 ms) s
2101 4170 mt 
(Frequency \(radians/s\)) s
%%IncludeResource: font Symbol
/Symbol /ISOLatin1Encoding 120 FMSR

 279 3155 mt  -90 rotate
(F) s
90 rotate
SO

end %%Color Dict

eplot
%%EndObject

epage
end

showpage

%%Trailer
%%EOF
