%!PS-Adobe-3.0 EPSF-3.0
%%Creator: MATLAB, The MathWorks, Inc. Version 7.14.0.739 (R2012a). Operating System: Linux 2.6.33.7.2-rt30-rt #1 SMP PREEMPT RT Tue Apr 17 15:22:21 CEST 2012 x86_64.
%%Title: ./modulation_phase_shift_ap_peak.eps
%%CreationDate: 10/02/2013  18:01:38
%%DocumentNeededFonts: Helvetica
%%DocumentProcessColors: Cyan Magenta Yellow Black
%%LanguageLevel: 2
%%Pages: 1
%%BoundingBox:    24    31   532   545
%%EndComments

%%BeginProlog
% MathWorks dictionary
/MathWorks 160 dict begin
% definition operators
/bdef {bind def} bind def
/ldef {load def} bind def
/xdef {exch def} bdef
/xstore {exch store} bdef
% operator abbreviations
/c  /clip ldef
/cc /concat ldef
/cp /closepath ldef
/gr /grestore ldef
/gs /gsave ldef
/mt /moveto ldef
/np /newpath ldef
/cm /currentmatrix ldef
/sm /setmatrix ldef
/rm /rmoveto ldef
/rl /rlineto ldef
/s {show newpath} bdef
/sc {setcmykcolor} bdef
/sr /setrgbcolor ldef
/sg /setgray ldef
/w /setlinewidth ldef
/j /setlinejoin ldef
/cap /setlinecap ldef
/rc {rectclip} bdef
/rf {rectfill} bdef
% page state control
/pgsv () def
/bpage {/pgsv save def} bdef
/epage {pgsv restore} bdef
/bplot /gsave ldef
/eplot {stroke grestore} bdef
% orientation switch
/portraitMode 0 def /landscapeMode 1 def /rotateMode 2 def
% coordinate system mappings
/dpi2point 0 def
% font control
/FontSize 0 def
/FMS {/FontSize xstore findfont [FontSize 0 0 FontSize neg 0 0]
  makefont setfont} bdef
/reencode {exch dup where {pop load} {pop StandardEncoding} ifelse
  exch dup 3 1 roll findfont dup length dict begin
  { 1 index /FID ne {def}{pop pop} ifelse } forall
  /Encoding exch def currentdict end definefont pop} bdef
/isroman {findfont /CharStrings get /Agrave known} bdef
/FMSR {3 1 roll 1 index dup isroman {reencode} {pop pop} ifelse
  exch FMS} bdef
/csm {1 dpi2point div -1 dpi2point div scale neg translate
 dup landscapeMode eq {pop -90 rotate}
  {rotateMode eq {90 rotate} if} ifelse} bdef
% line types: solid, dotted, dashed, dotdash
/SO { [] 0 setdash } bdef
/DO { [.5 dpi2point mul 4 dpi2point mul] 0 setdash } bdef
/DA { [6 dpi2point mul] 0 setdash } bdef
/DD { [.5 dpi2point mul 4 dpi2point mul 6 dpi2point mul 4
  dpi2point mul] 0 setdash } bdef
% macros for lines and objects
/L {lineto stroke} bdef
/MP {3 1 roll moveto 1 sub {rlineto} repeat} bdef
/AP {{rlineto} repeat} bdef
/PDlw -1 def
/W {/PDlw currentlinewidth def setlinewidth} def
/PP {closepath eofill} bdef
/DP {closepath stroke} bdef
/MR {4 -2 roll moveto dup  0 exch rlineto exch 0 rlineto
  neg 0 exch rlineto closepath} bdef
/FR {MR stroke} bdef
/PR {MR fill} bdef
/L1i {{currentfile picstr readhexstring pop} image} bdef
/tMatrix matrix def
/MakeOval {newpath tMatrix currentmatrix pop translate scale
0 0 1 0 360 arc tMatrix setmatrix} bdef
/FO {MakeOval stroke} bdef
/PO {MakeOval fill} bdef
/PD {currentlinewidth 2 div 0 360 arc fill
   PDlw -1 eq not {PDlw w /PDlw -1 def} if} def
/FA {newpath tMatrix currentmatrix pop translate scale
  0 0 1 5 -2 roll arc tMatrix setmatrix stroke} bdef
/PA {newpath tMatrix currentmatrix pop	translate 0 0 moveto scale
  0 0 1 5 -2 roll arc closepath tMatrix setmatrix fill} bdef
/FAn {newpath tMatrix currentmatrix pop translate scale
  0 0 1 5 -2 roll arcn tMatrix setmatrix stroke} bdef
/PAn {newpath tMatrix currentmatrix pop translate 0 0 moveto scale
  0 0 1 5 -2 roll arcn closepath tMatrix setmatrix fill} bdef
/vradius 0 def /hradius 0 def /lry 0 def
/lrx 0 def /uly 0 def /ulx 0 def /rad 0 def
/MRR {/vradius xdef /hradius xdef /lry xdef /lrx xdef /uly xdef
  /ulx xdef newpath tMatrix currentmatrix pop ulx hradius add uly
  vradius add translate hradius vradius scale 0 0 1 180 270 arc 
  tMatrix setmatrix lrx hradius sub uly vradius add translate
  hradius vradius scale 0 0 1 270 360 arc tMatrix setmatrix
  lrx hradius sub lry vradius sub translate hradius vradius scale
  0 0 1 0 90 arc tMatrix setmatrix ulx hradius add lry vradius sub
  translate hradius vradius scale 0 0 1 90 180 arc tMatrix setmatrix
  closepath} bdef
/FRR {MRR stroke } bdef
/PRR {MRR fill } bdef
/MlrRR {/lry xdef /lrx xdef /uly xdef /ulx xdef /rad lry uly sub 2 div def
  newpath tMatrix currentmatrix pop ulx rad add uly rad add translate
  rad rad scale 0 0 1 90 270 arc tMatrix setmatrix lrx rad sub lry rad
  sub translate rad rad scale 0 0 1 270 90 arc tMatrix setmatrix
  closepath} bdef
/FlrRR {MlrRR stroke } bdef
/PlrRR {MlrRR fill } bdef
/MtbRR {/lry xdef /lrx xdef /uly xdef /ulx xdef /rad lrx ulx sub 2 div def
  newpath tMatrix currentmatrix pop ulx rad add uly rad add translate
  rad rad scale 0 0 1 180 360 arc tMatrix setmatrix lrx rad sub lry rad
  sub translate rad rad scale 0 0 1 0 180 arc tMatrix setmatrix
  closepath} bdef
/FtbRR {MtbRR stroke } bdef
/PtbRR {MtbRR fill } bdef
/stri 6 array def /dtri 6 array def
/smat 6 array def /dmat 6 array def
/tmat1 6 array def /tmat2 6 array def /dif 3 array def
/asub {/ind2 exch def /ind1 exch def dup dup
  ind1 get exch ind2 get sub exch } bdef
/tri_to_matrix {
  2 0 asub 3 1 asub 4 0 asub 5 1 asub
  dup 0 get exch 1 get 7 -1 roll astore } bdef
/compute_transform {
  dmat dtri tri_to_matrix tmat1 invertmatrix 
  smat stri tri_to_matrix tmat2 concatmatrix } bdef
/ds {stri astore pop} bdef
/dt {dtri astore pop} bdef
/db {2 copy /cols xdef /rows xdef mul dup 3 mul string
  currentfile 
  3 index 0 eq {/ASCIIHexDecode filter}
  {/ASCII85Decode filter 3 index 2 eq {/RunLengthDecode filter} if }
  ifelse exch readstring pop
  dup 0 3 index getinterval /rbmap xdef
  dup 2 index dup getinterval /gbmap xdef
  1 index dup 2 mul exch getinterval /bbmap xdef pop pop}bdef
/it {gs np dtri aload pop moveto lineto lineto cp c
  cols rows 8 compute_transform 
  rbmap gbmap bbmap true 3 colorimage gr}bdef
/il {newpath moveto lineto stroke}bdef
currentdict end def
%%EndProlog

%%BeginSetup
MathWorks begin

0 cap

end
%%EndSetup

%%Page: 1 1
%%BeginPageSetup
%%PageBoundingBox:    24    31   532   545
MathWorks begin
bpage
%%EndPageSetup

%%BeginObject: obj1
bplot

/dpi2point 12 def
portraitMode 0000 6912 csm

  292   366  6101  6163 rc
85 dict begin %Colortable dictionary
/c0 { 0.000000 0.000000 0.000000 sr} bdef
/c1 { 1.000000 1.000000 1.000000 sr} bdef
/c2 { 0.900000 0.000000 0.000000 sr} bdef
/c3 { 0.000000 0.820000 0.000000 sr} bdef
/c4 { 0.000000 0.000000 0.800000 sr} bdef
/c5 { 0.910000 0.820000 0.320000 sr} bdef
/c6 { 1.000000 0.260000 0.820000 sr} bdef
/c7 { 0.000000 0.820000 0.820000 sr} bdef
c0
1 j
1 sg
   0    0 6913 6913 rf
6 w
0 2359 5356 0 0 -2359 899 2877 4 MP
PP
-5356 0 0 2359 5356 0 0 -2359 899 2877 5 MP stroke
4 w
DO
SO
6 w
0 sg
 899 2877 mt 6255 2877 L
 899  518 mt 6255  518 L
 899 2877 mt  899  518 L
6255 2877 mt 6255  518 L
 899 2877 mt 6255 2877 L
 899 2877 mt  899  518 L
 899 2877 mt  899 2850 L
 899  518 mt  899  544 L
 899 2877 mt  899 2823 L
 899  518 mt  899  571 L
%%IncludeResource: font Helvetica
/Helvetica /ISOLatin1Encoding 120 FMSR

 811 3059 mt 
(10) s
%%IncludeResource: font Helvetica
/Helvetica /ISOLatin1Encoding 80 FMSR

 944 2985 mt 
(0) s
1436 2877 mt 1436 2850 L
1436  518 mt 1436  544 L
1750 2877 mt 1750 2850 L
1750  518 mt 1750  544 L
1973 2877 mt 1973 2850 L
1973  518 mt 1973  544 L
2146 2877 mt 2146 2850 L
2146  518 mt 2146  544 L
2288 2877 mt 2288 2850 L
2288  518 mt 2288  544 L
2407 2877 mt 2407 2850 L
2407  518 mt 2407  544 L
2511 2877 mt 2511 2850 L
2511  518 mt 2511  544 L
2602 2877 mt 2602 2850 L
2602  518 mt 2602  544 L
2684 2877 mt 2684 2850 L
2684  518 mt 2684  544 L
2684 2877 mt 2684 2823 L
2684  518 mt 2684  571 L
%%IncludeResource: font Helvetica
/Helvetica /ISOLatin1Encoding 120 FMSR

2596 3059 mt 
(10) s
%%IncludeResource: font Helvetica
/Helvetica /ISOLatin1Encoding 80 FMSR

2729 2985 mt 
(1) s
3221 2877 mt 3221 2850 L
3221  518 mt 3221  544 L
3536 2877 mt 3536 2850 L
3536  518 mt 3536  544 L
3759 2877 mt 3759 2850 L
3759  518 mt 3759  544 L
3932 2877 mt 3932 2850 L
3932  518 mt 3932  544 L
4073 2877 mt 4073 2850 L
4073  518 mt 4073  544 L
4193 2877 mt 4193 2850 L
4193  518 mt 4193  544 L
4296 2877 mt 4296 2850 L
4296  518 mt 4296  544 L
4387 2877 mt 4387 2850 L
4387  518 mt 4387  544 L
4469 2877 mt 4469 2850 L
4469  518 mt 4469  544 L
4469 2877 mt 4469 2823 L
4469  518 mt 4469  571 L
%%IncludeResource: font Helvetica
/Helvetica /ISOLatin1Encoding 120 FMSR

4381 3059 mt 
(10) s
%%IncludeResource: font Helvetica
/Helvetica /ISOLatin1Encoding 80 FMSR

4514 2985 mt 
(2) s
5007 2877 mt 5007 2850 L
5007  518 mt 5007  544 L
5321 2877 mt 5321 2850 L
5321  518 mt 5321  544 L
5544 2877 mt 5544 2850 L
5544  518 mt 5544  544 L
5717 2877 mt 5717 2850 L
5717  518 mt 5717  544 L
5858 2877 mt 5858 2850 L
5858  518 mt 5858  544 L
5978 2877 mt 5978 2850 L
5978  518 mt 5978  544 L
6081 2877 mt 6081 2850 L
6081  518 mt 6081  544 L
6173 2877 mt 6173 2850 L
6173  518 mt 6173  544 L
6255 2877 mt 6255 2850 L
6255  518 mt 6255  544 L
6255 2877 mt 6255 2823 L
6255  518 mt 6255  571 L
%%IncludeResource: font Helvetica
/Helvetica /ISOLatin1Encoding 120 FMSR

6167 3059 mt 
(10) s
%%IncludeResource: font Helvetica
/Helvetica /ISOLatin1Encoding 80 FMSR

6300 2985 mt 
(3) s
 899 2877 mt  925 2877 L
6255 2877 mt 6228 2877 L
 899 2877 mt  952 2877 L
6255 2877 mt 6201 2877 L
%%IncludeResource: font Helvetica
/Helvetica /ISOLatin1Encoding 120 FMSR

 640 2921 mt 
(10) s
%%IncludeResource: font Helvetica
/Helvetica /ISOLatin1Encoding 80 FMSR

 773 2847 mt 
(-2) s
 899 2521 mt  925 2521 L
6255 2521 mt 6228 2521 L
 899 2314 mt  925 2314 L
6255 2314 mt 6228 2314 L
 899 2166 mt  925 2166 L
6255 2166 mt 6228 2166 L
 899 2052 mt  925 2052 L
6255 2052 mt 6228 2052 L
 899 1959 mt  925 1959 L
6255 1959 mt 6228 1959 L
 899 1880 mt  925 1880 L
6255 1880 mt 6228 1880 L
 899 1811 mt  925 1811 L
6255 1811 mt 6228 1811 L
 899 1751 mt  925 1751 L
6255 1751 mt 6228 1751 L
 899 1697 mt  925 1697 L
6255 1697 mt 6228 1697 L
 899 1697 mt  952 1697 L
6255 1697 mt 6201 1697 L
%%IncludeResource: font Helvetica
/Helvetica /ISOLatin1Encoding 120 FMSR

 640 1741 mt 
(10) s
%%IncludeResource: font Helvetica
/Helvetica /ISOLatin1Encoding 80 FMSR

 773 1667 mt 
(-1) s
 899 1342 mt  925 1342 L
6255 1342 mt 6228 1342 L
 899 1134 mt  925 1134 L
6255 1134 mt 6228 1134 L
 899  987 mt  925  987 L
6255  987 mt 6228  987 L
 899  873 mt  925  873 L
6255  873 mt 6228  873 L
 899  779 mt  925  779 L
6255  779 mt 6228  779 L
 899  700 mt  925  700 L
6255  700 mt 6228  700 L
 899  632 mt  925  632 L
6255  632 mt 6228  632 L
 899  571 mt  925  571 L
6255  571 mt 6228  571 L
 899  518 mt  925  518 L
6255  518 mt 6228  518 L
 899  518 mt  952  518 L
6255  518 mt 6201  518 L
%%IncludeResource: font Helvetica
/Helvetica /ISOLatin1Encoding 120 FMSR

 640  562 mt 
(10) s
%%IncludeResource: font Helvetica
/Helvetica /ISOLatin1Encoding 80 FMSR

 773  488 mt 
(0) s
 899 2877 mt 6255 2877 L
 899  518 mt 6255  518 L
 899 2877 mt  899  518 L
6255 2877 mt 6255  518 L
gs 899 518 5357 2360 rc
24 w
110 451 109 225 109 112 110 -325 109 439 109 -164 110 -23 109 48 
109 125 110 60 109 -171 109 190 109 173 110 -3 109 -35 109 354 
110 -41 109 29 109 161 110 33 109 123 109 35 110 -22 109 41 
109 14 109 21 110 52 109 -28 109 -16 110 68 109 -53 109 -22 
110 54 109 12 109 -7 110 -8 109 -1 109 4 109 11 110 8 
109 -16 109 -33 110 11 109 17 109 -7 110 -11 109 26 109 -54 
109 60 899 569 50 MP stroke
gr

24 w
gs 825 486 5505 2075 rc
  24   24  899  569 PO
  24   24 1008  629 PO
  24   24 1117  575 PO
  24   24 1226  601 PO
  24   24 1336  590 PO
  24   24 1445  583 PO
  24   24 1554  600 PO
  24   24 1664  611 PO
  24   24 1773  578 PO
  24   24 1882  562 PO
  24   24 1992  570 PO
  24   24 2101  581 PO
  24   24 2210  585 PO
  24   24 2319  584 PO
  24   24 2429  576 PO
  24   24 2538  569 PO
  24   24 2647  581 PO
  24   24 2757  635 PO
  24   24 2866  613 PO
  24   24 2975  560 PO
  24   24 3085  628 PO
  24   24 3194  612 PO
  24   24 3303  584 PO
  24   24 3413  636 PO
  24   24 3522  657 PO
  24   24 3631  671 PO
  24   24 3740  712 PO
  24   24 3850  690 PO
  24   24 3959  725 PO
  24   24 4068  848 PO
  24   24 4178  881 PO
  24   24 4287 1042 PO
  24   24 4396 1071 PO
  24   24 4506 1030 PO
  24   24 4615 1384 PO
  24   24 4724 1349 PO
  24   24 4834 1346 PO
  24   24 4943 1519 PO
  24   24 5052 1709 PO
  24   24 5161 1538 PO
  24   24 5271 1598 PO
  24   24 5380 1723 PO
  24   24 5489 1771 PO
  24   24 5599 1748 PO
  24   24 5708 1584 PO
  24   24 5817 2023 PO
  24   24 5927 1698 PO
  24   24 6036 1810 PO
  24   24 6145 2035 PO
  24   24 6255 2486 PO
  24   24  899  569 FO
  24   24 1008  629 FO
  24   24 1117  575 FO
  24   24 1226  601 FO
  24   24 1336  590 FO
  24   24 1445  583 FO
  24   24 1554  600 FO
  24   24 1664  611 FO
  24   24 1773  578 FO
  24   24 1882  562 FO
  24   24 1992  570 FO
  24   24 2101  581 FO
  24   24 2210  585 FO
  24   24 2319  584 FO
  24   24 2429  576 FO
  24   24 2538  569 FO
  24   24 2647  581 FO
  24   24 2757  635 FO
  24   24 2866  613 FO
  24   24 2975  560 FO
  24   24 3085  628 FO
  24   24 3194  612 FO
  24   24 3303  584 FO
  24   24 3413  636 FO
  24   24 3522  657 FO
  24   24 3631  671 FO
  24   24 3740  712 FO
  24   24 3850  690 FO
  24   24 3959  725 FO
  24   24 4068  848 FO
  24   24 4178  881 FO
  24   24 4287 1042 FO
  24   24 4396 1071 FO
  24   24 4506 1030 FO
  24   24 4615 1384 FO
  24   24 4724 1349 FO
  24   24 4834 1346 FO
  24   24 4943 1519 FO
  24   24 5052 1709 FO
  24   24 5161 1538 FO
  24   24 5271 1598 FO
  24   24 5380 1723 FO
  24   24 5489 1771 FO
  24   24 5599 1748 FO
  24   24 5708 1584 FO
  24   24 5817 2023 FO
  24   24 5927 1698 FO
  24   24 6036 1810 FO
  24   24 6145 2035 FO
  24   24 6255 2486 FO
gr

gs 899 518 5357 2360 rc
gr

gs 825 1792 5505 379 rc
  24   24  899 1866 PO
  24   24 1008 1938 PO
  24   24 1117 1985 PO
  24   24 1226 1934 PO
  24   24 1336 1928 PO
  24   24 1445 1976 PO
  24   24 1554 1917 PO
  24   24 1664 1986 PO
  24   24 1773 1948 PO
  24   24 1882 1982 PO
  24   24 1992 1944 PO
  24   24 2101 1993 PO
  24   24 2210 1983 PO
  24   24 2319 1971 PO
  24   24 2429 1892 PO
  24   24 2538 1944 PO
  24   24 2647 2039 PO
  24   24 2757 2012 PO
  24   24 2866 1919 PO
  24   24 2975 1932 PO
  24   24 3085 1980 PO
  24   24 3194 1997 PO
  24   24 3303 2010 PO
  24   24 3413 1949 PO
  24   24 3522 1944 PO
  24   24 3631 1963 PO
  24   24 3740 2024 PO
  24   24 3850 1960 PO
  24   24 3959 1977 PO
  24   24 4068 1937 PO
  24   24 4178 1990 PO
  24   24 4287 1996 PO
  24   24 4396 1994 PO
  24   24 4506 2084 PO
  24   24 4615 2022 PO
  24   24 4724 2096 PO
  24   24 4834 1980 PO
  24   24 4943 2058 PO
  24   24 5052 1982 PO
  24   24 5161 1953 PO
  24   24 5271 2090 PO
  24   24 5380 2066 PO
  24   24 5489 1965 PO
  24   24 5599 1962 PO
  24   24 5708 1968 PO
  24   24 5817 2001 PO
  24   24 5927 1998 PO
  24   24 6036 2024 PO
  24   24 6145 2033 PO
  24   24 6255 2005 PO
/c8 { 0.000000 0.000000 1.000000 sr} bdef
c8
  24   24  899 1866 FO
  24   24 1008 1938 FO
  24   24 1117 1985 FO
  24   24 1226 1934 FO
  24   24 1336 1928 FO
  24   24 1445 1976 FO
  24   24 1554 1917 FO
  24   24 1664 1986 FO
  24   24 1773 1948 FO
  24   24 1882 1982 FO
  24   24 1992 1944 FO
  24   24 2101 1993 FO
  24   24 2210 1983 FO
  24   24 2319 1971 FO
  24   24 2429 1892 FO
  24   24 2538 1944 FO
  24   24 2647 2039 FO
  24   24 2757 2012 FO
  24   24 2866 1919 FO
  24   24 2975 1932 FO
  24   24 3085 1980 FO
  24   24 3194 1997 FO
  24   24 3303 2010 FO
  24   24 3413 1949 FO
  24   24 3522 1944 FO
  24   24 3631 1963 FO
  24   24 3740 2024 FO
  24   24 3850 1960 FO
  24   24 3959 1977 FO
  24   24 4068 1937 FO
  24   24 4178 1990 FO
  24   24 4287 1996 FO
  24   24 4396 1994 FO
  24   24 4506 2084 FO
  24   24 4615 2022 FO
  24   24 4724 2096 FO
  24   24 4834 1980 FO
  24   24 4943 2058 FO
  24   24 5052 1982 FO
  24   24 5161 1953 FO
  24   24 5271 2090 FO
  24   24 5380 2066 FO
  24   24 5489 1965 FO
  24   24 5599 1962 FO
  24   24 5708 1968 FO
  24   24 5817 2001 FO
  24   24 5927 1998 FO
  24   24 6036 2024 FO
  24   24 6145 2033 FO
  24   24 6255 2005 FO
gr

c8
gs 899 518 5357 2360 rc
gr

0 sg
%%IncludeResource: font Helvetica
/Helvetica /ISOLatin1Encoding 120 FMSR

 504 1807 mt  -90 rotate
(r) s
90 rotate
%%IncludeResource: font Helvetica
/Helvetica /ISOLatin1Encoding 96 FMSR

 564 1768 mt  -90 rotate
(1) s
90 rotate
%%IncludeResource: font Helvetica
/Helvetica /ISOLatin1Encoding 120 FMSR

 504 1715 mt  -90 rotate
(/r) s
90 rotate
%%IncludeResource: font Helvetica
/Helvetica /ISOLatin1Encoding 96 FMSR

 564 1642 mt  -90 rotate
(0) s
90 rotate
%%IncludeResource: font Helvetica
/Helvetica /ISOLatin1Encoding 120 FMSR

 882 2920 mt 
( ) s
6239  560 mt 
( ) s
6 w
1 sg
0 334 1577 0 0 -334 959 2818 4 MP
PP
-1577 0 0 334 1577 0 0 -334 959 2818 5 MP stroke
4 w
DO
SO
6 w
0 sg
 959 2818 mt 2536 2818 L
 959 2484 mt 2536 2484 L
 959 2818 mt  959 2484 L
2536 2818 mt 2536 2484 L
 959 2818 mt 2536 2818 L
 959 2818 mt  959 2484 L
 959 2818 mt 2536 2818 L
 959 2484 mt 2536 2484 L
 959 2818 mt  959 2484 L
2536 2818 mt 2536 2484 L
1427 2618 mt 
(Real spike times) s
gs 959 2484 1578 335 rc
24 w
360 0 1030 2575 2 MP stroke
gs 1136 2501 149 149 rc
  24   24 1210 2575 PO
  24   24 1210 2575 FO
gr

gr

24 w
1427 2769 mt 
(Shuffled spike times) s
gs 959 2484 1578 335 rc
gs 1136 2652 149 149 rc
  24   24 1210 2726 PO
c8
  24   24 1210 2726 FO
gr

c8
6 w
gr

6 w
c8
1 sg
0 2358 5356 0 0 -2358 899 6152 4 MP
PP
-5356 0 0 2358 5356 0 0 -2358 899 6152 5 MP stroke
4 w
DO
SO
6 w
0 sg
 899 6152 mt 6255 6152 L
 899 3794 mt 6255 3794 L
 899 6152 mt  899 3794 L
6255 6152 mt 6255 3794 L
 899 6152 mt 6255 6152 L
 899 6152 mt  899 3794 L
 899 6152 mt  899 6125 L
 899 3794 mt  899 3820 L
 899 6152 mt  899 6098 L
 899 3794 mt  899 3847 L
 811 6334 mt 
(10) s
%%IncludeResource: font Helvetica
/Helvetica /ISOLatin1Encoding 80 FMSR

 944 6260 mt 
(0) s
1436 6152 mt 1436 6125 L
1436 3794 mt 1436 3820 L
1750 6152 mt 1750 6125 L
1750 3794 mt 1750 3820 L
1973 6152 mt 1973 6125 L
1973 3794 mt 1973 3820 L
2146 6152 mt 2146 6125 L
2146 3794 mt 2146 3820 L
2288 6152 mt 2288 6125 L
2288 3794 mt 2288 3820 L
2407 6152 mt 2407 6125 L
2407 3794 mt 2407 3820 L
2511 6152 mt 2511 6125 L
2511 3794 mt 2511 3820 L
2602 6152 mt 2602 6125 L
2602 3794 mt 2602 3820 L
2684 6152 mt 2684 6125 L
2684 3794 mt 2684 3820 L
2684 6152 mt 2684 6098 L
2684 3794 mt 2684 3847 L
%%IncludeResource: font Helvetica
/Helvetica /ISOLatin1Encoding 120 FMSR

2596 6334 mt 
(10) s
%%IncludeResource: font Helvetica
/Helvetica /ISOLatin1Encoding 80 FMSR

2729 6260 mt 
(1) s
3221 6152 mt 3221 6125 L
3221 3794 mt 3221 3820 L
3536 6152 mt 3536 6125 L
3536 3794 mt 3536 3820 L
3759 6152 mt 3759 6125 L
3759 3794 mt 3759 3820 L
3932 6152 mt 3932 6125 L
3932 3794 mt 3932 3820 L
4073 6152 mt 4073 6125 L
4073 3794 mt 4073 3820 L
4193 6152 mt 4193 6125 L
4193 3794 mt 4193 3820 L
4296 6152 mt 4296 6125 L
4296 3794 mt 4296 3820 L
4387 6152 mt 4387 6125 L
4387 3794 mt 4387 3820 L
4469 6152 mt 4469 6125 L
4469 3794 mt 4469 3820 L
4469 6152 mt 4469 6098 L
4469 3794 mt 4469 3847 L
%%IncludeResource: font Helvetica
/Helvetica /ISOLatin1Encoding 120 FMSR

4381 6334 mt 
(10) s
%%IncludeResource: font Helvetica
/Helvetica /ISOLatin1Encoding 80 FMSR

4514 6260 mt 
(2) s
5007 6152 mt 5007 6125 L
5007 3794 mt 5007 3820 L
5321 6152 mt 5321 6125 L
5321 3794 mt 5321 3820 L
5544 6152 mt 5544 6125 L
5544 3794 mt 5544 3820 L
5717 6152 mt 5717 6125 L
5717 3794 mt 5717 3820 L
5858 6152 mt 5858 6125 L
5858 3794 mt 5858 3820 L
5978 6152 mt 5978 6125 L
5978 3794 mt 5978 3820 L
6081 6152 mt 6081 6125 L
6081 3794 mt 6081 3820 L
6173 6152 mt 6173 6125 L
6173 3794 mt 6173 3820 L
6255 6152 mt 6255 6125 L
6255 3794 mt 6255 3820 L
6255 6152 mt 6255 6098 L
6255 3794 mt 6255 3847 L
%%IncludeResource: font Helvetica
/Helvetica /ISOLatin1Encoding 120 FMSR

6167 6334 mt 
(10) s
%%IncludeResource: font Helvetica
/Helvetica /ISOLatin1Encoding 80 FMSR

6300 6260 mt 
(3) s
 899 6152 mt  952 6152 L
6255 6152 mt 6201 6152 L
%%IncludeResource: font Helvetica
/Helvetica /ISOLatin1Encoding 120 FMSR

 528 6196 mt 
(-1000) s
 899 5759 mt  952 5759 L
6255 5759 mt 6201 5759 L
 594 5803 mt 
(-800) s
 899 5366 mt  952 5366 L
6255 5366 mt 6201 5366 L
 594 5410 mt 
(-600) s
 899 4973 mt  952 4973 L
6255 4973 mt 6201 4973 L
 594 5017 mt 
(-400) s
 899 4580 mt  952 4580 L
6255 4580 mt 6201 4580 L
 594 4624 mt 
(-200) s
 899 4187 mt  952 4187 L
6255 4187 mt 6201 4187 L
 798 4231 mt 
(0) s
 899 3794 mt  952 3794 L
6255 3794 mt 6201 3794 L
 664 3838 mt 
(200) s
 899 6152 mt 6255 6152 L
 899 3794 mt 6255 3794 L
 899 6152 mt  899 3794 L
6255 6152 mt 6255 3794 L
gs 899 3794 5357 2359 rc
24 w
110 295 109 490 109 137 110 401 109 3 109 144 110 -132 109 42 
109 91 110 -99 109 4 109 -15 109 26 110 56 109 -34 109 28 
110 -32 109 39 109 -8 110 37 109 1 109 14 110 2 109 8 
109 18 109 21 110 4 109 9 109 -3 110 20 109 1 109 3 
110 5 109 -1 109 9 110 9 109 -6 109 -4 109 -5 110 11 
109 11 109 -17 110 10 109 5 109 -7 110 1 109 7 109 2 
109 3 899 4181 50 MP stroke
gr

24 w
gs 825 4107 5505 1753 rc
  24   24  899 4181 PO
  24   24 1008 4184 PO
  24   24 1117 4186 PO
  24   24 1226 4193 PO
  24   24 1336 4194 PO
  24   24 1445 4187 PO
  24   24 1554 4192 PO
  24   24 1664 4202 PO
  24   24 1773 4185 PO
  24   24 1882 4196 PO
  24   24 1992 4207 PO
  24   24 2101 4202 PO
  24   24 2210 4198 PO
  24   24 2319 4192 PO
  24   24 2429 4201 PO
  24   24 2538 4210 PO
  24   24 2647 4209 PO
  24   24 2757 4214 PO
  24   24 2866 4217 PO
  24   24 2975 4218 PO
  24   24 3085 4238 PO
  24   24 3194 4235 PO
  24   24 3303 4244 PO
  24   24 3413 4248 PO
  24   24 3522 4269 PO
  24   24 3631 4287 PO
  24   24 3740 4295 PO
  24   24 3850 4297 PO
  24   24 3959 4311 PO
  24   24 4068 4312 PO
  24   24 4178 4349 PO
  24   24 4287 4341 PO
  24   24 4396 4380 PO
  24   24 4506 4348 PO
  24   24 4615 4376 PO
  24   24 4724 4342 PO
  24   24 4834 4398 PO
  24   24 4943 4424 PO
  24   24 5052 4409 PO
  24   24 5161 4413 PO
  24   24 5271 4314 PO
  24   24 5380 4405 PO
  24   24 5489 4447 PO
  24   24 5599 4315 PO
  24   24 5708 4459 PO
  24   24 5817 4462 PO
  24   24 5927 4863 PO
  24   24 6036 5000 PO
  24   24 6145 5490 PO
  24   24 6255 5785 PO
  24   24  899 4181 FO
  24   24 1008 4184 FO
  24   24 1117 4186 FO
  24   24 1226 4193 FO
  24   24 1336 4194 FO
  24   24 1445 4187 FO
  24   24 1554 4192 FO
  24   24 1664 4202 FO
  24   24 1773 4185 FO
  24   24 1882 4196 FO
  24   24 1992 4207 FO
  24   24 2101 4202 FO
  24   24 2210 4198 FO
  24   24 2319 4192 FO
  24   24 2429 4201 FO
  24   24 2538 4210 FO
  24   24 2647 4209 FO
  24   24 2757 4214 FO
  24   24 2866 4217 FO
  24   24 2975 4218 FO
  24   24 3085 4238 FO
  24   24 3194 4235 FO
  24   24 3303 4244 FO
  24   24 3413 4248 FO
  24   24 3522 4269 FO
  24   24 3631 4287 FO
  24   24 3740 4295 FO
  24   24 3850 4297 FO
  24   24 3959 4311 FO
  24   24 4068 4312 FO
  24   24 4178 4349 FO
  24   24 4287 4341 FO
  24   24 4396 4380 FO
  24   24 4506 4348 FO
  24   24 4615 4376 FO
  24   24 4724 4342 FO
  24   24 4834 4398 FO
  24   24 4943 4424 FO
  24   24 5052 4409 FO
  24   24 5161 4413 FO
  24   24 5271 4314 FO
  24   24 5380 4405 FO
  24   24 5489 4447 FO
  24   24 5599 4315 FO
  24   24 5708 4459 FO
  24   24 5817 4462 FO
  24   24 5927 4863 FO
  24   24 6036 5000 FO
  24   24 6145 5490 FO
  24   24 6255 5785 FO
gr

gs 899 3794 5357 2359 rc
gr

3409 6477 mt 
(F \(Hz\)) s
%%IncludeResource: font Symbol
/Symbol /ISOLatin1Encoding 120 FMSR

 438 5020 mt  -90 rotate
(F) s
90 rotate
6 w

end %%Color Dict

eplot
%%EndObject

epage
end

showpage

%%Trailer
%%EOF
