%!PS-Adobe-3.0 EPSF-3.0
%%Creator: MATLAB, The MathWorks, Inc. Version 7.14.0.739 (R2012a). Operating System: Linux 2.6.33.7.2-rt30-rt #1 SMP PREEMPT RT Tue Apr 17 15:22:21 CEST 2012 x86_64.
%%Title: ./modulation_phase_shift_ap_peak.eps
%%CreationDate: 10/02/2013  17:58:37
%%DocumentNeededFonts: Helvetica
%%DocumentProcessColors: Cyan Magenta Yellow Black
%%LanguageLevel: 2
%%Pages: 1
%%BoundingBox:    29    31   532   545
%%EndComments

%%BeginProlog
% MathWorks dictionary
/MathWorks 160 dict begin
% definition operators
/bdef {bind def} bind def
/ldef {load def} bind def
/xdef {exch def} bdef
/xstore {exch store} bdef
% operator abbreviations
/c  /clip ldef
/cc /concat ldef
/cp /closepath ldef
/gr /grestore ldef
/gs /gsave ldef
/mt /moveto ldef
/np /newpath ldef
/cm /currentmatrix ldef
/sm /setmatrix ldef
/rm /rmoveto ldef
/rl /rlineto ldef
/s {show newpath} bdef
/sc {setcmykcolor} bdef
/sr /setrgbcolor ldef
/sg /setgray ldef
/w /setlinewidth ldef
/j /setlinejoin ldef
/cap /setlinecap ldef
/rc {rectclip} bdef
/rf {rectfill} bdef
% page state control
/pgsv () def
/bpage {/pgsv save def} bdef
/epage {pgsv restore} bdef
/bplot /gsave ldef
/eplot {stroke grestore} bdef
% orientation switch
/portraitMode 0 def /landscapeMode 1 def /rotateMode 2 def
% coordinate system mappings
/dpi2point 0 def
% font control
/FontSize 0 def
/FMS {/FontSize xstore findfont [FontSize 0 0 FontSize neg 0 0]
  makefont setfont} bdef
/reencode {exch dup where {pop load} {pop StandardEncoding} ifelse
  exch dup 3 1 roll findfont dup length dict begin
  { 1 index /FID ne {def}{pop pop} ifelse } forall
  /Encoding exch def currentdict end definefont pop} bdef
/isroman {findfont /CharStrings get /Agrave known} bdef
/FMSR {3 1 roll 1 index dup isroman {reencode} {pop pop} ifelse
  exch FMS} bdef
/csm {1 dpi2point div -1 dpi2point div scale neg translate
 dup landscapeMode eq {pop -90 rotate}
  {rotateMode eq {90 rotate} if} ifelse} bdef
% line types: solid, dotted, dashed, dotdash
/SO { [] 0 setdash } bdef
/DO { [.5 dpi2point mul 4 dpi2point mul] 0 setdash } bdef
/DA { [6 dpi2point mul] 0 setdash } bdef
/DD { [.5 dpi2point mul 4 dpi2point mul 6 dpi2point mul 4
  dpi2point mul] 0 setdash } bdef
% macros for lines and objects
/L {lineto stroke} bdef
/MP {3 1 roll moveto 1 sub {rlineto} repeat} bdef
/AP {{rlineto} repeat} bdef
/PDlw -1 def
/W {/PDlw currentlinewidth def setlinewidth} def
/PP {closepath eofill} bdef
/DP {closepath stroke} bdef
/MR {4 -2 roll moveto dup  0 exch rlineto exch 0 rlineto
  neg 0 exch rlineto closepath} bdef
/FR {MR stroke} bdef
/PR {MR fill} bdef
/L1i {{currentfile picstr readhexstring pop} image} bdef
/tMatrix matrix def
/MakeOval {newpath tMatrix currentmatrix pop translate scale
0 0 1 0 360 arc tMatrix setmatrix} bdef
/FO {MakeOval stroke} bdef
/PO {MakeOval fill} bdef
/PD {currentlinewidth 2 div 0 360 arc fill
   PDlw -1 eq not {PDlw w /PDlw -1 def} if} def
/FA {newpath tMatrix currentmatrix pop translate scale
  0 0 1 5 -2 roll arc tMatrix setmatrix stroke} bdef
/PA {newpath tMatrix currentmatrix pop	translate 0 0 moveto scale
  0 0 1 5 -2 roll arc closepath tMatrix setmatrix fill} bdef
/FAn {newpath tMatrix currentmatrix pop translate scale
  0 0 1 5 -2 roll arcn tMatrix setmatrix stroke} bdef
/PAn {newpath tMatrix currentmatrix pop translate 0 0 moveto scale
  0 0 1 5 -2 roll arcn closepath tMatrix setmatrix fill} bdef
/vradius 0 def /hradius 0 def /lry 0 def
/lrx 0 def /uly 0 def /ulx 0 def /rad 0 def
/MRR {/vradius xdef /hradius xdef /lry xdef /lrx xdef /uly xdef
  /ulx xdef newpath tMatrix currentmatrix pop ulx hradius add uly
  vradius add translate hradius vradius scale 0 0 1 180 270 arc 
  tMatrix setmatrix lrx hradius sub uly vradius add translate
  hradius vradius scale 0 0 1 270 360 arc tMatrix setmatrix
  lrx hradius sub lry vradius sub translate hradius vradius scale
  0 0 1 0 90 arc tMatrix setmatrix ulx hradius add lry vradius sub
  translate hradius vradius scale 0 0 1 90 180 arc tMatrix setmatrix
  closepath} bdef
/FRR {MRR stroke } bdef
/PRR {MRR fill } bdef
/MlrRR {/lry xdef /lrx xdef /uly xdef /ulx xdef /rad lry uly sub 2 div def
  newpath tMatrix currentmatrix pop ulx rad add uly rad add translate
  rad rad scale 0 0 1 90 270 arc tMatrix setmatrix lrx rad sub lry rad
  sub translate rad rad scale 0 0 1 270 90 arc tMatrix setmatrix
  closepath} bdef
/FlrRR {MlrRR stroke } bdef
/PlrRR {MlrRR fill } bdef
/MtbRR {/lry xdef /lrx xdef /uly xdef /ulx xdef /rad lrx ulx sub 2 div def
  newpath tMatrix currentmatrix pop ulx rad add uly rad add translate
  rad rad scale 0 0 1 180 360 arc tMatrix setmatrix lrx rad sub lry rad
  sub translate rad rad scale 0 0 1 0 180 arc tMatrix setmatrix
  closepath} bdef
/FtbRR {MtbRR stroke } bdef
/PtbRR {MtbRR fill } bdef
/stri 6 array def /dtri 6 array def
/smat 6 array def /dmat 6 array def
/tmat1 6 array def /tmat2 6 array def /dif 3 array def
/asub {/ind2 exch def /ind1 exch def dup dup
  ind1 get exch ind2 get sub exch } bdef
/tri_to_matrix {
  2 0 asub 3 1 asub 4 0 asub 5 1 asub
  dup 0 get exch 1 get 7 -1 roll astore } bdef
/compute_transform {
  dmat dtri tri_to_matrix tmat1 invertmatrix 
  smat stri tri_to_matrix tmat2 concatmatrix } bdef
/ds {stri astore pop} bdef
/dt {dtri astore pop} bdef
/db {2 copy /cols xdef /rows xdef mul dup 3 mul string
  currentfile 
  3 index 0 eq {/ASCIIHexDecode filter}
  {/ASCII85Decode filter 3 index 2 eq {/RunLengthDecode filter} if }
  ifelse exch readstring pop
  dup 0 3 index getinterval /rbmap xdef
  dup 2 index dup getinterval /gbmap xdef
  1 index dup 2 mul exch getinterval /bbmap xdef pop pop}bdef
/it {gs np dtri aload pop moveto lineto lineto cp c
  cols rows 8 compute_transform 
  rbmap gbmap bbmap true 3 colorimage gr}bdef
/il {newpath moveto lineto stroke}bdef
currentdict end def
%%EndProlog

%%BeginSetup
MathWorks begin

0 cap

end
%%EndSetup

%%Page: 1 1
%%BeginPageSetup
%%PageBoundingBox:    29    31   532   545
MathWorks begin
bpage
%%EndPageSetup

%%BeginObject: obj1
bplot

/dpi2point 12 def
portraitMode 0000 6912 csm

  358   366  6035  6163 rc
85 dict begin %Colortable dictionary
/c0 { 0.000000 0.000000 0.000000 sr} bdef
/c1 { 1.000000 1.000000 1.000000 sr} bdef
/c2 { 0.900000 0.000000 0.000000 sr} bdef
/c3 { 0.000000 0.820000 0.000000 sr} bdef
/c4 { 0.000000 0.000000 0.800000 sr} bdef
/c5 { 0.910000 0.820000 0.320000 sr} bdef
/c6 { 1.000000 0.260000 0.820000 sr} bdef
/c7 { 0.000000 0.820000 0.820000 sr} bdef
c0
1 j
1 sg
   0    0 6913 6913 rf
6 w
0 2359 5356 0 0 -2359 899 2877 4 MP
PP
-5356 0 0 2359 5356 0 0 -2359 899 2877 5 MP stroke
4 w
DO
SO
6 w
0 sg
 899 2877 mt 6255 2877 L
 899  518 mt 6255  518 L
 899 2877 mt  899  518 L
6255 2877 mt 6255  518 L
 899 2877 mt 6255 2877 L
 899 2877 mt  899  518 L
 899 2877 mt  899 2850 L
 899  518 mt  899  544 L
 899 2877 mt  899 2823 L
 899  518 mt  899  571 L
%%IncludeResource: font Helvetica
/Helvetica /ISOLatin1Encoding 120 FMSR

 811 3059 mt 
(10) s
%%IncludeResource: font Helvetica
/Helvetica /ISOLatin1Encoding 80 FMSR

 944 2985 mt 
(0) s
1436 2877 mt 1436 2850 L
1436  518 mt 1436  544 L
1750 2877 mt 1750 2850 L
1750  518 mt 1750  544 L
1973 2877 mt 1973 2850 L
1973  518 mt 1973  544 L
2146 2877 mt 2146 2850 L
2146  518 mt 2146  544 L
2288 2877 mt 2288 2850 L
2288  518 mt 2288  544 L
2407 2877 mt 2407 2850 L
2407  518 mt 2407  544 L
2511 2877 mt 2511 2850 L
2511  518 mt 2511  544 L
2602 2877 mt 2602 2850 L
2602  518 mt 2602  544 L
2684 2877 mt 2684 2850 L
2684  518 mt 2684  544 L
2684 2877 mt 2684 2823 L
2684  518 mt 2684  571 L
%%IncludeResource: font Helvetica
/Helvetica /ISOLatin1Encoding 120 FMSR

2596 3059 mt 
(10) s
%%IncludeResource: font Helvetica
/Helvetica /ISOLatin1Encoding 80 FMSR

2729 2985 mt 
(1) s
3221 2877 mt 3221 2850 L
3221  518 mt 3221  544 L
3536 2877 mt 3536 2850 L
3536  518 mt 3536  544 L
3759 2877 mt 3759 2850 L
3759  518 mt 3759  544 L
3932 2877 mt 3932 2850 L
3932  518 mt 3932  544 L
4073 2877 mt 4073 2850 L
4073  518 mt 4073  544 L
4193 2877 mt 4193 2850 L
4193  518 mt 4193  544 L
4296 2877 mt 4296 2850 L
4296  518 mt 4296  544 L
4387 2877 mt 4387 2850 L
4387  518 mt 4387  544 L
4469 2877 mt 4469 2850 L
4469  518 mt 4469  544 L
4469 2877 mt 4469 2823 L
4469  518 mt 4469  571 L
%%IncludeResource: font Helvetica
/Helvetica /ISOLatin1Encoding 120 FMSR

4381 3059 mt 
(10) s
%%IncludeResource: font Helvetica
/Helvetica /ISOLatin1Encoding 80 FMSR

4514 2985 mt 
(2) s
5007 2877 mt 5007 2850 L
5007  518 mt 5007  544 L
5321 2877 mt 5321 2850 L
5321  518 mt 5321  544 L
5544 2877 mt 5544 2850 L
5544  518 mt 5544  544 L
5717 2877 mt 5717 2850 L
5717  518 mt 5717  544 L
5858 2877 mt 5858 2850 L
5858  518 mt 5858  544 L
5978 2877 mt 5978 2850 L
5978  518 mt 5978  544 L
6081 2877 mt 6081 2850 L
6081  518 mt 6081  544 L
6173 2877 mt 6173 2850 L
6173  518 mt 6173  544 L
6255 2877 mt 6255 2850 L
6255  518 mt 6255  544 L
6255 2877 mt 6255 2823 L
6255  518 mt 6255  571 L
%%IncludeResource: font Helvetica
/Helvetica /ISOLatin1Encoding 120 FMSR

6167 3059 mt 
(10) s
%%IncludeResource: font Helvetica
/Helvetica /ISOLatin1Encoding 80 FMSR

6300 2985 mt 
(3) s
 899 2877 mt  925 2877 L
6255 2877 mt 6228 2877 L
 899 2877 mt  952 2877 L
6255 2877 mt 6201 2877 L
%%IncludeResource: font Helvetica
/Helvetica /ISOLatin1Encoding 120 FMSR

 640 2921 mt 
(10) s
%%IncludeResource: font Helvetica
/Helvetica /ISOLatin1Encoding 80 FMSR

 773 2847 mt 
(-2) s
 899 2521 mt  925 2521 L
6255 2521 mt 6228 2521 L
 899 2314 mt  925 2314 L
6255 2314 mt 6228 2314 L
 899 2166 mt  925 2166 L
6255 2166 mt 6228 2166 L
 899 2052 mt  925 2052 L
6255 2052 mt 6228 2052 L
 899 1959 mt  925 1959 L
6255 1959 mt 6228 1959 L
 899 1880 mt  925 1880 L
6255 1880 mt 6228 1880 L
 899 1811 mt  925 1811 L
6255 1811 mt 6228 1811 L
 899 1751 mt  925 1751 L
6255 1751 mt 6228 1751 L
 899 1697 mt  925 1697 L
6255 1697 mt 6228 1697 L
 899 1697 mt  952 1697 L
6255 1697 mt 6201 1697 L
%%IncludeResource: font Helvetica
/Helvetica /ISOLatin1Encoding 120 FMSR

 640 1741 mt 
(10) s
%%IncludeResource: font Helvetica
/Helvetica /ISOLatin1Encoding 80 FMSR

 773 1667 mt 
(-1) s
 899 1342 mt  925 1342 L
6255 1342 mt 6228 1342 L
 899 1134 mt  925 1134 L
6255 1134 mt 6228 1134 L
 899  987 mt  925  987 L
6255  987 mt 6228  987 L
 899  873 mt  925  873 L
6255  873 mt 6228  873 L
 899  779 mt  925  779 L
6255  779 mt 6228  779 L
 899  700 mt  925  700 L
6255  700 mt 6228  700 L
 899  632 mt  925  632 L
6255  632 mt 6228  632 L
 899  571 mt  925  571 L
6255  571 mt 6228  571 L
 899  518 mt  925  518 L
6255  518 mt 6228  518 L
 899  518 mt  952  518 L
6255  518 mt 6201  518 L
%%IncludeResource: font Helvetica
/Helvetica /ISOLatin1Encoding 120 FMSR

 640  562 mt 
(10) s
%%IncludeResource: font Helvetica
/Helvetica /ISOLatin1Encoding 80 FMSR

 773  488 mt 
(0) s
 899 2877 mt 6255 2877 L
 899  518 mt 6255  518 L
 899 2877 mt  899  518 L
6255 2877 mt 6255  518 L
gs 899 518 5357 2360 rc
24 w
110 368 109 138 109 -18 110 -460 109 39 109 664 110 -68 109 251 
109 -14 110 172 109 177 109 -151 109 233 110 15 109 -8 109 152 
110 94 109 68 109 70 110 -24 109 44 109 17 110 12 109 -6 
109 -22 109 17 110 57 109 -26 109 21 110 20 109 12 109 9 
110 20 109 -41 109 25 110 11 109 -5 109 -1 109 12 110 -8 
109 -13 109 -4 110 1 109 -3 109 7 110 -35 109 45 109 -45 
109 14 899 789 50 MP stroke
gr

24 w
gs 825 674 5505 2023 rc
  24   24  899  789 PO
  24   24 1008  803 PO
  24   24 1117  758 PO
  24   24 1226  803 PO
  24   24 1336  768 PO
  24   24 1445  775 PO
  24   24 1554  772 PO
  24   24 1664  773 PO
  24   24 1773  769 PO
  24   24 1882  756 PO
  24   24 1992  748 PO
  24   24 2101  760 PO
  24   24 2210  759 PO
  24   24 2319  754 PO
  24   24 2429  765 PO
  24   24 2538  790 PO
  24   24 2647  749 PO
  24   24 2757  769 PO
  24   24 2866  778 PO
  24   24 2975  790 PO
  24   24 3085  810 PO
  24   24 3194  831 PO
  24   24 3303  805 PO
  24   24 3413  862 PO
  24   24 3522  879 PO
  24   24 3631  857 PO
  24   24 3740  851 PO
  24   24 3850  863 PO
  24   24 3959  880 PO
  24   24 4068  924 PO
  24   24 4178  900 PO
  24   24 4287  970 PO
  24   24 4396 1038 PO
  24   24 4506 1132 PO
  24   24 4615 1284 PO
  24   24 4724 1276 PO
  24   24 4834 1291 PO
  24   24 4943 1524 PO
  24   24 5052 1373 PO
  24   24 5161 1550 PO
  24   24 5271 1722 PO
  24   24 5380 1708 PO
  24   24 5489 1959 PO
  24   24 5599 1891 PO
  24   24 5708 2555 PO
  24   24 5817 2594 PO
  24   24 5927 2134 PO
  24   24 6036 2116 PO
  24   24 6145 2254 PO
  24   24 6255 2622 PO
  24   24  899  789 FO
  24   24 1008  803 FO
  24   24 1117  758 FO
  24   24 1226  803 FO
  24   24 1336  768 FO
  24   24 1445  775 FO
  24   24 1554  772 FO
  24   24 1664  773 FO
  24   24 1773  769 FO
  24   24 1882  756 FO
  24   24 1992  748 FO
  24   24 2101  760 FO
  24   24 2210  759 FO
  24   24 2319  754 FO
  24   24 2429  765 FO
  24   24 2538  790 FO
  24   24 2647  749 FO
  24   24 2757  769 FO
  24   24 2866  778 FO
  24   24 2975  790 FO
  24   24 3085  810 FO
  24   24 3194  831 FO
  24   24 3303  805 FO
  24   24 3413  862 FO
  24   24 3522  879 FO
  24   24 3631  857 FO
  24   24 3740  851 FO
  24   24 3850  863 FO
  24   24 3959  880 FO
  24   24 4068  924 FO
  24   24 4178  900 FO
  24   24 4287  970 FO
  24   24 4396 1038 FO
  24   24 4506 1132 FO
  24   24 4615 1284 FO
  24   24 4724 1276 FO
  24   24 4834 1291 FO
  24   24 4943 1524 FO
  24   24 5052 1373 FO
  24   24 5161 1550 FO
  24   24 5271 1722 FO
  24   24 5380 1708 FO
  24   24 5489 1959 FO
  24   24 5599 1891 FO
  24   24 5708 2555 FO
  24   24 5817 2594 FO
  24   24 5927 2134 FO
  24   24 6036 2116 FO
  24   24 6145 2254 FO
  24   24 6255 2622 FO
gr

gs 899 518 5357 2360 rc
gr

gs 825 2003 5505 533 rc
  24   24  899 2094 PO
  24   24 1008 2136 PO
  24   24 1117 2155 PO
  24   24 1226 2204 PO
  24   24 1336 2213 PO
  24   24 1445 2077 PO
  24   24 1554 2116 PO
  24   24 1664 2086 PO
  24   24 1773 2210 PO
  24   24 1882 2200 PO
  24   24 1992 2213 PO
  24   24 2101 2181 PO
  24   24 2210 2090 PO
  24   24 2319 2225 PO
  24   24 2429 2224 PO
  24   24 2538 2242 PO
  24   24 2647 2294 PO
  24   24 2757 2296 PO
  24   24 2866 2398 PO
  24   24 2975 2350 PO
  24   24 3085 2377 PO
  24   24 3194 2461 PO
  24   24 3303 2420 PO
  24   24 3413 2434 PO
  24   24 3522 2415 PO
  24   24 3631 2333 PO
  24   24 3740 2337 PO
  24   24 3850 2390 PO
  24   24 3959 2297 PO
  24   24 4068 2253 PO
  24   24 4178 2250 PO
  24   24 4287 2244 PO
  24   24 4396 2273 PO
  24   24 4506 2312 PO
  24   24 4615 2307 PO
  24   24 4724 2313 PO
  24   24 4834 2248 PO
  24   24 4943 2256 PO
  24   24 5052 2303 PO
  24   24 5161 2334 PO
  24   24 5271 2311 PO
  24   24 5380 2303 PO
  24   24 5489 2372 PO
  24   24 5599 2280 PO
  24   24 5708 2289 PO
  24   24 5817 2345 PO
  24   24 5927 2277 PO
  24   24 6036 2269 PO
  24   24 6145 2255 PO
  24   24 6255 2315 PO
/c8 { 0.000000 0.000000 1.000000 sr} bdef
c8
  24   24  899 2094 FO
  24   24 1008 2136 FO
  24   24 1117 2155 FO
  24   24 1226 2204 FO
  24   24 1336 2213 FO
  24   24 1445 2077 FO
  24   24 1554 2116 FO
  24   24 1664 2086 FO
  24   24 1773 2210 FO
  24   24 1882 2200 FO
  24   24 1992 2213 FO
  24   24 2101 2181 FO
  24   24 2210 2090 FO
  24   24 2319 2225 FO
  24   24 2429 2224 FO
  24   24 2538 2242 FO
  24   24 2647 2294 FO
  24   24 2757 2296 FO
  24   24 2866 2398 FO
  24   24 2975 2350 FO
  24   24 3085 2377 FO
  24   24 3194 2461 FO
  24   24 3303 2420 FO
  24   24 3413 2434 FO
  24   24 3522 2415 FO
  24   24 3631 2333 FO
  24   24 3740 2337 FO
  24   24 3850 2390 FO
  24   24 3959 2297 FO
  24   24 4068 2253 FO
  24   24 4178 2250 FO
  24   24 4287 2244 FO
  24   24 4396 2273 FO
  24   24 4506 2312 FO
  24   24 4615 2307 FO
  24   24 4724 2313 FO
  24   24 4834 2248 FO
  24   24 4943 2256 FO
  24   24 5052 2303 FO
  24   24 5161 2334 FO
  24   24 5271 2311 FO
  24   24 5380 2303 FO
  24   24 5489 2372 FO
  24   24 5599 2280 FO
  24   24 5708 2289 FO
  24   24 5817 2345 FO
  24   24 5927 2277 FO
  24   24 6036 2269 FO
  24   24 6145 2255 FO
  24   24 6255 2315 FO
gr

c8
gs 899 518 5357 2360 rc
gr

0 sg
%%IncludeResource: font Helvetica
/Helvetica /ISOLatin1Encoding 120 FMSR

 504 1807 mt  -90 rotate
(r) s
90 rotate
%%IncludeResource: font Helvetica
/Helvetica /ISOLatin1Encoding 96 FMSR

 564 1768 mt  -90 rotate
(1) s
90 rotate
%%IncludeResource: font Helvetica
/Helvetica /ISOLatin1Encoding 120 FMSR

 504 1715 mt  -90 rotate
(/r) s
90 rotate
%%IncludeResource: font Helvetica
/Helvetica /ISOLatin1Encoding 96 FMSR

 564 1642 mt  -90 rotate
(0) s
90 rotate
%%IncludeResource: font Helvetica
/Helvetica /ISOLatin1Encoding 120 FMSR

 882 2920 mt 
( ) s
6239  560 mt 
( ) s
6 w
1 sg
0 334 1577 0 0 -334 959 2818 4 MP
PP
-1577 0 0 334 1577 0 0 -334 959 2818 5 MP stroke
4 w
DO
SO
6 w
0 sg
 959 2818 mt 2536 2818 L
 959 2484 mt 2536 2484 L
 959 2818 mt  959 2484 L
2536 2818 mt 2536 2484 L
 959 2818 mt 2536 2818 L
 959 2818 mt  959 2484 L
 959 2818 mt 2536 2818 L
 959 2484 mt 2536 2484 L
 959 2818 mt  959 2484 L
2536 2818 mt 2536 2484 L
1427 2618 mt 
(Real spike times) s
gs 959 2484 1578 335 rc
24 w
360 0 1030 2575 2 MP stroke
gs 1136 2501 149 149 rc
  24   24 1210 2575 PO
  24   24 1210 2575 FO
gr

gr

24 w
1427 2769 mt 
(Shuffled spike times) s
gs 959 2484 1578 335 rc
gs 1136 2652 149 149 rc
  24   24 1210 2726 PO
c8
  24   24 1210 2726 FO
gr

c8
6 w
gr

6 w
c8
1 sg
0 2358 5356 0 0 -2358 899 6152 4 MP
PP
-5356 0 0 2358 5356 0 0 -2358 899 6152 5 MP stroke
4 w
DO
SO
6 w
0 sg
 899 6152 mt 6255 6152 L
 899 3794 mt 6255 3794 L
 899 6152 mt  899 3794 L
6255 6152 mt 6255 3794 L
 899 6152 mt 6255 6152 L
 899 6152 mt  899 3794 L
 899 6152 mt  899 6125 L
 899 3794 mt  899 3820 L
 899 6152 mt  899 6098 L
 899 3794 mt  899 3847 L
 811 6334 mt 
(10) s
%%IncludeResource: font Helvetica
/Helvetica /ISOLatin1Encoding 80 FMSR

 944 6260 mt 
(0) s
1436 6152 mt 1436 6125 L
1436 3794 mt 1436 3820 L
1750 6152 mt 1750 6125 L
1750 3794 mt 1750 3820 L
1973 6152 mt 1973 6125 L
1973 3794 mt 1973 3820 L
2146 6152 mt 2146 6125 L
2146 3794 mt 2146 3820 L
2288 6152 mt 2288 6125 L
2288 3794 mt 2288 3820 L
2407 6152 mt 2407 6125 L
2407 3794 mt 2407 3820 L
2511 6152 mt 2511 6125 L
2511 3794 mt 2511 3820 L
2602 6152 mt 2602 6125 L
2602 3794 mt 2602 3820 L
2684 6152 mt 2684 6125 L
2684 3794 mt 2684 3820 L
2684 6152 mt 2684 6098 L
2684 3794 mt 2684 3847 L
%%IncludeResource: font Helvetica
/Helvetica /ISOLatin1Encoding 120 FMSR

2596 6334 mt 
(10) s
%%IncludeResource: font Helvetica
/Helvetica /ISOLatin1Encoding 80 FMSR

2729 6260 mt 
(1) s
3221 6152 mt 3221 6125 L
3221 3794 mt 3221 3820 L
3536 6152 mt 3536 6125 L
3536 3794 mt 3536 3820 L
3759 6152 mt 3759 6125 L
3759 3794 mt 3759 3820 L
3932 6152 mt 3932 6125 L
3932 3794 mt 3932 3820 L
4073 6152 mt 4073 6125 L
4073 3794 mt 4073 3820 L
4193 6152 mt 4193 6125 L
4193 3794 mt 4193 3820 L
4296 6152 mt 4296 6125 L
4296 3794 mt 4296 3820 L
4387 6152 mt 4387 6125 L
4387 3794 mt 4387 3820 L
4469 6152 mt 4469 6125 L
4469 3794 mt 4469 3820 L
4469 6152 mt 4469 6098 L
4469 3794 mt 4469 3847 L
%%IncludeResource: font Helvetica
/Helvetica /ISOLatin1Encoding 120 FMSR

4381 6334 mt 
(10) s
%%IncludeResource: font Helvetica
/Helvetica /ISOLatin1Encoding 80 FMSR

4514 6260 mt 
(2) s
5007 6152 mt 5007 6125 L
5007 3794 mt 5007 3820 L
5321 6152 mt 5321 6125 L
5321 3794 mt 5321 3820 L
5544 6152 mt 5544 6125 L
5544 3794 mt 5544 3820 L
5717 6152 mt 5717 6125 L
5717 3794 mt 5717 3820 L
5858 6152 mt 5858 6125 L
5858 3794 mt 5858 3820 L
5978 6152 mt 5978 6125 L
5978 3794 mt 5978 3820 L
6081 6152 mt 6081 6125 L
6081 3794 mt 6081 3820 L
6173 6152 mt 6173 6125 L
6173 3794 mt 6173 3820 L
6255 6152 mt 6255 6125 L
6255 3794 mt 6255 3820 L
6255 6152 mt 6255 6098 L
6255 3794 mt 6255 3847 L
%%IncludeResource: font Helvetica
/Helvetica /ISOLatin1Encoding 120 FMSR

6167 6334 mt 
(10) s
%%IncludeResource: font Helvetica
/Helvetica /ISOLatin1Encoding 80 FMSR

6300 6260 mt 
(3) s
 899 6152 mt  952 6152 L
6255 6152 mt 6201 6152 L
%%IncludeResource: font Helvetica
/Helvetica /ISOLatin1Encoding 120 FMSR

 594 6196 mt 
(-120) s
 899 5815 mt  952 5815 L
6255 5815 mt 6201 5815 L
 594 5859 mt 
(-100) s
 899 5478 mt  952 5478 L
6255 5478 mt 6201 5478 L
 661 5522 mt 
(-80) s
 899 5141 mt  952 5141 L
6255 5141 mt 6201 5141 L
 661 5185 mt 
(-60) s
 899 4804 mt  952 4804 L
6255 4804 mt 6201 4804 L
 661 4848 mt 
(-40) s
 899 4467 mt  952 4467 L
6255 4467 mt 6201 4467 L
 661 4511 mt 
(-20) s
 899 4130 mt  952 4130 L
6255 4130 mt 6201 4130 L
 798 4174 mt 
(0) s
 899 3794 mt  952 3794 L
6255 3794 mt 6201 3794 L
 731 3838 mt 
(20) s
 899 6152 mt 6255 6152 L
 899 3794 mt 6255 3794 L
 899 6152 mt  899 3794 L
6255 6152 mt 6255 3794 L
gs 899 3794 5357 2359 rc
24 w
110 -1068 109 913 109 240 110 -1054 109 616 109 -541 110 21 109 538 
109 -170 110 -137 109 428 109 -356 109 45 110 155 109 -32 109 -91 
110 228 109 106 109 235 110 -31 109 228 109 100 110 44 109 63 
109 48 109 -26 110 46 109 17 109 6 110 47 109 -6 109 128 
110 -54 109 14 109 8 110 98 109 25 109 -23 109 42 110 -16 
109 76 109 23 110 -85 109 106 109 -39 110 -20 109 9 109 53 
109 107 899 3997 50 MP stroke
gr

24 w
gs 825 3923 5505 2281 rc
  24   24  899 3997 PO
  24   24 1008 4104 PO
  24   24 1117 4157 PO
  24   24 1226 4166 PO
  24   24 1336 4146 PO
  24   24 1445 4107 PO
  24   24 1554 4213 PO
  24   24 1664 4128 PO
  24   24 1773 4151 PO
  24   24 1882 4227 PO
  24   24 1992 4211 PO
  24   24 2101 4253 PO
  24   24 2210 4230 PO
  24   24 2319 4255 PO
  24   24 2429 4353 PO
  24   24 2538 4361 PO
  24   24 2647 4375 PO
  24   24 2757 4321 PO
  24   24 2866 4449 PO
  24   24 2975 4443 PO
  24   24 3085 4490 PO
  24   24 3194 4496 PO
  24   24 3303 4513 PO
  24   24 3413 4559 PO
  24   24 3522 4533 PO
  24   24 3631 4581 PO
  24   24 3740 4644 PO
  24   24 3850 4688 PO
  24   24 3959 4788 PO
  24   24 4068 5016 PO
  24   24 4178 4985 PO
  24   24 4287 5220 PO
  24   24 4396 5326 PO
  24   24 4506 5554 PO
  24   24 4615 5463 PO
  24   24 4724 5431 PO
  24   24 4834 5586 PO
  24   24 4943 5631 PO
  24   24 5052 5275 PO
  24   24 5161 5703 PO
  24   24 5271 5566 PO
  24   24 5380 5396 PO
  24   24 5489 5934 PO
  24   24 5599 5955 PO
  24   24 5708 5414 PO
  24   24 5817 6030 PO
  24   24 5927 4976 PO
  24   24 6036 5216 PO
  24   24 6145 6129 PO
  24   24 6255 5061 PO
  24   24  899 3997 FO
  24   24 1008 4104 FO
  24   24 1117 4157 FO
  24   24 1226 4166 FO
  24   24 1336 4146 FO
  24   24 1445 4107 FO
  24   24 1554 4213 FO
  24   24 1664 4128 FO
  24   24 1773 4151 FO
  24   24 1882 4227 FO
  24   24 1992 4211 FO
  24   24 2101 4253 FO
  24   24 2210 4230 FO
  24   24 2319 4255 FO
  24   24 2429 4353 FO
  24   24 2538 4361 FO
  24   24 2647 4375 FO
  24   24 2757 4321 FO
  24   24 2866 4449 FO
  24   24 2975 4443 FO
  24   24 3085 4490 FO
  24   24 3194 4496 FO
  24   24 3303 4513 FO
  24   24 3413 4559 FO
  24   24 3522 4533 FO
  24   24 3631 4581 FO
  24   24 3740 4644 FO
  24   24 3850 4688 FO
  24   24 3959 4788 FO
  24   24 4068 5016 FO
  24   24 4178 4985 FO
  24   24 4287 5220 FO
  24   24 4396 5326 FO
  24   24 4506 5554 FO
  24   24 4615 5463 FO
  24   24 4724 5431 FO
  24   24 4834 5586 FO
  24   24 4943 5631 FO
  24   24 5052 5275 FO
  24   24 5161 5703 FO
  24   24 5271 5566 FO
  24   24 5380 5396 FO
  24   24 5489 5934 FO
  24   24 5599 5955 FO
  24   24 5708 5414 FO
  24   24 5817 6030 FO
  24   24 5927 4976 FO
  24   24 6036 5216 FO
  24   24 6145 6129 FO
  24   24 6255 5061 FO
gr

gs 899 3794 5357 2359 rc
gr

3409 6477 mt 
(F \(Hz\)) s
%%IncludeResource: font Symbol
/Symbol /ISOLatin1Encoding 120 FMSR

 504 5020 mt  -90 rotate
(F) s
90 rotate
6 w

end %%Color Dict

eplot
%%EndObject

epage
end

showpage

%%Trailer
%%EOF
