%!PS-Adobe-3.0 EPSF-3.0
%%Creator: MATLAB, The MathWorks, Inc. Version 7.14.0.739 (R2012a). Operating System: Linux 2.6.33.7.2-rt30-rt #1 SMP PREEMPT RT Tue Apr 17 15:22:21 CEST 2012 x86_64.
%%Title: ./fit_histograms.eps
%%CreationDate: 07/08/2015  15:31:44
%%DocumentNeededFonts: Helvetica
%%DocumentProcessColors: Cyan Magenta Yellow Black
%%LanguageLevel: 2
%%Pages: 1
%%BoundingBox:    93    16   807   422
%%EndComments

%%BeginProlog
% MathWorks dictionary
/MathWorks 160 dict begin
% definition operators
/bdef {bind def} bind def
/ldef {load def} bind def
/xdef {exch def} bdef
/xstore {exch store} bdef
% operator abbreviations
/c  /clip ldef
/cc /concat ldef
/cp /closepath ldef
/gr /grestore ldef
/gs /gsave ldef
/mt /moveto ldef
/np /newpath ldef
/cm /currentmatrix ldef
/sm /setmatrix ldef
/rm /rmoveto ldef
/rl /rlineto ldef
/s {show newpath} bdef
/sc {setcmykcolor} bdef
/sr /setrgbcolor ldef
/sg /setgray ldef
/w /setlinewidth ldef
/j /setlinejoin ldef
/cap /setlinecap ldef
/rc {rectclip} bdef
/rf {rectfill} bdef
% page state control
/pgsv () def
/bpage {/pgsv save def} bdef
/epage {pgsv restore} bdef
/bplot /gsave ldef
/eplot {stroke grestore} bdef
% orientation switch
/portraitMode 0 def /landscapeMode 1 def /rotateMode 2 def
% coordinate system mappings
/dpi2point 0 def
% font control
/FontSize 0 def
/FMS {/FontSize xstore findfont [FontSize 0 0 FontSize neg 0 0]
  makefont setfont} bdef
/reencode {exch dup where {pop load} {pop StandardEncoding} ifelse
  exch dup 3 1 roll findfont dup length dict begin
  { 1 index /FID ne {def}{pop pop} ifelse } forall
  /Encoding exch def currentdict end definefont pop} bdef
/isroman {findfont /CharStrings get /Agrave known} bdef
/FMSR {3 1 roll 1 index dup isroman {reencode} {pop pop} ifelse
  exch FMS} bdef
/csm {1 dpi2point div -1 dpi2point div scale neg translate
 dup landscapeMode eq {pop -90 rotate}
  {rotateMode eq {90 rotate} if} ifelse} bdef
% line types: solid, dotted, dashed, dotdash
/SO { [] 0 setdash } bdef
/DO { [.5 dpi2point mul 4 dpi2point mul] 0 setdash } bdef
/DA { [6 dpi2point mul] 0 setdash } bdef
/DD { [.5 dpi2point mul 4 dpi2point mul 6 dpi2point mul 4
  dpi2point mul] 0 setdash } bdef
% macros for lines and objects
/L {lineto stroke} bdef
/MP {3 1 roll moveto 1 sub {rlineto} repeat} bdef
/AP {{rlineto} repeat} bdef
/PDlw -1 def
/W {/PDlw currentlinewidth def setlinewidth} def
/PP {closepath eofill} bdef
/DP {closepath stroke} bdef
/MR {4 -2 roll moveto dup  0 exch rlineto exch 0 rlineto
  neg 0 exch rlineto closepath} bdef
/FR {MR stroke} bdef
/PR {MR fill} bdef
/L1i {{currentfile picstr readhexstring pop} image} bdef
/tMatrix matrix def
/MakeOval {newpath tMatrix currentmatrix pop translate scale
0 0 1 0 360 arc tMatrix setmatrix} bdef
/FO {MakeOval stroke} bdef
/PO {MakeOval fill} bdef
/PD {currentlinewidth 2 div 0 360 arc fill
   PDlw -1 eq not {PDlw w /PDlw -1 def} if} def
/FA {newpath tMatrix currentmatrix pop translate scale
  0 0 1 5 -2 roll arc tMatrix setmatrix stroke} bdef
/PA {newpath tMatrix currentmatrix pop	translate 0 0 moveto scale
  0 0 1 5 -2 roll arc closepath tMatrix setmatrix fill} bdef
/FAn {newpath tMatrix currentmatrix pop translate scale
  0 0 1 5 -2 roll arcn tMatrix setmatrix stroke} bdef
/PAn {newpath tMatrix currentmatrix pop translate 0 0 moveto scale
  0 0 1 5 -2 roll arcn closepath tMatrix setmatrix fill} bdef
/vradius 0 def /hradius 0 def /lry 0 def
/lrx 0 def /uly 0 def /ulx 0 def /rad 0 def
/MRR {/vradius xdef /hradius xdef /lry xdef /lrx xdef /uly xdef
  /ulx xdef newpath tMatrix currentmatrix pop ulx hradius add uly
  vradius add translate hradius vradius scale 0 0 1 180 270 arc 
  tMatrix setmatrix lrx hradius sub uly vradius add translate
  hradius vradius scale 0 0 1 270 360 arc tMatrix setmatrix
  lrx hradius sub lry vradius sub translate hradius vradius scale
  0 0 1 0 90 arc tMatrix setmatrix ulx hradius add lry vradius sub
  translate hradius vradius scale 0 0 1 90 180 arc tMatrix setmatrix
  closepath} bdef
/FRR {MRR stroke } bdef
/PRR {MRR fill } bdef
/MlrRR {/lry xdef /lrx xdef /uly xdef /ulx xdef /rad lry uly sub 2 div def
  newpath tMatrix currentmatrix pop ulx rad add uly rad add translate
  rad rad scale 0 0 1 90 270 arc tMatrix setmatrix lrx rad sub lry rad
  sub translate rad rad scale 0 0 1 270 90 arc tMatrix setmatrix
  closepath} bdef
/FlrRR {MlrRR stroke } bdef
/PlrRR {MlrRR fill } bdef
/MtbRR {/lry xdef /lrx xdef /uly xdef /ulx xdef /rad lrx ulx sub 2 div def
  newpath tMatrix currentmatrix pop ulx rad add uly rad add translate
  rad rad scale 0 0 1 180 360 arc tMatrix setmatrix lrx rad sub lry rad
  sub translate rad rad scale 0 0 1 0 180 arc tMatrix setmatrix
  closepath} bdef
/FtbRR {MtbRR stroke } bdef
/PtbRR {MtbRR fill } bdef
/stri 6 array def /dtri 6 array def
/smat 6 array def /dmat 6 array def
/tmat1 6 array def /tmat2 6 array def /dif 3 array def
/asub {/ind2 exch def /ind1 exch def dup dup
  ind1 get exch ind2 get sub exch } bdef
/tri_to_matrix {
  2 0 asub 3 1 asub 4 0 asub 5 1 asub
  dup 0 get exch 1 get 7 -1 roll astore } bdef
/compute_transform {
  dmat dtri tri_to_matrix tmat1 invertmatrix 
  smat stri tri_to_matrix tmat2 concatmatrix } bdef
/ds {stri astore pop} bdef
/dt {dtri astore pop} bdef
/db {2 copy /cols xdef /rows xdef mul dup 3 mul string
  currentfile 
  3 index 0 eq {/ASCIIHexDecode filter}
  {/ASCII85Decode filter 3 index 2 eq {/RunLengthDecode filter} if }
  ifelse exch readstring pop
  dup 0 3 index getinterval /rbmap xdef
  dup 2 index dup getinterval /gbmap xdef
  1 index dup 2 mul exch getinterval /bbmap xdef pop pop}bdef
/it {gs np dtri aload pop moveto lineto lineto cp c
  cols rows 8 compute_transform 
  rbmap gbmap bbmap true 3 colorimage gr}bdef
/il {newpath moveto lineto stroke}bdef
currentdict end def
%%EndProlog

%%BeginSetup
MathWorks begin

0 cap

end
%%EndSetup

%%Page: 1 1
%%BeginPageSetup
%%PageBoundingBox:    93    16   807   422
MathWorks begin
bpage
%%EndPageSetup

%%BeginObject: obj1
bplot

/dpi2point 12 def
portraitMode 0000 5184 csm

 1119   110  8568  4880 rc
88 dict begin %Colortable dictionary
/c0 { 0.000000 0.000000 0.000000 sr} bdef
/c1 { 1.000000 1.000000 1.000000 sr} bdef
/c2 { 0.900000 0.000000 0.000000 sr} bdef
/c3 { 0.000000 0.820000 0.000000 sr} bdef
/c4 { 0.000000 0.000000 0.800000 sr} bdef
/c5 { 0.910000 0.820000 0.320000 sr} bdef
/c6 { 1.000000 0.260000 0.820000 sr} bdef
/c7 { 0.000000 0.820000 0.820000 sr} bdef
c0
1 j
1 sg
   0    0 10369 5186 rf
6 w
0 1769 630 0 0 -1769 1505 2158 4 MP
PP
-630 0 0 1769 630 0 0 -1769 1505 2158 5 MP stroke
4 w
DO
SO
6 w
0 sg
1505 2158 mt 2135 2158 L
1505 2158 mt 1505  389 L
1505 2158 mt 1505 2140 L
%%IncludeResource: font Helvetica
/Helvetica /ISOLatin1Encoding 120 FMSR

1472 2303 mt 
(0) s
1820 2158 mt 1820 2140 L
1737 2303 mt 
(0.5) s
2135 2158 mt 2135 2140 L
2102 2303 mt 
(1) s
1505 2158 mt 1522 2158 L
1404 2202 mt 
(0) s
1505 1863 mt 1522 1863 L
1404 1907 mt 
(5) s
1505 1568 mt 1522 1568 L
1337 1612 mt 
(10) s
1505 1273 mt 1522 1273 L
1337 1317 mt 
(15) s
1505  978 mt 1522  978 L
1337 1022 mt 
(20) s
1505  683 mt 1522  683 L
1337  727 mt 
(25) s
1505  389 mt 1522  389 L
1337  433 mt 
(30) s
gs 1505 389 631 1770 rc
/c8 { 0.600000 0.600000 1.000000 sr} bdef
c8
0 1541 50 0 0 -1541 1511 2158 4 MP
PP
0 sg
-50 0 0 1541 50 0 0 -1541 1511 2158 5 MP stroke
c8
0 1709 50 0 0 -1709 1574 2158 4 MP
PP
0 sg
-50 0 0 1709 50 0 0 -1709 1574 2158 5 MP stroke
c8
0 1691 50 0 0 -1691 1637 2158 4 MP
PP
0 sg
-50 0 0 1691 50 0 0 -1691 1637 2158 5 MP stroke
c8
0 1667 50 0 0 -1667 1700 2158 4 MP
PP
0 sg
-50 0 0 1667 50 0 0 -1667 1700 2158 5 MP stroke
c8
0 1529 50 0 0 -1529 1763 2158 4 MP
PP
0 sg
-50 0 0 1529 50 0 0 -1529 1763 2158 5 MP stroke
c8
0 1463 50 0 0 -1463 1826 2158 4 MP
PP
0 sg
-50 0 0 1463 50 0 0 -1463 1826 2158 5 MP stroke
c8
0 1270 50 0 0 -1270 1889 2158 4 MP
PP
0 sg
-50 0 0 1270 50 0 0 -1270 1889 2158 5 MP stroke
c8
0 1276 50 0 0 -1276 1952 2158 4 MP
PP
0 sg
-50 0 0 1276 50 0 0 -1276 1952 2158 5 MP stroke
c8
0 1168 50 0 0 -1168 2015 2158 4 MP
PP
0 sg
-50 0 0 1168 50 0 0 -1168 2015 2158 5 MP stroke
c8
0 1348 50 0 0 -1348 2078 2158 4 MP
PP
0 sg
-50 0 0 1348 50 0 0 -1348 2078 2158 5 MP stroke
c8
0 0 50 0 0 0 2141 2158 4 MP
PP
0 sg
-50 0 0 0 50 0 0 0 2141 2158 5 MP stroke
DA
48 w
/c9 { 0.000000 1.000000 0.000000 sr} bdef
c9
631 0 1505 692 2 MP stroke
/c10 { 1.000000 0.000000 1.000000 sr} bdef
c10
7 -16 6 -16 7 -16 6 -15 6 -15 7 -16 6 -14 6 -14 
7 -14 6 -13 6 -13 7 -12 6 -11 7 -11 6 -9 6 -9 
7 -8 6 -7 6 -6 7 -6 6 -4 6 -3 7 -3 6 -1 
7 0 6 1 6 2 7 2 6 4 6 5 7 6 6 6 
6 8 7 8 6 9 7 11 6 10 6 12 7 12 6 13 
6 14 7 14 6 14 6 15 7 15 6 16 7 15 6 16 
6 16 7 16 6 16 6 16 7 16 6 15 6 16 7 14 
6 15 7 14 6 13 6 13 7 12 6 12 6 11 7 10 
6 9 6 9 7 7 6 7 7 6 6 4 6 4 7 3 
6 2 6 1 7 -1 6 -1 6 -2 7 -4 6 -4 7 -5 
6 -6 6 -7 7 -8 6 -9 6 -10 7 -10 6 -12 6 -12 
7 -12 6 -13 7 -14 6 -14 6 -15 7 -15 6 -15 6 -16 
7 -16 6 -16 6 -16 1505 692 100 MP stroke
SO
24 w
0 sg
7 -16 6 -16 7 -15 6 -15 6 -15 7 -15 6 -14 6 -13 
7 -13 6 -12 6 -11 7 -11 6 -10 7 -9 6 -9 6 -7 
7 -6 6 -6 6 -5 7 -3 6 -3 6 -1 7 -1 6 0 
7 2 6 2 6 4 7 4 6 5 6 7 7 7 6 8 
6 9 7 10 6 11 7 11 6 12 6 13 7 13 6 14 
6 14 7 15 6 15 6 15 7 16 6 16 7 16 6 16 
6 16 7 16 6 16 6 15 7 15 6 15 6 15 7 14 
6 14 7 13 6 12 6 12 7 11 6 11 6 9 7 9 
6 8 6 7 7 6 6 5 7 4 6 3 6 2 7 1 
6 0 6 0 7 -2 6 -3 6 -4 7 -5 6 -6 7 -7 
6 -8 6 -8 7 -10 6 -10 6 -11 7 -11 6 -13 6 -13 
7 -13 6 -14 7 -15 6 -15 6 -15 7 -16 6 -15 6 -16 
7 -16 6 -16 6 -16 1505 718 100 MP stroke
gr

24 w
1649 2446 mt 
(Phase) s
1255 1673 mt  -90 rotate
(Rate \(spikes/s\)) s
90 rotate
1305  294 mt 
(F = 0 \(2436 spikes\)) s
6 w
1 sg
0 1769 630 0 0 -1769 2540 2158 4 MP
PP
-630 0 0 1769 630 0 0 -1769 2540 2158 5 MP stroke
4 w
DO
SO
6 w
0 sg
2540 2158 mt 3170 2158 L
2540 2158 mt 2540  389 L
2540 2158 mt 2540 2140 L
2507 2303 mt 
(0) s
2855 2158 mt 2855 2140 L
2772 2303 mt 
(0.5) s
3170 2158 mt 3170 2140 L
3137 2303 mt 
(1) s
2540 2158 mt 2557 2158 L
2439 2202 mt 
(0) s
2540 1863 mt 2557 1863 L
2439 1907 mt 
(5) s
2540 1568 mt 2557 1568 L
2372 1612 mt 
(10) s
2540 1273 mt 2557 1273 L
2372 1317 mt 
(15) s
2540  978 mt 2557  978 L
2372 1022 mt 
(20) s
2540  683 mt 2557  683 L
2372  727 mt 
(25) s
2540  389 mt 2557  389 L
2372  433 mt 
(30) s
gs 2540 389 631 1770 rc
c8
0 1631 50 0 0 -1631 2546 2158 4 MP
PP
0 sg
-50 0 0 1631 50 0 0 -1631 2546 2158 5 MP stroke
c8
0 1667 50 0 0 -1667 2609 2158 4 MP
PP
0 sg
-50 0 0 1667 50 0 0 -1667 2609 2158 5 MP stroke
c8
0 1745 50 0 0 -1745 2672 2158 4 MP
PP
0 sg
-50 0 0 1745 50 0 0 -1745 2672 2158 5 MP stroke
c8
0 1673 50 0 0 -1673 2735 2158 4 MP
PP
0 sg
-50 0 0 1673 50 0 0 -1673 2735 2158 5 MP stroke
c8
0 1559 50 0 0 -1559 2798 2158 4 MP
PP
0 sg
-50 0 0 1559 50 0 0 -1559 2798 2158 5 MP stroke
c8
0 1408 50 0 0 -1408 2861 2158 4 MP
PP
0 sg
-50 0 0 1408 50 0 0 -1408 2861 2158 5 MP stroke
c8
0 1192 50 0 0 -1192 2924 2158 4 MP
PP
0 sg
-50 0 0 1192 50 0 0 -1192 2924 2158 5 MP stroke
c8
0 1180 50 0 0 -1180 2987 2158 4 MP
PP
0 sg
-50 0 0 1180 50 0 0 -1180 2987 2158 5 MP stroke
c8
0 1264 50 0 0 -1264 3050 2158 4 MP
PP
0 sg
-50 0 0 1264 50 0 0 -1264 3050 2158 5 MP stroke
c8
0 1348 50 0 0 -1348 3113 2158 4 MP
PP
0 sg
-50 0 0 1348 50 0 0 -1348 3113 2158 5 MP stroke
c8
0 0 50 0 0 0 3176 2158 4 MP
PP
0 sg
-50 0 0 0 50 0 0 0 3176 2158 5 MP stroke
DA
48 w
c9
631 0 2540 691 2 MP stroke
c10
7 -18 6 -18 7 -18 6 -17 6 -18 7 -16 6 -17 6 -16 
7 -15 6 -15 6 -14 7 -14 6 -12 7 -12 6 -11 6 -10 
7 -9 6 -8 6 -7 7 -6 6 -4 6 -4 7 -3 6 -1 
7 0 6 1 6 2 7 3 6 4 6 5 7 7 6 7 
6 9 7 9 6 10 7 12 6 12 6 13 7 14 6 14 
6 15 7 16 6 16 6 17 7 17 6 17 7 18 6 18 
6 18 7 18 6 18 6 18 7 17 6 18 6 17 7 16 
6 17 7 15 6 15 6 15 7 14 6 13 6 12 7 11 
6 11 6 9 7 9 6 7 7 6 6 6 6 4 7 3 
6 2 6 1 7 0 6 -2 6 -2 7 -4 6 -5 7 -6 
6 -7 6 -8 7 -9 6 -9 6 -11 7 -12 6 -13 6 -13 
7 -14 6 -15 7 -15 6 -16 6 -17 7 -17 6 -17 6 -18 
7 -17 6 -18 6 -18 2540 691 100 MP stroke
SO
24 w
0 sg
7 -18 6 -18 7 -18 6 -17 6 -18 7 -17 6 -17 6 -16 
7 -16 6 -15 6 -14 7 -14 6 -13 7 -12 6 -12 6 -10 
7 -10 6 -8 6 -8 7 -6 6 -6 6 -4 7 -3 6 -2 
7 -1 6 0 6 1 7 3 6 3 6 5 7 6 6 7 
6 8 7 9 6 10 7 10 6 12 6 13 7 13 6 14 
6 15 7 15 6 16 6 17 7 16 6 18 7 17 6 18 
6 18 7 18 6 18 6 18 7 17 6 18 6 17 7 17 
6 17 7 16 6 15 6 15 7 14 6 13 6 13 7 12 
6 11 6 10 7 9 6 8 7 7 6 6 6 5 7 4 
6 2 6 2 7 0 6 -1 6 -2 7 -3 6 -4 7 -5 
6 -7 6 -7 7 -8 6 -10 6 -10 7 -11 6 -13 6 -13 
7 -13 6 -15 7 -15 6 -15 6 -17 7 -16 6 -17 6 -18 
7 -17 6 -18 6 -18 2540 681 100 MP stroke
gr

24 w
2684 2446 mt 
(Phase) s
2290 1673 mt  -90 rotate
(Rate \(spikes/s\)) s
90 rotate
2340  294 mt 
(F = 0 \(2437 spikes\)) s
6 w
1 sg
0 1769 630 0 0 -1769 3576 2158 4 MP
PP
-630 0 0 1769 630 0 0 -1769 3576 2158 5 MP stroke
4 w
DO
SO
6 w
0 sg
3576 2158 mt 4206 2158 L
3576 2158 mt 3576  389 L
3576 2158 mt 3576 2140 L
3543 2303 mt 
(0) s
3891 2158 mt 3891 2140 L
3808 2303 mt 
(0.5) s
4206 2158 mt 4206 2140 L
4173 2303 mt 
(1) s
3576 2158 mt 3593 2158 L
3475 2202 mt 
(0) s
3576 1863 mt 3593 1863 L
3475 1907 mt 
(5) s
3576 1568 mt 3593 1568 L
3408 1612 mt 
(10) s
3576 1273 mt 3593 1273 L
3408 1317 mt 
(15) s
3576  978 mt 3593  978 L
3408 1022 mt 
(20) s
3576  683 mt 3593  683 L
3408  727 mt 
(25) s
3576  389 mt 3593  389 L
3408  433 mt 
(30) s
gs 3576 389 631 1770 rc
c8
0 1487 50 0 0 -1487 3582 2158 4 MP
PP
0 sg
-50 0 0 1487 50 0 0 -1487 3582 2158 5 MP stroke
c8
0 1661 50 0 0 -1661 3645 2158 4 MP
PP
0 sg
-50 0 0 1661 50 0 0 -1661 3645 2158 5 MP stroke
c8
0 1733 50 0 0 -1733 3708 2158 4 MP
PP
0 sg
-50 0 0 1733 50 0 0 -1733 3708 2158 5 MP stroke
c8
0 1655 50 0 0 -1655 3771 2158 4 MP
PP
0 sg
-50 0 0 1655 50 0 0 -1655 3771 2158 5 MP stroke
c8
0 1547 50 0 0 -1547 3834 2158 4 MP
PP
0 sg
-50 0 0 1547 50 0 0 -1547 3834 2158 5 MP stroke
c8
0 1360 50 0 0 -1360 3897 2158 4 MP
PP
0 sg
-50 0 0 1360 50 0 0 -1360 3897 2158 5 MP stroke
c8
0 1354 50 0 0 -1354 3960 2158 4 MP
PP
0 sg
-50 0 0 1354 50 0 0 -1354 3960 2158 5 MP stroke
c8
0 1222 50 0 0 -1222 4023 2158 4 MP
PP
0 sg
-50 0 0 1222 50 0 0 -1222 4023 2158 5 MP stroke
c8
0 1252 50 0 0 -1252 4086 2158 4 MP
PP
0 sg
-50 0 0 1252 50 0 0 -1252 4086 2158 5 MP stroke
c8
0 1402 50 0 0 -1402 4149 2158 4 MP
PP
0 sg
-50 0 0 1402 50 0 0 -1402 4149 2158 5 MP stroke
c8
0 0 50 0 0 0 4212 2158 4 MP
PP
0 sg
-50 0 0 0 50 0 0 0 4212 2158 5 MP stroke
DA
48 w
c9
631 0 3576 691 2 MP stroke
c10
7 -14 6 -15 7 -15 6 -14 6 -15 7 -14 6 -13 6 -14 
7 -12 6 -13 6 -11 7 -11 6 -11 7 -9 6 -9 6 -9 
7 -7 6 -7 6 -5 7 -5 6 -4 6 -3 7 -2 6 -2 
7 0 6 1 6 1 7 3 6 4 6 4 7 5 6 6 
6 7 7 8 6 9 7 9 6 10 6 11 7 12 6 12 
6 12 7 13 6 13 6 14 7 14 6 15 7 14 6 15 
6 15 7 15 6 15 6 14 7 15 6 14 6 15 7 13 
6 14 7 13 6 12 6 12 7 12 6 10 6 11 7 9 
6 9 6 7 7 7 6 7 7 5 6 4 6 4 7 2 
6 2 6 1 7 0 6 -2 6 -2 7 -3 6 -4 7 -5 
6 -5 6 -7 7 -7 6 -9 6 -9 7 -9 6 -11 6 -11 
7 -12 6 -12 7 -13 6 -13 6 -13 7 -14 6 -15 6 -14 
7 -15 6 -15 6 -15 3576 691 100 MP stroke
SO
24 w
0 sg
7 -15 6 -15 7 -14 6 -15 6 -14 7 -13 6 -13 6 -13 
7 -12 6 -12 6 -11 7 -11 6 -9 7 -9 6 -9 6 -7 
7 -7 6 -5 6 -5 7 -4 6 -3 6 -2 7 -2 6 0 
7 1 6 1 6 3 7 4 6 4 6 5 7 6 6 7 
6 8 7 9 6 9 7 10 6 11 6 11 7 12 6 13 
6 13 7 13 6 14 6 14 7 15 6 14 7 15 6 15 
6 15 7 15 6 14 6 15 7 14 6 14 6 14 7 14 
6 13 7 12 6 12 6 12 7 10 6 10 6 10 7 9 
6 7 6 7 7 7 6 5 7 4 6 4 6 2 7 2 
6 1 6 0 7 -2 6 -2 6 -3 7 -4 6 -5 7 -5 
6 -7 6 -7 7 -9 6 -9 6 -9 7 -11 6 -11 6 -12 
7 -12 6 -13 7 -13 6 -13 6 -14 7 -15 6 -14 6 -15 
7 -15 6 -14 6 -15 3576 705 100 MP stroke
gr

24 w
3720 2446 mt 
(Phase) s
3326 1673 mt  -90 rotate
(Rate \(spikes/s\)) s
90 rotate
3376  294 mt 
(F = 0 \(2438 spikes\)) s
6 w
1 sg
0 1769 630 0 0 -1769 4611 2158 4 MP
PP
-630 0 0 1769 630 0 0 -1769 4611 2158 5 MP stroke
4 w
DO
SO
6 w
0 sg
4611 2158 mt 5241 2158 L
4611 2158 mt 4611  389 L
4611 2158 mt 4611 2140 L
4578 2303 mt 
(0) s
4926 2158 mt 4926 2140 L
4843 2303 mt 
(0.5) s
5241 2158 mt 5241 2140 L
5208 2303 mt 
(1) s
4611 2158 mt 4628 2158 L
4510 2202 mt 
(0) s
4611 1863 mt 4628 1863 L
4510 1907 mt 
(5) s
4611 1568 mt 4628 1568 L
4443 1612 mt 
(10) s
4611 1273 mt 4628 1273 L
4443 1317 mt 
(15) s
4611  978 mt 4628  978 L
4443 1022 mt 
(20) s
4611  683 mt 4628  683 L
4443  727 mt 
(25) s
4611  389 mt 4628  389 L
4443  433 mt 
(30) s
gs 4611 389 631 1770 rc
c8
0 1523 50 0 0 -1523 4617 2158 4 MP
PP
0 sg
-50 0 0 1523 50 0 0 -1523 4617 2158 5 MP stroke
c8
0 1667 50 0 0 -1667 4680 2158 4 MP
PP
0 sg
-50 0 0 1667 50 0 0 -1667 4680 2158 5 MP stroke
c8
0 1727 50 0 0 -1727 4743 2158 4 MP
PP
0 sg
-50 0 0 1727 50 0 0 -1727 4743 2158 5 MP stroke
c8
0 1715 50 0 0 -1715 4806 2158 4 MP
PP
0 sg
-50 0 0 1715 50 0 0 -1715 4806 2158 5 MP stroke
c8
0 1577 50 0 0 -1577 4869 2158 4 MP
PP
0 sg
-50 0 0 1577 50 0 0 -1577 4869 2158 5 MP stroke
c8
0 1378 50 0 0 -1378 4932 2158 4 MP
PP
0 sg
-50 0 0 1378 50 0 0 -1378 4932 2158 5 MP stroke
c8
0 1228 50 0 0 -1228 4995 2158 4 MP
PP
0 sg
-50 0 0 1228 50 0 0 -1228 4995 2158 5 MP stroke
c8
0 1222 50 0 0 -1222 5058 2158 4 MP
PP
0 sg
-50 0 0 1222 50 0 0 -1222 5058 2158 5 MP stroke
c8
0 1264 50 0 0 -1264 5121 2158 4 MP
PP
0 sg
-50 0 0 1264 50 0 0 -1264 5121 2158 5 MP stroke
c8
0 1396 50 0 0 -1396 5184 2158 4 MP
PP
0 sg
-50 0 0 1396 50 0 0 -1396 5184 2158 5 MP stroke
c8
0 0 50 0 0 0 5247 2158 4 MP
PP
0 sg
-50 0 0 0 50 0 0 0 5247 2158 5 MP stroke
DA
48 w
c9
631 0 4611 688 2 MP stroke
c10
7 -17 6 -17 7 -16 6 -17 6 -16 7 -16 6 -15 6 -15 
7 -15 6 -13 6 -14 7 -12 6 -12 7 -11 6 -10 6 -10 
7 -8 6 -8 6 -6 7 -6 6 -4 6 -3 7 -3 6 -1 
7 0 6 0 6 2 7 3 6 4 6 5 7 6 6 7 
6 8 7 9 6 10 7 10 6 12 6 12 7 13 6 13 
6 15 7 14 6 15 6 16 7 16 6 16 7 17 6 17 
6 16 7 17 6 17 6 17 7 16 6 17 6 16 7 15 
6 15 7 15 6 14 6 14 7 13 6 12 6 11 7 11 
6 10 6 9 7 8 6 7 7 6 6 5 6 4 7 3 
6 1 6 1 7 0 6 -1 6 -3 7 -3 6 -5 7 -5 
6 -7 6 -7 7 -9 6 -9 6 -10 7 -11 6 -12 6 -13 
7 -13 6 -14 7 -14 6 -15 6 -16 7 -15 6 -16 6 -17 
7 -17 6 -16 6 -17 4611 688 100 MP stroke
SO
24 w
0 sg
7 -17 6 -17 7 -16 6 -17 6 -16 7 -15 6 -16 6 -14 
7 -15 6 -13 6 -13 7 -12 6 -12 7 -10 6 -10 6 -9 
7 -8 6 -7 6 -6 7 -5 6 -4 6 -3 7 -2 6 0 
7 0 6 1 6 2 7 4 6 4 6 6 7 6 6 8 
6 8 7 10 6 10 7 11 6 12 6 12 7 13 6 14 
6 15 7 15 6 15 6 16 7 16 6 16 7 17 6 17 
6 17 7 17 6 16 6 17 7 16 6 17 6 15 7 16 
6 15 7 14 6 14 6 13 7 13 6 12 6 11 7 10 
6 9 6 9 7 7 6 7 7 5 6 5 6 3 7 3 
6 1 6 0 7 -1 6 -1 6 -3 7 -4 6 -5 7 -6 
6 -7 6 -8 7 -9 6 -10 6 -10 7 -12 6 -12 6 -13 
7 -14 6 -14 7 -14 6 -16 6 -15 7 -16 6 -17 6 -16 
7 -17 6 -17 6 -16 4611 696 100 MP stroke
gr

24 w
4755 2446 mt 
(Phase) s
4361 1673 mt  -90 rotate
(Rate \(spikes/s\)) s
90 rotate
4411  294 mt 
(F = 1 \(2442 spikes\)) s
6 w
1 sg
0 1769 630 0 0 -1769 5647 2158 4 MP
PP
-630 0 0 1769 630 0 0 -1769 5647 2158 5 MP stroke
4 w
DO
SO
6 w
0 sg
5647 2158 mt 6277 2158 L
5647 2158 mt 5647  389 L
5647 2158 mt 5647 2140 L
5614 2303 mt 
(0) s
5962 2158 mt 5962 2140 L
5879 2303 mt 
(0.5) s
6277 2158 mt 6277 2140 L
6244 2303 mt 
(1) s
5647 2158 mt 5664 2158 L
5546 2202 mt 
(0) s
5647 1863 mt 5664 1863 L
5546 1907 mt 
(5) s
5647 1568 mt 5664 1568 L
5479 1612 mt 
(10) s
5647 1273 mt 5664 1273 L
5479 1317 mt 
(15) s
5647  978 mt 5664  978 L
5479 1022 mt 
(20) s
5647  683 mt 5664  683 L
5479  727 mt 
(25) s
5647  389 mt 5664  389 L
5479  433 mt 
(30) s
gs 5647 389 631 1770 rc
c8
0 1499 50 0 0 -1499 5653 2158 4 MP
PP
0 sg
-50 0 0 1499 50 0 0 -1499 5653 2158 5 MP stroke
c8
0 1739 50 0 0 -1739 5716 2158 4 MP
PP
0 sg
-50 0 0 1739 50 0 0 -1739 5716 2158 5 MP stroke
c8
0 1763 50 0 0 -1763 5779 2158 4 MP
PP
0 sg
-50 0 0 1763 50 0 0 -1763 5779 2158 5 MP stroke
c8
0 1577 50 0 0 -1577 5842 2158 4 MP
PP
0 sg
-50 0 0 1577 50 0 0 -1577 5842 2158 5 MP stroke
c8
0 1553 50 0 0 -1553 5905 2158 4 MP
PP
0 sg
-50 0 0 1553 50 0 0 -1553 5905 2158 5 MP stroke
c8
0 1312 50 0 0 -1312 5968 2158 4 MP
PP
0 sg
-50 0 0 1312 50 0 0 -1312 5968 2158 5 MP stroke
c8
0 1258 50 0 0 -1258 6031 2158 4 MP
PP
0 sg
-50 0 0 1258 50 0 0 -1258 6031 2158 5 MP stroke
c8
0 1354 50 0 0 -1354 6094 2158 4 MP
PP
0 sg
-50 0 0 1354 50 0 0 -1354 6094 2158 5 MP stroke
c8
0 1294 50 0 0 -1294 6157 2158 4 MP
PP
0 sg
-50 0 0 1294 50 0 0 -1294 6157 2158 5 MP stroke
c8
0 1330 50 0 0 -1330 6220 2158 4 MP
PP
0 sg
-50 0 0 1330 50 0 0 -1330 6220 2158 5 MP stroke
c8
0 0 50 0 0 0 6283 2158 4 MP
PP
0 sg
-50 0 0 0 50 0 0 0 6283 2158 5 MP stroke
DA
48 w
c9
631 0 5647 690 2 MP stroke
c10
7 -15 6 -14 7 -15 6 -14 6 -14 7 -14 6 -13 6 -13 
7 -13 6 -12 6 -12 7 -11 6 -10 7 -10 6 -8 6 -9 
7 -7 6 -6 6 -6 7 -5 6 -4 6 -3 7 -2 6 -1 
7 0 6 0 6 2 7 3 6 3 6 4 7 6 6 6 
6 7 7 7 6 9 7 9 6 10 6 11 7 11 6 12 
6 12 7 13 6 13 6 14 7 14 6 14 7 14 6 15 
6 15 7 14 6 15 6 15 7 14 6 14 6 14 7 14 
6 13 7 13 6 12 6 12 7 11 6 11 6 10 7 9 
6 9 6 7 7 7 6 6 7 6 6 4 6 3 7 3 
6 2 6 0 7 0 6 -1 6 -2 7 -3 6 -4 7 -5 
6 -6 6 -6 7 -7 6 -9 6 -8 7 -10 6 -10 6 -11 
7 -12 6 -12 7 -12 6 -14 6 -13 7 -14 6 -14 6 -14 
7 -15 6 -14 6 -15 5647 690 100 MP stroke
SO
24 w
0 sg
7 -15 6 -15 7 -14 6 -15 6 -14 7 -14 6 -14 6 -14 
7 -13 6 -13 6 -12 7 -11 6 -11 7 -11 6 -9 6 -9 
7 -9 6 -7 6 -7 7 -5 6 -5 6 -4 7 -3 6 -3 
7 -1 6 0 6 0 7 2 6 2 6 4 7 4 6 5 
6 6 7 7 6 7 7 9 6 9 6 10 7 10 6 12 
6 11 7 13 6 12 6 14 7 13 6 14 7 14 6 15 
6 14 7 15 6 15 6 14 7 15 6 14 6 14 7 14 
6 14 7 13 6 13 6 13 7 12 6 11 6 11 7 10 
6 9 6 9 7 7 6 8 7 6 6 5 6 5 7 3 
6 3 6 2 7 0 6 0 6 -1 7 -2 6 -3 7 -4 
6 -4 6 -6 7 -6 6 -7 6 -8 7 -9 6 -10 6 -10 
7 -11 6 -11 7 -12 6 -13 6 -13 7 -13 6 -14 6 -14 
7 -14 6 -15 6 -14 5647 673 100 MP stroke
gr

24 w
5791 2446 mt 
(Phase) s
5397 1673 mt  -90 rotate
(Rate \(spikes/s\)) s
90 rotate
5447  294 mt 
(F = 2 \(2439 spikes\)) s
6 w
1 sg
0 1769 630 0 0 -1769 6682 2158 4 MP
PP
-630 0 0 1769 630 0 0 -1769 6682 2158 5 MP stroke
4 w
DO
SO
6 w
0 sg
6682 2158 mt 7312 2158 L
6682 2158 mt 6682  389 L
6682 2158 mt 6682 2140 L
6649 2303 mt 
(0) s
6997 2158 mt 6997 2140 L
6914 2303 mt 
(0.5) s
7312 2158 mt 7312 2140 L
7279 2303 mt 
(1) s
6682 2158 mt 6699 2158 L
6581 2202 mt 
(0) s
6682 1863 mt 6699 1863 L
6581 1907 mt 
(5) s
6682 1568 mt 6699 1568 L
6514 1612 mt 
(10) s
6682 1273 mt 6699 1273 L
6514 1317 mt 
(15) s
6682  978 mt 6699  978 L
6514 1022 mt 
(20) s
6682  683 mt 6699  683 L
6514  727 mt 
(25) s
6682  389 mt 6699  389 L
6514  433 mt 
(30) s
gs 6682 389 631 1770 rc
c8
0 1547 50 0 0 -1547 6688 2158 4 MP
PP
0 sg
-50 0 0 1547 50 0 0 -1547 6688 2158 5 MP stroke
c8
0 1679 50 0 0 -1679 6751 2158 4 MP
PP
0 sg
-50 0 0 1679 50 0 0 -1679 6751 2158 5 MP stroke
c8
0 1715 50 0 0 -1715 6814 2158 4 MP
PP
0 sg
-50 0 0 1715 50 0 0 -1715 6814 2158 5 MP stroke
c8
0 1691 50 0 0 -1691 6877 2158 4 MP
PP
0 sg
-50 0 0 1691 50 0 0 -1691 6877 2158 5 MP stroke
c8
0 1402 50 0 0 -1402 6940 2158 4 MP
PP
0 sg
-50 0 0 1402 50 0 0 -1402 6940 2158 5 MP stroke
c8
0 1493 50 0 0 -1493 7003 2158 4 MP
PP
0 sg
-50 0 0 1493 50 0 0 -1493 7003 2158 5 MP stroke
c8
0 1294 50 0 0 -1294 7066 2158 4 MP
PP
0 sg
-50 0 0 1294 50 0 0 -1294 7066 2158 5 MP stroke
c8
0 1102 50 0 0 -1102 7129 2158 4 MP
PP
0 sg
-50 0 0 1102 50 0 0 -1102 7129 2158 5 MP stroke
c8
0 1366 50 0 0 -1366 7192 2158 4 MP
PP
0 sg
-50 0 0 1366 50 0 0 -1366 7192 2158 5 MP stroke
c8
0 1408 50 0 0 -1408 7255 2158 4 MP
PP
0 sg
-50 0 0 1408 50 0 0 -1408 7255 2158 5 MP stroke
c8
0 0 50 0 0 0 7318 2158 4 MP
PP
0 sg
-50 0 0 0 50 0 0 0 7318 2158 5 MP stroke
DA
48 w
c9
631 0 6682 688 2 MP stroke
c10
7 -15 6 -16 7 -15 6 -15 6 -14 7 -15 6 -14 6 -13 
7 -14 6 -12 6 -12 7 -12 6 -10 7 -10 6 -10 6 -8 
7 -8 6 -7 6 -6 7 -5 6 -4 6 -3 7 -2 6 -1 
7 0 6 0 6 2 7 3 6 3 6 5 7 5 6 7 
6 7 7 8 6 9 7 9 6 11 6 11 7 12 6 12 
6 13 7 13 6 14 6 14 7 15 6 15 7 15 6 15 
6 15 7 16 6 15 6 15 7 15 6 15 6 14 7 15 
6 13 7 14 6 13 6 12 7 12 6 11 6 10 7 10 
6 9 6 8 7 7 6 6 7 6 6 4 6 4 7 3 
6 1 6 1 7 0 6 -1 6 -2 7 -4 6 -4 7 -5 
6 -6 6 -6 7 -8 6 -9 6 -9 7 -10 6 -11 6 -11 
7 -12 6 -13 7 -13 6 -13 6 -14 7 -15 6 -15 6 -14 
7 -16 6 -15 6 -15 6682 688 100 MP stroke
SO
24 w
0 sg
7 -15 6 -15 7 -15 6 -16 6 -15 7 -14 6 -15 6 -14 
7 -14 6 -13 6 -13 7 -12 6 -11 7 -11 6 -10 6 -10 
7 -8 6 -8 6 -7 7 -6 6 -6 6 -4 7 -3 6 -3 
7 -1 6 0 6 0 7 2 6 2 6 3 7 5 6 5 
6 6 7 7 6 8 7 9 6 9 6 11 7 11 6 11 
6 12 7 13 6 13 6 14 7 14 6 15 7 15 6 15 
6 15 7 15 6 15 6 16 7 15 6 15 6 15 7 14 
6 15 7 14 6 13 6 13 7 12 6 12 6 12 7 10 
6 10 6 9 7 8 6 8 7 6 6 6 6 5 7 3 
6 3 6 2 7 1 6 0 6 -1 7 -2 6 -3 7 -4 
6 -5 6 -5 7 -7 6 -7 6 -9 7 -9 6 -10 6 -10 
7 -12 6 -11 7 -13 6 -13 6 -14 7 -13 6 -15 6 -14 
7 -15 6 -15 6 -16 6682 670 100 MP stroke
gr

24 w
6826 2446 mt 
(Phase) s
6432 1673 mt  -90 rotate
(Rate \(spikes/s\)) s
90 rotate
6482  294 mt 
(F = 5 \(2442 spikes\)) s
6 w
1 sg
0 1769 630 0 0 -1769 7718 2158 4 MP
PP
-630 0 0 1769 630 0 0 -1769 7718 2158 5 MP stroke
4 w
DO
SO
6 w
0 sg
7718 2158 mt 8348 2158 L
7718 2158 mt 7718  389 L
7718 2158 mt 7718 2140 L
7685 2303 mt 
(0) s
8033 2158 mt 8033 2140 L
7950 2303 mt 
(0.5) s
8348 2158 mt 8348 2140 L
8315 2303 mt 
(1) s
7718 2158 mt 7735 2158 L
7617 2202 mt 
(0) s
7718 1863 mt 7735 1863 L
7617 1907 mt 
(5) s
7718 1568 mt 7735 1568 L
7550 1612 mt 
(10) s
7718 1273 mt 7735 1273 L
7550 1317 mt 
(15) s
7718  978 mt 7735  978 L
7550 1022 mt 
(20) s
7718  683 mt 7735  683 L
7550  727 mt 
(25) s
7718  389 mt 7735  389 L
7550  433 mt 
(30) s
gs 7718 389 631 1770 rc
c8
0 1529 50 0 0 -1529 7724 2158 4 MP
PP
0 sg
-50 0 0 1529 50 0 0 -1529 7724 2158 5 MP stroke
c8
0 1721 50 0 0 -1721 7787 2158 4 MP
PP
0 sg
-50 0 0 1721 50 0 0 -1721 7787 2158 5 MP stroke
c8
0 1751 50 0 0 -1751 7850 2158 4 MP
PP
0 sg
-50 0 0 1751 50 0 0 -1751 7850 2158 5 MP stroke
c8
0 1697 50 0 0 -1697 7913 2158 4 MP
PP
0 sg
-50 0 0 1697 50 0 0 -1697 7913 2158 5 MP stroke
c8
0 1517 50 0 0 -1517 7976 2158 4 MP
PP
0 sg
-50 0 0 1517 50 0 0 -1517 7976 2158 5 MP stroke
c8
0 1282 50 0 0 -1282 8039 2158 4 MP
PP
0 sg
-50 0 0 1282 50 0 0 -1282 8039 2158 5 MP stroke
c8
0 1354 50 0 0 -1354 8102 2158 4 MP
PP
0 sg
-50 0 0 1354 50 0 0 -1354 8102 2158 5 MP stroke
c8
0 1150 50 0 0 -1150 8165 2158 4 MP
PP
0 sg
-50 0 0 1150 50 0 0 -1150 8165 2158 5 MP stroke
c8
0 1276 50 0 0 -1276 8228 2158 4 MP
PP
0 sg
-50 0 0 1276 50 0 0 -1276 8228 2158 5 MP stroke
c8
0 1390 50 0 0 -1390 8291 2158 4 MP
PP
0 sg
-50 0 0 1390 50 0 0 -1390 8291 2158 5 MP stroke
c8
0 0 50 0 0 0 8354 2158 4 MP
PP
0 sg
-50 0 0 0 50 0 0 0 8354 2158 5 MP stroke
DA
48 w
c9
631 0 7718 691 2 MP stroke
c10
7 -17 6 -18 7 -17 6 -16 6 -17 7 -16 6 -16 6 -15 
7 -15 6 -14 6 -14 7 -12 6 -13 7 -11 6 -10 6 -10 
7 -8 6 -8 6 -7 7 -5 6 -5 6 -3 7 -3 6 -1 
7 -1 6 1 6 2 7 3 6 4 6 5 7 6 6 8 
6 8 7 9 6 10 7 11 6 11 6 13 7 13 6 14 
6 14 7 15 6 16 6 16 7 16 6 17 7 17 6 17 
6 17 7 17 6 18 6 17 7 17 6 16 6 17 7 16 
6 15 7 15 6 15 6 14 7 13 6 12 6 12 7 11 
6 10 6 9 7 8 6 7 7 6 6 5 6 5 7 3 
6 1 6 1 7 0 6 -1 6 -3 7 -3 6 -5 7 -6 
6 -6 6 -8 7 -9 6 -9 6 -10 7 -12 6 -12 6 -13 
7 -13 6 -14 7 -15 6 -15 6 -16 7 -16 6 -17 6 -17 
7 -17 6 -17 6 -17 7718 691 100 MP stroke
SO
24 w
0 sg
7 -17 6 -17 7 -17 6 -17 6 -17 7 -17 6 -16 6 -15 
7 -16 6 -14 6 -15 7 -13 6 -13 7 -12 6 -11 6 -11 
7 -9 6 -9 6 -7 7 -7 6 -6 6 -4 7 -4 6 -2 
7 -1 6 -1 6 1 7 2 6 3 6 4 7 6 6 6 
6 7 7 8 6 9 7 10 6 11 6 12 7 12 6 14 
6 13 7 15 6 15 6 16 7 16 6 16 7 17 6 17 
6 17 7 17 6 17 6 17 7 17 6 17 6 17 7 16 
6 16 7 16 6 15 6 14 7 14 6 13 6 13 7 11 
6 11 6 10 7 9 6 8 7 7 6 7 6 5 7 4 
6 3 6 1 7 1 6 0 6 -1 7 -3 6 -4 7 -4 
6 -6 6 -7 7 -7 6 -9 6 -9 7 -11 6 -11 6 -12 
7 -13 6 -14 7 -14 6 -15 6 -15 7 -16 6 -16 6 -17 
7 -16 6 -17 6 -18 7718 675 100 MP stroke
gr

24 w
7862 2446 mt 
(Phase) s
7468 1673 mt  -90 rotate
(Rate \(spikes/s\)) s
90 rotate
7485  294 mt 
(F = 10 \(2437 spikes\)) s
6 w
1 sg
0 1769 630 0 0 -1769 8753 2158 4 MP
PP
-630 0 0 1769 630 0 0 -1769 8753 2158 5 MP stroke
4 w
DO
SO
6 w
0 sg
8753 2158 mt 9383 2158 L
8753 2158 mt 8753  389 L
8753 2158 mt 8753 2140 L
8720 2303 mt 
(0) s
9068 2158 mt 9068 2140 L
8985 2303 mt 
(0.5) s
9383 2158 mt 9383 2140 L
9350 2303 mt 
(1) s
8753 2158 mt 8770 2158 L
8652 2202 mt 
(0) s
8753 1715 mt 8770 1715 L
8585 1759 mt 
(10) s
8753 1273 mt 8770 1273 L
8585 1317 mt 
(20) s
8753  831 mt 8770  831 L
8585  875 mt 
(30) s
8753  389 mt 8770  389 L
8585  433 mt 
(40) s
gs 8753 389 631 1770 rc
c8
0 1038 50 0 0 -1038 8759 2158 4 MP
PP
0 sg
-50 0 0 1038 50 0 0 -1038 8759 2158 5 MP stroke
c8
0 1318 50 0 0 -1318 8822 2158 4 MP
PP
0 sg
-50 0 0 1318 50 0 0 -1318 8822 2158 5 MP stroke
c8
0 1508 50 0 0 -1508 8885 2158 4 MP
PP
0 sg
-50 0 0 1508 50 0 0 -1508 8885 2158 5 MP stroke
c8
0 1264 50 0 0 -1264 8948 2158 4 MP
PP
0 sg
-50 0 0 1264 50 0 0 -1264 8948 2158 5 MP stroke
c8
0 1142 50 0 0 -1142 9011 2158 4 MP
PP
0 sg
-50 0 0 1142 50 0 0 -1142 9011 2158 5 MP stroke
c8
0 1133 50 0 0 -1133 9074 2158 4 MP
PP
0 sg
-50 0 0 1133 50 0 0 -1133 9074 2158 5 MP stroke
c8
0 939 50 0 0 -939 9137 2158 4 MP
PP
0 sg
-50 0 0 939 50 0 0 -939 9137 2158 5 MP stroke
c8
0 858 50 0 0 -858 9200 2158 4 MP
PP
0 sg
-50 0 0 858 50 0 0 -858 9200 2158 5 MP stroke
c8
0 840 50 0 0 -840 9263 2158 4 MP
PP
0 sg
-50 0 0 840 50 0 0 -840 9263 2158 5 MP stroke
c8
0 939 50 0 0 -939 9326 2158 4 MP
PP
0 sg
-50 0 0 939 50 0 0 -939 9326 2158 5 MP stroke
c8
0 0 50 0 0 0 9389 2158 4 MP
PP
0 sg
-50 0 0 0 50 0 0 0 9389 2158 5 MP stroke
DA
48 w
c9
631 0 8753 1060 2 MP stroke
c10
7 -17 6 -18 7 -17 6 -17 6 -16 7 -17 6 -16 6 -15 
7 -15 6 -14 6 -14 7 -13 6 -12 7 -11 6 -11 6 -10 
7 -8 6 -8 6 -7 7 -5 6 -5 6 -4 7 -2 6 -1 
7 -1 6 1 6 2 7 3 6 4 6 5 7 7 6 7 
6 8 7 9 6 10 7 11 6 12 6 12 7 14 6 14 
6 14 7 16 6 15 6 16 7 17 6 17 7 17 6 17 
6 17 7 18 6 17 6 17 7 17 6 17 6 17 7 16 
6 15 7 16 6 14 6 14 7 14 6 12 6 12 7 11 
6 10 6 9 7 8 6 7 7 7 6 5 6 4 7 3 
6 2 6 1 7 -1 6 -1 6 -2 7 -4 6 -5 7 -5 
6 -7 6 -8 7 -8 6 -10 6 -11 7 -11 6 -12 6 -13 
7 -14 6 -14 7 -15 6 -15 6 -16 7 -17 6 -16 6 -17 
7 -17 6 -18 6 -17 8753 1060 100 MP stroke
SO
24 w
0 sg
7 -17 6 -16 7 -16 6 -16 6 -15 7 -15 6 -14 6 -13 
7 -12 6 -12 6 -11 7 -10 6 -9 7 -8 6 -7 6 -6 
7 -5 6 -4 6 -3 7 -2 6 -1 6 1 7 1 6 3 
7 3 6 5 6 6 7 7 6 8 6 8 7 10 6 11 
6 11 7 12 6 13 7 14 6 14 6 15 7 16 6 16 
6 16 7 17 6 17 6 17 7 17 6 18 7 17 6 17 
6 17 7 17 6 17 6 16 7 16 6 16 6 14 7 15 
6 13 7 13 6 12 6 12 7 10 6 9 6 9 7 8 
6 6 6 6 7 4 6 4 7 2 6 2 6 0 7 -1 
6 -2 6 -3 7 -5 6 -5 6 -6 7 -7 6 -9 7 -9 
6 -10 6 -11 7 -12 6 -13 6 -13 7 -14 6 -15 6 -15 
7 -16 6 -16 7 -17 6 -16 6 -17 7 -18 6 -17 6 -17 
7 -18 6 -17 6 -17 8753 1122 100 MP stroke
gr

24 w
8897 2446 mt 
(Phase) s
8503 1673 mt  -90 rotate
(Rate \(spikes/s\)) s
90 rotate
8520  294 mt 
(F = 20 \(2432 spikes\)) s
6 w
1 sg
0 1769 630 0 0 -1769 1505 4615 4 MP
PP
-630 0 0 1769 630 0 0 -1769 1505 4615 5 MP stroke
4 w
DO
SO
6 w
0 sg
1505 4615 mt 2135 4615 L
1505 4615 mt 1505 2846 L
1505 4615 mt 1505 4597 L
1472 4760 mt 
(0) s
1820 4615 mt 1820 4597 L
1737 4760 mt 
(0.5) s
2135 4615 mt 2135 4597 L
2102 4760 mt 
(1) s
1505 4615 mt 1522 4615 L
1404 4659 mt 
(0) s
1505 4172 mt 1522 4172 L
1337 4216 mt 
(10) s
1505 3730 mt 1522 3730 L
1337 3774 mt 
(20) s
1505 3288 mt 1522 3288 L
1337 3332 mt 
(30) s
1505 2846 mt 1522 2846 L
1337 2890 mt 
(40) s
gs 1505 2846 631 1770 rc
c8
0 867 50 0 0 -867 1511 4615 4 MP
PP
0 sg
-50 0 0 867 50 0 0 -867 1511 4615 5 MP stroke
c8
0 1120 50 0 0 -1120 1574 4615 4 MP
PP
0 sg
-50 0 0 1120 50 0 0 -1120 1574 4615 5 MP stroke
c8
0 1111 50 0 0 -1111 1637 4615 4 MP
PP
0 sg
-50 0 0 1111 50 0 0 -1111 1637 4615 5 MP stroke
c8
0 1138 50 0 0 -1138 1700 4615 4 MP
PP
0 sg
-50 0 0 1138 50 0 0 -1138 1700 4615 5 MP stroke
c8
0 1336 50 0 0 -1336 1763 4615 4 MP
PP
0 sg
-50 0 0 1336 50 0 0 -1336 1763 4615 5 MP stroke
c8
0 1305 50 0 0 -1305 1826 4615 4 MP
PP
0 sg
-50 0 0 1305 50 0 0 -1305 1826 4615 5 MP stroke
c8
0 1124 50 0 0 -1124 1889 4615 4 MP
PP
0 sg
-50 0 0 1124 50 0 0 -1124 1889 4615 5 MP stroke
c8
0 1124 50 0 0 -1124 1952 4615 4 MP
PP
0 sg
-50 0 0 1124 50 0 0 -1124 1952 4615 5 MP stroke
c8
0 939 50 0 0 -939 2015 4615 4 MP
PP
0 sg
-50 0 0 939 50 0 0 -939 2015 4615 5 MP stroke
c8
0 921 50 0 0 -921 2078 4615 4 MP
PP
0 sg
-50 0 0 921 50 0 0 -921 2078 4615 5 MP stroke
c8
0 0 50 0 0 0 2141 4615 4 MP
PP
0 sg
-50 0 0 0 50 0 0 0 2141 4615 5 MP stroke
DA
48 w
c9
631 0 1505 3517 2 MP stroke
c10
7 -11 6 -12 7 -12 6 -12 6 -11 7 -11 6 -11 6 -11 
7 -10 6 -10 6 -9 7 -9 6 -9 7 -8 6 -7 6 -6 
7 -6 6 -6 6 -4 7 -4 6 -3 6 -3 7 -1 6 -1 
7 -1 6 1 6 1 7 2 6 3 6 4 7 4 6 5 
6 6 7 6 6 7 7 7 6 8 6 9 7 9 6 10 
6 10 7 10 6 11 6 11 7 11 6 12 7 12 6 12 
6 11 7 12 6 12 6 12 7 12 6 11 6 12 7 11 
6 11 7 10 6 10 6 10 7 9 6 9 6 8 7 7 
6 7 6 6 7 6 6 5 7 4 6 4 6 3 7 2 
6 1 6 1 7 -1 6 -1 6 -1 7 -3 6 -3 7 -4 
6 -4 6 -6 7 -6 6 -6 6 -8 7 -7 6 -9 6 -9 
7 -9 6 -10 7 -10 6 -11 6 -11 7 -11 6 -11 6 -12 
7 -12 6 -12 6 -12 1505 3517 100 MP stroke
SO
24 w
0 sg
7 -1 6 -1 7 1 6 0 6 2 7 3 6 3 6 4 
7 4 6 5 6 6 7 7 6 7 7 8 6 8 6 9 
7 10 6 9 6 11 7 10 6 11 6 11 7 12 6 11 
7 12 6 12 6 12 7 12 6 12 6 12 7 11 6 12 
6 11 7 11 6 10 7 11 6 10 6 9 7 9 6 8 
6 8 7 7 6 7 6 6 7 5 6 5 7 4 6 3 
6 3 7 1 6 1 6 1 7 -1 6 -1 6 -2 7 -3 
6 -4 7 -4 6 -5 6 -5 7 -7 6 -7 6 -7 7 -8 
6 -9 6 -9 7 -9 6 -10 7 -11 6 -11 6 -11 7 -11 
6 -12 6 -11 7 -12 6 -12 6 -12 7 -12 6 -12 7 -11 
6 -12 6 -11 7 -11 6 -11 6 -11 7 -10 6 -9 6 -10 
7 -8 6 -8 7 -8 6 -7 6 -6 7 -6 6 -5 6 -4 
7 -4 6 -3 6 -2 1505 3703 100 MP stroke
gr

24 w
1649 4903 mt 
(Phase) s
1255 4130 mt  -90 rotate
(Rate \(spikes/s\)) s
90 rotate
1272 2751 mt 
(F = 50 \(2433 spikes\)) s
6 w
1 sg
0 1769 630 0 0 -1769 2540 4615 4 MP
PP
-630 0 0 1769 630 0 0 -1769 2540 4615 5 MP stroke
4 w
DO
SO
6 w
0 sg
2540 4615 mt 3170 4615 L
2540 4615 mt 2540 2846 L
2540 4615 mt 2540 4597 L
2507 4760 mt 
(0) s
2855 4615 mt 2855 4597 L
2772 4760 mt 
(0.5) s
3170 4615 mt 3170 4597 L
3137 4760 mt 
(1) s
2540 4615 mt 2557 4615 L
2439 4659 mt 
(0) s
2540 4320 mt 2557 4320 L
2439 4364 mt 
(5) s
2540 4025 mt 2557 4025 L
2372 4069 mt 
(10) s
2540 3730 mt 2557 3730 L
2372 3774 mt 
(15) s
2540 3435 mt 2557 3435 L
2372 3479 mt 
(20) s
2540 3140 mt 2557 3140 L
2372 3184 mt 
(25) s
2540 2846 mt 2557 2846 L
2372 2890 mt 
(30) s
gs 2540 2846 631 1770 rc
c8
0 1433 50 0 0 -1433 2546 4615 4 MP
PP
0 sg
-50 0 0 1433 50 0 0 -1433 2546 4615 5 MP stroke
c8
0 1324 50 0 0 -1324 2609 4615 4 MP
PP
0 sg
-50 0 0 1324 50 0 0 -1324 2609 4615 5 MP stroke
c8
0 1433 50 0 0 -1433 2672 4615 4 MP
PP
0 sg
-50 0 0 1433 50 0 0 -1433 2672 4615 5 MP stroke
c8
0 1643 50 0 0 -1643 2735 4615 4 MP
PP
0 sg
-50 0 0 1643 50 0 0 -1643 2735 4615 5 MP stroke
c8
0 1445 50 0 0 -1445 2798 4615 4 MP
PP
0 sg
-50 0 0 1445 50 0 0 -1445 2798 4615 5 MP stroke
c8
0 1619 50 0 0 -1619 2861 4615 4 MP
PP
0 sg
-50 0 0 1619 50 0 0 -1619 2861 4615 5 MP stroke
c8
0 1414 50 0 0 -1414 2924 4615 4 MP
PP
0 sg
-50 0 0 1414 50 0 0 -1414 2924 4615 5 MP stroke
c8
0 1499 50 0 0 -1499 2987 4615 4 MP
PP
0 sg
-50 0 0 1499 50 0 0 -1499 2987 4615 5 MP stroke
c8
0 1427 50 0 0 -1427 3050 4615 4 MP
PP
0 sg
-50 0 0 1427 50 0 0 -1427 3050 4615 5 MP stroke
c8
0 1414 50 0 0 -1414 3113 4615 4 MP
PP
0 sg
-50 0 0 1414 50 0 0 -1414 3113 4615 5 MP stroke
c8
0 0 50 0 0 0 3176 4615 4 MP
PP
0 sg
-50 0 0 0 50 0 0 0 3176 4615 5 MP stroke
DA
48 w
c9
631 0 2540 3150 2 MP stroke
c10
7 -5 6 -5 7 -5 6 -4 6 -5 7 -5 6 -4 6 -5 
7 -4 6 -4 6 -4 7 -3 6 -4 7 -3 6 -3 6 -3 
7 -2 6 -2 6 -2 7 -2 6 -1 6 -1 7 -1 6 0 
7 0 6 0 6 1 7 0 6 2 6 1 7 2 6 2 
6 2 7 3 6 3 7 3 6 3 6 3 7 4 6 4 
6 4 7 5 6 4 6 5 7 4 6 5 7 5 6 5 
6 5 7 4 6 5 6 5 7 5 6 5 6 4 7 5 
6 4 7 5 6 4 6 4 7 4 6 3 6 3 7 4 
6 2 6 3 7 2 6 2 7 2 6 2 6 1 7 1 
6 0 6 0 7 0 6 0 6 -1 7 -1 6 -1 7 -2 
6 -2 6 -2 7 -2 6 -3 6 -3 7 -3 6 -4 6 -3 
7 -4 6 -4 7 -4 6 -5 6 -4 7 -5 6 -5 6 -4 
7 -5 6 -5 6 -5 2540 3150 100 MP stroke
SO
24 w
0 sg
7 0 6 1 7 1 6 1 6 1 7 2 6 2 6 3 
7 2 6 3 6 3 7 4 6 3 7 4 6 4 6 4 
7 5 6 4 6 5 7 4 6 5 6 5 7 5 6 5 
7 5 6 5 6 4 7 5 6 5 6 5 7 4 6 5 
6 4 7 4 6 4 7 4 6 3 6 3 7 3 6 3 
6 3 7 2 6 2 6 1 7 2 6 1 7 1 6 0 
6 0 7 0 6 0 6 -1 7 -1 6 -2 6 -1 7 -2 
6 -2 7 -3 6 -3 6 -3 7 -3 6 -4 6 -3 7 -4 
6 -4 6 -4 7 -5 6 -4 7 -5 6 -5 6 -5 7 -4 
6 -5 6 -5 7 -5 6 -5 6 -5 7 -5 6 -4 7 -5 
6 -4 6 -5 7 -4 6 -4 6 -4 7 -3 6 -4 6 -3 
7 -3 6 -2 7 -3 6 -2 6 -2 7 -1 6 -1 6 -1 
7 -1 6 0 6 0 2540 3227 100 MP stroke
gr

24 w
2684 4903 mt 
(Phase) s
2290 4130 mt  -90 rotate
(Rate \(spikes/s\)) s
90 rotate
2273 2751 mt 
(F = 100 \(2434 spikes\)) s
6 w
1 sg
0 1769 630 0 0 -1769 3576 4615 4 MP
PP
-630 0 0 1769 630 0 0 -1769 3576 4615 5 MP stroke
4 w
DO
SO
6 w
0 sg
3576 4615 mt 4206 4615 L
3576 4615 mt 3576 2846 L
3576 4615 mt 3576 4597 L
3543 4760 mt 
(0) s
3891 4615 mt 3891 4597 L
3808 4760 mt 
(0.5) s
4206 4615 mt 4206 4597 L
4173 4760 mt 
(1) s
3576 4615 mt 3593 4615 L
3475 4659 mt 
(0) s
3576 4320 mt 3593 4320 L
3475 4364 mt 
(5) s
3576 4025 mt 3593 4025 L
3408 4069 mt 
(10) s
3576 3730 mt 3593 3730 L
3408 3774 mt 
(15) s
3576 3435 mt 3593 3435 L
3408 3479 mt 
(20) s
3576 3140 mt 3593 3140 L
3408 3184 mt 
(25) s
3576 2846 mt 3593 2846 L
3408 2890 mt 
(30) s
gs 3576 2846 631 1770 rc
c8
0 1523 50 0 0 -1523 3582 4615 4 MP
PP
0 sg
-50 0 0 1523 50 0 0 -1523 3582 4615 5 MP stroke
c8
0 1396 50 0 0 -1396 3645 4615 4 MP
PP
0 sg
-50 0 0 1396 50 0 0 -1396 3645 4615 5 MP stroke
c8
0 1402 50 0 0 -1402 3708 4615 4 MP
PP
0 sg
-50 0 0 1402 50 0 0 -1402 3708 4615 5 MP stroke
c8
0 1408 50 0 0 -1408 3771 4615 4 MP
PP
0 sg
-50 0 0 1408 50 0 0 -1408 3771 4615 5 MP stroke
c8
0 1547 50 0 0 -1547 3834 4615 4 MP
PP
0 sg
-50 0 0 1547 50 0 0 -1547 3834 4615 5 MP stroke
c8
0 1469 50 0 0 -1469 3897 4615 4 MP
PP
0 sg
-50 0 0 1469 50 0 0 -1469 3897 4615 5 MP stroke
c8
0 1691 50 0 0 -1691 3960 4615 4 MP
PP
0 sg
-50 0 0 1691 50 0 0 -1691 3960 4615 5 MP stroke
c8
0 1336 50 0 0 -1336 4023 4615 4 MP
PP
0 sg
-50 0 0 1336 50 0 0 -1336 4023 4615 5 MP stroke
c8
0 1439 50 0 0 -1439 4086 4615 4 MP
PP
0 sg
-50 0 0 1439 50 0 0 -1439 4086 4615 5 MP stroke
c8
0 1421 50 0 0 -1421 4149 4615 4 MP
PP
0 sg
-50 0 0 1421 50 0 0 -1421 4149 4615 5 MP stroke
c8
0 0 50 0 0 0 4212 4615 4 MP
PP
0 sg
-50 0 0 0 50 0 0 0 4212 4615 5 MP stroke
DA
48 w
c9
631 0 3576 3152 2 MP stroke
c10
7 -3 6 -3 7 -4 6 -3 6 -3 7 -3 6 -4 6 -3 
7 -2 6 -3 6 -3 7 -2 6 -3 7 -2 6 -2 6 -2 
7 -1 6 -2 6 -1 7 -1 6 -1 6 -1 7 0 6 -1 
7 0 6 0 6 1 7 0 6 1 6 1 7 1 6 2 
6 1 7 2 6 2 7 2 6 2 6 3 7 2 6 3 
6 3 7 3 6 3 6 3 7 3 6 4 7 3 6 3 
6 4 7 3 6 3 6 4 7 3 6 3 6 3 7 3 
6 4 7 2 6 3 6 3 7 3 6 2 6 2 7 2 
6 2 6 2 7 2 6 1 7 1 6 1 6 1 7 1 
6 0 6 0 7 0 6 0 6 -1 7 0 6 -1 7 -1 
6 -2 6 -1 7 -2 6 -2 6 -2 7 -2 6 -2 6 -3 
7 -2 6 -3 7 -3 6 -3 6 -3 7 -3 6 -3 6 -4 
7 -3 6 -3 6 -4 3576 3152 100 MP stroke
SO
24 w
0 sg
7 2 6 2 7 3 6 2 6 2 7 3 6 3 6 3 
7 3 6 3 6 3 7 3 6 3 7 4 6 3 6 4 
7 3 6 3 6 4 7 3 6 3 6 3 7 3 6 3 
7 3 6 3 6 3 7 2 6 2 6 3 7 2 6 1 
6 2 7 2 6 1 7 1 6 1 6 0 7 1 6 0 
6 0 7 0 6 0 6 -1 7 -1 6 -1 7 -1 6 -1 
6 -2 7 -2 6 -2 6 -2 7 -2 6 -3 6 -2 7 -3 
6 -3 7 -3 6 -3 6 -3 7 -3 6 -3 6 -4 7 -3 
6 -3 6 -4 7 -3 6 -3 7 -4 6 -3 6 -3 7 -3 
6 -3 6 -3 7 -3 6 -3 6 -2 7 -3 6 -2 7 -2 
6 -2 6 -2 7 -1 6 -2 6 -1 7 -1 6 -1 6 0 
7 -1 6 0 7 0 6 1 6 0 7 1 6 1 6 1 
7 1 6 2 6 1 3576 3197 100 MP stroke
gr

24 w
3720 4903 mt 
(Phase) s
3326 4130 mt  -90 rotate
(Rate \(spikes/s\)) s
90 rotate
3309 2751 mt 
(F = 200 \(2431 spikes\)) s
6 w
1 sg
0 1769 630 0 0 -1769 4611 4615 4 MP
PP
-630 0 0 1769 630 0 0 -1769 4611 4615 5 MP stroke
4 w
DO
SO
6 w
0 sg
4611 4615 mt 5241 4615 L
4611 4615 mt 4611 2846 L
4611 4615 mt 4611 4597 L
4578 4760 mt 
(0) s
4926 4615 mt 4926 4597 L
4843 4760 mt 
(0.5) s
5241 4615 mt 5241 4597 L
5208 4760 mt 
(1) s
4611 4615 mt 4628 4615 L
4510 4659 mt 
(0) s
4611 4320 mt 4628 4320 L
4510 4364 mt 
(5) s
4611 4025 mt 4628 4025 L
4443 4069 mt 
(10) s
4611 3730 mt 4628 3730 L
4443 3774 mt 
(15) s
4611 3435 mt 4628 3435 L
4443 3479 mt 
(20) s
4611 3140 mt 4628 3140 L
4443 3184 mt 
(25) s
4611 2846 mt 4628 2846 L
4443 2890 mt 
(30) s
gs 4611 2846 631 1770 rc
c8
0 1487 50 0 0 -1487 4617 4615 4 MP
PP
0 sg
-50 0 0 1487 50 0 0 -1487 4617 4615 5 MP stroke
c8
0 1499 50 0 0 -1499 4680 4615 4 MP
PP
0 sg
-50 0 0 1499 50 0 0 -1499 4680 4615 5 MP stroke
c8
0 1240 50 0 0 -1240 4743 4615 4 MP
PP
0 sg
-50 0 0 1240 50 0 0 -1240 4743 4615 5 MP stroke
c8
0 1505 50 0 0 -1505 4806 4615 4 MP
PP
0 sg
-50 0 0 1505 50 0 0 -1505 4806 4615 5 MP stroke
c8
0 1469 50 0 0 -1469 4869 4615 4 MP
PP
0 sg
-50 0 0 1469 50 0 0 -1469 4869 4615 5 MP stroke
c8
0 1709 50 0 0 -1709 4932 4615 4 MP
PP
0 sg
-50 0 0 1709 50 0 0 -1709 4932 4615 5 MP stroke
c8
0 1366 50 0 0 -1366 4995 4615 4 MP
PP
0 sg
-50 0 0 1366 50 0 0 -1366 4995 4615 5 MP stroke
c8
0 1493 50 0 0 -1493 5058 4615 4 MP
PP
0 sg
-50 0 0 1493 50 0 0 -1493 5058 4615 5 MP stroke
c8
0 1523 50 0 0 -1523 5121 4615 4 MP
PP
0 sg
-50 0 0 1523 50 0 0 -1523 5121 4615 5 MP stroke
c8
0 1336 50 0 0 -1336 5184 4615 4 MP
PP
0 sg
-50 0 0 1336 50 0 0 -1336 5184 4615 5 MP stroke
c8
0 0 50 0 0 0 5247 4615 4 MP
PP
0 sg
-50 0 0 0 50 0 0 0 5247 4615 5 MP stroke
DA
48 w
c9
631 0 4611 3152 2 MP stroke
c10
7 -4 6 -4 7 -4 6 -4 6 -4 7 -4 6 -3 6 -4 
7 -3 6 -3 6 -4 7 -2 6 -3 7 -3 6 -2 6 -2 
7 -2 6 -2 6 -2 7 -1 6 -1 6 -1 7 0 6 -1 
7 0 6 0 6 1 7 1 6 0 6 2 7 1 6 2 
6 2 7 2 6 2 7 2 6 3 6 3 7 3 6 3 
6 4 7 3 6 4 6 3 7 4 6 4 7 4 6 4 
6 4 7 4 6 4 6 3 7 4 6 4 6 4 7 4 
6 3 7 4 6 3 6 3 7 3 6 3 6 3 7 2 
6 3 6 2 7 2 6 1 7 2 6 1 6 1 7 0 
6 1 6 0 7 0 6 0 6 -1 7 -1 6 -1 7 -1 
6 -2 6 -1 7 -2 6 -2 6 -3 7 -2 6 -3 6 -3 
7 -3 6 -4 7 -3 6 -4 6 -3 7 -4 6 -4 6 -4 
7 -3 6 -4 6 -4 4611 3152 100 MP stroke
SO
24 w
0 sg
7 2 6 3 7 3 6 3 6 3 7 3 6 4 6 3 
7 4 6 4 6 4 7 4 6 3 7 4 6 4 6 4 
7 4 6 4 6 4 7 4 6 3 6 4 7 3 6 4 
7 3 6 3 6 3 7 3 6 2 6 2 7 3 6 1 
6 2 7 2 6 1 7 1 6 0 6 1 7 0 6 0 
6 0 7 -1 6 -1 6 -1 7 -1 6 -1 7 -2 6 -2 
6 -2 7 -3 6 -2 6 -3 7 -3 6 -3 6 -3 7 -4 
6 -3 7 -4 6 -4 6 -3 7 -4 6 -4 6 -4 7 -4 
6 -4 6 -4 7 -4 6 -4 7 -4 6 -3 6 -4 7 -4 
6 -3 6 -3 7 -3 6 -3 6 -3 7 -3 6 -2 7 -2 
6 -2 6 -2 7 -2 6 -1 6 -1 7 -1 6 0 6 -1 
7 0 6 0 7 1 6 0 6 1 7 2 6 1 6 2 
7 1 6 3 6 2 4611 3202 100 MP stroke
gr

24 w
4755 4903 mt 
(Phase) s
4361 4130 mt  -90 rotate
(Rate \(spikes/s\)) s
90 rotate
4344 2751 mt 
(F = 300 \(2430 spikes\)) s
6 w
1 sg
0 1769 630 0 0 -1769 5647 4615 4 MP
PP
-630 0 0 1769 630 0 0 -1769 5647 4615 5 MP stroke
4 w
DO
SO
6 w
0 sg
5647 4615 mt 6277 4615 L
5647 4615 mt 5647 2846 L
5647 4615 mt 5647 4597 L
5614 4760 mt 
(0) s
5962 4615 mt 5962 4597 L
5879 4760 mt 
(0.5) s
6277 4615 mt 6277 4597 L
6244 4760 mt 
(1) s
5647 4615 mt 5664 4615 L
5546 4659 mt 
(0) s
5647 4320 mt 5664 4320 L
5546 4364 mt 
(5) s
5647 4025 mt 5664 4025 L
5479 4069 mt 
(10) s
5647 3730 mt 5664 3730 L
5479 3774 mt 
(15) s
5647 3435 mt 5664 3435 L
5479 3479 mt 
(20) s
5647 3140 mt 5664 3140 L
5479 3184 mt 
(25) s
5647 2846 mt 5664 2846 L
5479 2890 mt 
(30) s
gs 5647 2846 631 1770 rc
c8
0 1421 50 0 0 -1421 5653 4615 4 MP
PP
0 sg
-50 0 0 1421 50 0 0 -1421 5653 4615 5 MP stroke
c8
0 1517 50 0 0 -1517 5716 4615 4 MP
PP
0 sg
-50 0 0 1517 50 0 0 -1517 5716 4615 5 MP stroke
c8
0 1384 50 0 0 -1384 5779 4615 4 MP
PP
0 sg
-50 0 0 1384 50 0 0 -1384 5779 4615 5 MP stroke
c8
0 1186 50 0 0 -1186 5842 4615 4 MP
PP
0 sg
-50 0 0 1186 50 0 0 -1186 5842 4615 5 MP stroke
c8
0 1414 50 0 0 -1414 5905 4615 4 MP
PP
0 sg
-50 0 0 1414 50 0 0 -1414 5905 4615 5 MP stroke
c8
0 1565 50 0 0 -1565 5968 4615 4 MP
PP
0 sg
-50 0 0 1565 50 0 0 -1565 5968 4615 5 MP stroke
c8
0 1703 50 0 0 -1703 6031 4615 4 MP
PP
0 sg
-50 0 0 1703 50 0 0 -1703 6031 4615 5 MP stroke
c8
0 1433 50 0 0 -1433 6094 4615 4 MP
PP
0 sg
-50 0 0 1433 50 0 0 -1433 6094 4615 5 MP stroke
c8
0 1481 50 0 0 -1481 6157 4615 4 MP
PP
0 sg
-50 0 0 1481 50 0 0 -1481 6157 4615 5 MP stroke
c8
0 1529 50 0 0 -1529 6220 4615 4 MP
PP
0 sg
-50 0 0 1529 50 0 0 -1529 6220 4615 5 MP stroke
c8
0 0 50 0 0 0 6283 4615 4 MP
PP
0 sg
-50 0 0 0 50 0 0 0 6283 4615 5 MP stroke
DA
48 w
c9
631 0 5647 3152 2 MP stroke
c10
7 -6 6 -7 7 -6 6 -7 6 -6 7 -6 6 -6 6 -6 
7 -6 6 -5 6 -5 7 -5 6 -5 7 -4 6 -4 6 -4 
7 -3 6 -3 6 -3 7 -2 6 -2 6 -1 7 -1 6 0 
7 0 6 0 6 1 7 1 6 1 6 2 7 3 6 2 
6 3 7 4 6 4 7 4 6 4 6 5 7 5 6 5 
6 6 7 6 6 6 6 6 7 6 6 6 7 7 6 6 
6 7 7 7 6 6 6 7 7 6 6 6 6 7 7 6 
6 6 7 6 6 5 6 5 7 5 6 5 6 5 7 4 
6 4 6 3 7 3 6 3 7 2 6 2 6 2 7 1 
6 1 6 0 7 0 6 -1 6 -1 7 -1 6 -2 7 -2 
6 -2 6 -3 7 -4 6 -3 6 -4 7 -5 6 -4 6 -5 
7 -5 6 -6 7 -5 6 -6 6 -6 7 -6 6 -7 6 -6 
7 -7 6 -6 6 -7 5647 3152 100 MP stroke
SO
24 w
0 sg
7 7 6 6 7 7 6 6 6 6 7 6 6 6 6 6 
7 5 6 5 6 5 7 5 6 4 7 4 6 4 6 3 
7 3 6 2 6 2 7 2 6 1 6 1 7 1 6 0 
7 0 6 -1 6 -1 7 -2 6 -2 6 -2 7 -3 6 -3 
6 -4 7 -3 6 -5 7 -4 6 -5 6 -5 7 -5 6 -6 
6 -6 7 -6 6 -6 6 -6 7 -6 6 -7 7 -6 6 -7 
6 -6 7 -7 6 -7 6 -6 7 -6 6 -7 6 -6 7 -6 
6 -5 7 -6 6 -5 6 -5 7 -5 6 -4 6 -5 7 -3 
6 -4 6 -3 7 -3 6 -2 7 -2 6 -1 6 -2 7 0 
6 0 6 0 7 0 6 1 6 2 7 1 6 2 7 3 
6 3 6 3 7 4 6 4 6 4 7 5 6 5 6 5 
7 6 6 5 7 6 6 6 6 6 7 7 6 6 6 7 
7 6 6 7 6 6 5647 3145 100 MP stroke
gr

24 w
5791 4903 mt 
(Phase) s
5397 4130 mt  -90 rotate
(Rate \(spikes/s\)) s
90 rotate
5380 2751 mt 
(F = 500 \(2431 spikes\)) s
6 w
1 sg
0 1769 630 0 0 -1769 6682 4615 4 MP
PP
-630 0 0 1769 630 0 0 -1769 6682 4615 5 MP stroke
4 w
DO
SO
6 w
0 sg
6682 4615 mt 7312 4615 L
6682 4615 mt 6682 2846 L
6682 4615 mt 6682 4597 L
6649 4760 mt 
(0) s
6997 4615 mt 6997 4597 L
6914 4760 mt 
(0.5) s
7312 4615 mt 7312 4597 L
7279 4760 mt 
(1) s
6682 4615 mt 6699 4615 L
6581 4659 mt 
(0) s
6682 4320 mt 6699 4320 L
6581 4364 mt 
(5) s
6682 4025 mt 6699 4025 L
6514 4069 mt 
(10) s
6682 3730 mt 6699 3730 L
6514 3774 mt 
(15) s
6682 3435 mt 6699 3435 L
6514 3479 mt 
(20) s
6682 3140 mt 6699 3140 L
6514 3184 mt 
(25) s
6682 2846 mt 6699 2846 L
6514 2890 mt 
(30) s
gs 6682 2846 631 1770 rc
c8
0 1535 50 0 0 -1535 6688 4615 4 MP
PP
0 sg
-50 0 0 1535 50 0 0 -1535 6688 4615 5 MP stroke
c8
0 1577 50 0 0 -1577 6751 4615 4 MP
PP
0 sg
-50 0 0 1577 50 0 0 -1577 6751 4615 5 MP stroke
c8
0 1553 50 0 0 -1553 6814 4615 4 MP
PP
0 sg
-50 0 0 1553 50 0 0 -1553 6814 4615 5 MP stroke
c8
0 1330 50 0 0 -1330 6877 4615 4 MP
PP
0 sg
-50 0 0 1330 50 0 0 -1330 6877 4615 5 MP stroke
c8
0 1414 50 0 0 -1414 6940 4615 4 MP
PP
0 sg
-50 0 0 1414 50 0 0 -1414 6940 4615 5 MP stroke
c8
0 1439 50 0 0 -1439 7003 4615 4 MP
PP
0 sg
-50 0 0 1439 50 0 0 -1439 7003 4615 5 MP stroke
c8
0 1318 50 0 0 -1318 7066 4615 4 MP
PP
0 sg
-50 0 0 1318 50 0 0 -1318 7066 4615 5 MP stroke
c8
0 1619 50 0 0 -1619 7129 4615 4 MP
PP
0 sg
-50 0 0 1619 50 0 0 -1619 7129 4615 5 MP stroke
c8
0 1330 50 0 0 -1330 7192 4615 4 MP
PP
0 sg
-50 0 0 1330 50 0 0 -1330 7192 4615 5 MP stroke
c8
0 1517 50 0 0 -1517 7255 4615 4 MP
PP
0 sg
-50 0 0 1517 50 0 0 -1517 7255 4615 5 MP stroke
c8
0 0 50 0 0 0 7318 4615 4 MP
PP
0 sg
-50 0 0 0 50 0 0 0 7318 4615 5 MP stroke
DA
48 w
c9
631 0 6682 3152 2 MP stroke
c10
7 -4 6 -5 7 -5 6 -4 6 -5 7 -4 6 -4 6 -5 
7 -4 6 -4 6 -3 7 -4 6 -3 7 -3 6 -3 6 -2 
7 -3 6 -2 6 -2 7 -1 6 -1 6 -1 7 -1 6 0 
7 -1 6 1 6 0 7 1 6 1 6 1 7 2 6 2 
6 2 7 3 6 3 7 2 6 4 6 3 7 4 6 3 
6 4 7 4 6 5 6 4 7 4 6 5 7 5 6 4 
6 5 7 5 6 4 6 5 7 4 6 5 6 4 7 5 
6 4 7 4 6 4 6 4 7 3 6 4 6 3 7 3 
6 3 6 2 7 2 6 2 7 2 6 1 6 1 7 1 
6 1 6 0 7 0 6 0 6 -1 7 -1 6 -1 7 -2 
6 -2 6 -2 7 -2 6 -3 6 -2 7 -4 6 -3 6 -3 
7 -4 6 -4 7 -4 6 -4 6 -4 7 -5 6 -4 6 -5 
7 -4 6 -5 6 -5 6682 3152 100 MP stroke
SO
24 w
0 sg
7 -2 6 -2 7 -2 6 -3 6 -3 7 -3 6 -3 6 -4 
7 -4 6 -4 6 -4 7 -4 6 -4 7 -5 6 -4 6 -5 
7 -4 6 -5 6 -5 7 -5 6 -4 6 -5 7 -4 6 -5 
7 -4 6 -4 6 -4 7 -4 6 -4 6 -4 7 -3 6 -3 
6 -3 7 -3 6 -3 7 -2 6 -2 6 -1 7 -2 6 -1 
6 -1 7 0 6 -1 6 0 7 1 6 1 7 0 6 2 
6 1 7 2 6 2 6 2 7 3 6 3 6 3 7 3 
6 4 7 3 6 4 6 4 7 4 6 5 6 4 7 4 
6 5 6 5 7 4 6 5 7 5 6 4 6 5 7 4 
6 5 6 4 7 5 6 4 6 4 7 4 6 3 7 4 
6 3 6 3 7 3 6 3 6 2 7 2 6 2 6 2 
7 1 6 1 7 1 6 0 6 0 7 0 6 -1 6 0 
7 -2 6 -1 6 -2 6682 3084 100 MP stroke
gr

24 w
6826 4903 mt 
(Phase) s
6432 4130 mt  -90 rotate
(Rate \(spikes/s\)) s
90 rotate
6415 2751 mt 
(F = 600 \(2431 spikes\)) s
6 w
1 sg
0 1769 630 0 0 -1769 7718 4615 4 MP
PP
-630 0 0 1769 630 0 0 -1769 7718 4615 5 MP stroke
4 w
DO
SO
6 w
0 sg
7718 4615 mt 8348 4615 L
7718 4615 mt 7718 2846 L
7718 4615 mt 7718 4597 L
7685 4760 mt 
(0) s
8033 4615 mt 8033 4597 L
7950 4760 mt 
(0.5) s
8348 4615 mt 8348 4597 L
8315 4760 mt 
(1) s
7718 4615 mt 7735 4615 L
7617 4659 mt 
(0) s
7718 4320 mt 7735 4320 L
7617 4364 mt 
(5) s
7718 4025 mt 7735 4025 L
7550 4069 mt 
(10) s
7718 3730 mt 7735 3730 L
7550 3774 mt 
(15) s
7718 3435 mt 7735 3435 L
7550 3479 mt 
(20) s
7718 3140 mt 7735 3140 L
7550 3184 mt 
(25) s
7718 2846 mt 7735 2846 L
7550 2890 mt 
(30) s
gs 7718 2846 631 1770 rc
c8
0 1547 50 0 0 -1547 7724 4615 4 MP
PP
0 sg
-50 0 0 1547 50 0 0 -1547 7724 4615 5 MP stroke
c8
0 1433 50 0 0 -1433 7787 4615 4 MP
PP
0 sg
-50 0 0 1433 50 0 0 -1433 7787 4615 5 MP stroke
c8
0 1625 50 0 0 -1625 7850 4615 4 MP
PP
0 sg
-50 0 0 1625 50 0 0 -1625 7850 4615 5 MP stroke
c8
0 1535 50 0 0 -1535 7913 4615 4 MP
PP
0 sg
-50 0 0 1535 50 0 0 -1535 7913 4615 5 MP stroke
c8
0 1402 50 0 0 -1402 7976 4615 4 MP
PP
0 sg
-50 0 0 1402 50 0 0 -1402 7976 4615 5 MP stroke
c8
0 1463 50 0 0 -1463 8039 4615 4 MP
PP
0 sg
-50 0 0 1463 50 0 0 -1463 8039 4615 5 MP stroke
c8
0 1300 50 0 0 -1300 8102 4615 4 MP
PP
0 sg
-50 0 0 1300 50 0 0 -1300 8102 4615 5 MP stroke
c8
0 1342 50 0 0 -1342 8165 4615 4 MP
PP
0 sg
-50 0 0 1342 50 0 0 -1342 8165 4615 5 MP stroke
c8
0 1625 50 0 0 -1625 8228 4615 4 MP
PP
0 sg
-50 0 0 1625 50 0 0 -1625 8228 4615 5 MP stroke
c8
0 1360 50 0 0 -1360 8291 4615 4 MP
PP
0 sg
-50 0 0 1360 50 0 0 -1360 8291 4615 5 MP stroke
c8
0 0 50 0 0 0 8354 4615 4 MP
PP
0 sg
-50 0 0 0 50 0 0 0 8354 4615 5 MP stroke
DA
48 w
c9
631 0 7718 3152 2 MP stroke
c10
7 -5 6 -5 7 -5 6 -5 6 -4 7 -5 6 -5 6 -4 
7 -4 6 -5 6 -4 7 -3 6 -4 7 -3 6 -3 6 -3 
7 -2 6 -3 6 -2 7 -1 6 -2 6 -1 7 0 6 -1 
7 0 6 1 6 0 7 1 6 1 6 2 7 1 6 2 
6 3 7 2 6 3 7 4 6 3 6 4 7 3 6 4 
6 5 7 4 6 5 6 4 7 5 6 5 7 5 6 5 
6 5 7 5 6 5 6 5 7 5 6 4 6 5 7 5 
6 4 7 5 6 4 6 4 7 4 6 4 6 3 7 3 
6 3 6 3 7 2 6 2 7 2 6 1 6 2 7 0 
6 1 6 0 7 0 6 0 6 -1 7 -1 6 -1 7 -2 
6 -2 6 -2 7 -3 6 -2 6 -3 7 -4 6 -3 6 -4 
7 -4 6 -4 7 -4 6 -5 6 -4 7 -5 6 -5 6 -5 
7 -5 6 -5 6 -5 7718 3152 100 MP stroke
SO
24 w
0 sg
7 -4 6 -5 7 -5 6 -5 6 -5 7 -4 6 -5 6 -6 
7 -4 6 -5 6 -5 7 -5 6 -5 7 -4 6 -5 6 -4 
7 -4 6 -4 6 -4 7 -4 6 -3 6 -3 7 -3 6 -2 
7 -2 6 -2 6 -2 7 -1 6 -1 6 -1 7 -1 6 0 
6 0 7 1 6 1 7 1 6 2 6 1 7 2 6 3 
6 2 7 3 6 3 6 4 7 3 6 4 7 4 6 4 
6 5 7 4 6 5 6 5 7 5 6 4 6 5 7 5 
6 5 7 5 6 5 6 5 7 5 6 5 6 5 7 4 
6 5 6 4 7 4 6 4 7 3 6 4 6 3 7 3 
6 2 6 3 7 2 6 2 6 1 7 1 6 1 7 1 
6 0 6 0 7 0 6 -1 6 -1 7 -1 6 -2 6 -2 
7 -2 6 -3 7 -2 6 -3 6 -4 7 -3 6 -4 6 -4 
7 -4 6 -4 6 -5 7718 3118 100 MP stroke
gr

24 w
7862 4903 mt 
(Phase) s
7468 4130 mt  -90 rotate
(Rate \(spikes/s\)) s
90 rotate
7418 2751 mt 
(F = 1000 \(2431 spikes\)) s
6 w

end %%Color Dict

eplot
%%EndObject

epage
end

showpage

%%Trailer
%%EOF
