%!PS-Adobe-3.0 EPSF-3.0
%%Creator: MATLAB, The MathWorks, Inc. Version 7.14.0.739 (R2012a). Operating System: Linux 2.6.33.7.2-rt30-rt #1 SMP PREEMPT RT Tue Apr 17 15:22:21 CEST 2012 x86_64.
%%Title: ./fit_transfer_function.eps
%%CreationDate: 07/08/2015  16:08:55
%%DocumentNeededFonts: Helvetica
%%DocumentProcessColors: Cyan Magenta Yellow Black
%%LanguageLevel: 2
%%Pages: 1
%%BoundingBox:     7     4   399   356
%%EndComments

%%BeginProlog
% MathWorks dictionary
/MathWorks 160 dict begin
% definition operators
/bdef {bind def} bind def
/ldef {load def} bind def
/xdef {exch def} bdef
/xstore {exch store} bdef
% operator abbreviations
/c  /clip ldef
/cc /concat ldef
/cp /closepath ldef
/gr /grestore ldef
/gs /gsave ldef
/mt /moveto ldef
/np /newpath ldef
/cm /currentmatrix ldef
/sm /setmatrix ldef
/rm /rmoveto ldef
/rl /rlineto ldef
/s {show newpath} bdef
/sc {setcmykcolor} bdef
/sr /setrgbcolor ldef
/sg /setgray ldef
/w /setlinewidth ldef
/j /setlinejoin ldef
/cap /setlinecap ldef
/rc {rectclip} bdef
/rf {rectfill} bdef
% page state control
/pgsv () def
/bpage {/pgsv save def} bdef
/epage {pgsv restore} bdef
/bplot /gsave ldef
/eplot {stroke grestore} bdef
% orientation switch
/portraitMode 0 def /landscapeMode 1 def /rotateMode 2 def
% coordinate system mappings
/dpi2point 0 def
% font control
/FontSize 0 def
/FMS {/FontSize xstore findfont [FontSize 0 0 FontSize neg 0 0]
  makefont setfont} bdef
/reencode {exch dup where {pop load} {pop StandardEncoding} ifelse
  exch dup 3 1 roll findfont dup length dict begin
  { 1 index /FID ne {def}{pop pop} ifelse } forall
  /Encoding exch def currentdict end definefont pop} bdef
/isroman {findfont /CharStrings get /Agrave known} bdef
/FMSR {3 1 roll 1 index dup isroman {reencode} {pop pop} ifelse
  exch FMS} bdef
/csm {1 dpi2point div -1 dpi2point div scale neg translate
 dup landscapeMode eq {pop -90 rotate}
  {rotateMode eq {90 rotate} if} ifelse} bdef
% line types: solid, dotted, dashed, dotdash
/SO { [] 0 setdash } bdef
/DO { [.5 dpi2point mul 4 dpi2point mul] 0 setdash } bdef
/DA { [6 dpi2point mul] 0 setdash } bdef
/DD { [.5 dpi2point mul 4 dpi2point mul 6 dpi2point mul 4
  dpi2point mul] 0 setdash } bdef
% macros for lines and objects
/L {lineto stroke} bdef
/MP {3 1 roll moveto 1 sub {rlineto} repeat} bdef
/AP {{rlineto} repeat} bdef
/PDlw -1 def
/W {/PDlw currentlinewidth def setlinewidth} def
/PP {closepath eofill} bdef
/DP {closepath stroke} bdef
/MR {4 -2 roll moveto dup  0 exch rlineto exch 0 rlineto
  neg 0 exch rlineto closepath} bdef
/FR {MR stroke} bdef
/PR {MR fill} bdef
/L1i {{currentfile picstr readhexstring pop} image} bdef
/tMatrix matrix def
/MakeOval {newpath tMatrix currentmatrix pop translate scale
0 0 1 0 360 arc tMatrix setmatrix} bdef
/FO {MakeOval stroke} bdef
/PO {MakeOval fill} bdef
/PD {currentlinewidth 2 div 0 360 arc fill
   PDlw -1 eq not {PDlw w /PDlw -1 def} if} def
/FA {newpath tMatrix currentmatrix pop translate scale
  0 0 1 5 -2 roll arc tMatrix setmatrix stroke} bdef
/PA {newpath tMatrix currentmatrix pop	translate 0 0 moveto scale
  0 0 1 5 -2 roll arc closepath tMatrix setmatrix fill} bdef
/FAn {newpath tMatrix currentmatrix pop translate scale
  0 0 1 5 -2 roll arcn tMatrix setmatrix stroke} bdef
/PAn {newpath tMatrix currentmatrix pop translate 0 0 moveto scale
  0 0 1 5 -2 roll arcn closepath tMatrix setmatrix fill} bdef
/vradius 0 def /hradius 0 def /lry 0 def
/lrx 0 def /uly 0 def /ulx 0 def /rad 0 def
/MRR {/vradius xdef /hradius xdef /lry xdef /lrx xdef /uly xdef
  /ulx xdef newpath tMatrix currentmatrix pop ulx hradius add uly
  vradius add translate hradius vradius scale 0 0 1 180 270 arc 
  tMatrix setmatrix lrx hradius sub uly vradius add translate
  hradius vradius scale 0 0 1 270 360 arc tMatrix setmatrix
  lrx hradius sub lry vradius sub translate hradius vradius scale
  0 0 1 0 90 arc tMatrix setmatrix ulx hradius add lry vradius sub
  translate hradius vradius scale 0 0 1 90 180 arc tMatrix setmatrix
  closepath} bdef
/FRR {MRR stroke } bdef
/PRR {MRR fill } bdef
/MlrRR {/lry xdef /lrx xdef /uly xdef /ulx xdef /rad lry uly sub 2 div def
  newpath tMatrix currentmatrix pop ulx rad add uly rad add translate
  rad rad scale 0 0 1 90 270 arc tMatrix setmatrix lrx rad sub lry rad
  sub translate rad rad scale 0 0 1 270 90 arc tMatrix setmatrix
  closepath} bdef
/FlrRR {MlrRR stroke } bdef
/PlrRR {MlrRR fill } bdef
/MtbRR {/lry xdef /lrx xdef /uly xdef /ulx xdef /rad lrx ulx sub 2 div def
  newpath tMatrix currentmatrix pop ulx rad add uly rad add translate
  rad rad scale 0 0 1 180 360 arc tMatrix setmatrix lrx rad sub lry rad
  sub translate rad rad scale 0 0 1 0 180 arc tMatrix setmatrix
  closepath} bdef
/FtbRR {MtbRR stroke } bdef
/PtbRR {MtbRR fill } bdef
/stri 6 array def /dtri 6 array def
/smat 6 array def /dmat 6 array def
/tmat1 6 array def /tmat2 6 array def /dif 3 array def
/asub {/ind2 exch def /ind1 exch def dup dup
  ind1 get exch ind2 get sub exch } bdef
/tri_to_matrix {
  2 0 asub 3 1 asub 4 0 asub 5 1 asub
  dup 0 get exch 1 get 7 -1 roll astore } bdef
/compute_transform {
  dmat dtri tri_to_matrix tmat1 invertmatrix 
  smat stri tri_to_matrix tmat2 concatmatrix } bdef
/ds {stri astore pop} bdef
/dt {dtri astore pop} bdef
/db {2 copy /cols xdef /rows xdef mul dup 3 mul string
  currentfile 
  3 index 0 eq {/ASCIIHexDecode filter}
  {/ASCII85Decode filter 3 index 2 eq {/RunLengthDecode filter} if }
  ifelse exch readstring pop
  dup 0 3 index getinterval /rbmap xdef
  dup 2 index dup getinterval /gbmap xdef
  1 index dup 2 mul exch getinterval /bbmap xdef pop pop}bdef
/it {gs np dtri aload pop moveto lineto lineto cp c
  cols rows 8 compute_transform 
  rbmap gbmap bbmap true 3 colorimage gr}bdef
/il {newpath moveto lineto stroke}bdef
currentdict end def
%%EndProlog

%%BeginSetup
MathWorks begin

0 cap

end
%%EndSetup

%%Page: 1 1
%%BeginPageSetup
%%PageBoundingBox:     7     4   399   356
MathWorks begin
bpage
%%EndPageSetup

%%BeginObject: obj1
bplot

/dpi2point 12 def
portraitMode 0000 4320 csm

   93    46  4696  4216 rc
86 dict begin %Colortable dictionary
/c0 { 0.000000 0.000000 0.000000 sr} bdef
/c1 { 1.000000 1.000000 1.000000 sr} bdef
/c2 { 0.900000 0.000000 0.000000 sr} bdef
/c3 { 0.000000 0.820000 0.000000 sr} bdef
/c4 { 0.000000 0.000000 0.800000 sr} bdef
/c5 { 0.910000 0.820000 0.320000 sr} bdef
/c6 { 1.000000 0.260000 0.820000 sr} bdef
/c7 { 0.000000 0.820000 0.820000 sr} bdef
c0
1 j
1 sg
   0    0 5185 4321 rf
6 w
0 1473 4018 0 0 -1473 674 1798 4 MP
PP
-4018 0 0 1473 4018 0 0 -1473 674 1798 5 MP stroke
4 w
DO
SO
6 w
0 sg
 674 1798 mt 4692 1798 L
 674 1798 mt  674  325 L
 718 1798 mt  718 1818 L
 674 1798 mt  674 1818 L
 718 1798 mt  718 1838 L
%%IncludeResource: font Helvetica
/Helvetica /ISOLatin1Encoding 120 FMSR

 606 2020 mt 
(10) s
%%IncludeResource: font Helvetica
/Helvetica /ISOLatin1Encoding 80 FMSR

 739 1946 mt 
(-1) s
1014 1798 mt 1014 1818 L
1188 1798 mt 1188 1818 L
1310 1798 mt 1310 1818 L
1406 1798 mt 1406 1818 L
1483 1798 mt 1483 1818 L
1549 1798 mt 1549 1818 L
1606 1798 mt 1606 1818 L
1657 1798 mt 1657 1818 L
1702 1798 mt 1702 1818 L
1702 1798 mt 1702 1838 L
%%IncludeResource: font Helvetica
/Helvetica /ISOLatin1Encoding 120 FMSR

1614 2020 mt 
(10) s
%%IncludeResource: font Helvetica
/Helvetica /ISOLatin1Encoding 80 FMSR

1747 1946 mt 
(0) s
1998 1798 mt 1998 1818 L
2171 1798 mt 2171 1818 L
2293 1798 mt 2293 1818 L
2389 1798 mt 2389 1818 L
2467 1798 mt 2467 1818 L
2532 1798 mt 2532 1818 L
2589 1798 mt 2589 1818 L
2640 1798 mt 2640 1818 L
2685 1798 mt 2685 1818 L
2685 1798 mt 2685 1838 L
%%IncludeResource: font Helvetica
/Helvetica /ISOLatin1Encoding 120 FMSR

2597 2020 mt 
(10) s
%%IncludeResource: font Helvetica
/Helvetica /ISOLatin1Encoding 80 FMSR

2730 1946 mt 
(1) s
2981 1798 mt 2981 1818 L
3154 1798 mt 3154 1818 L
3277 1798 mt 3277 1818 L
3372 1798 mt 3372 1818 L
3450 1798 mt 3450 1818 L
3515 1798 mt 3515 1818 L
3572 1798 mt 3572 1818 L
3623 1798 mt 3623 1818 L
3668 1798 mt 3668 1818 L
3668 1798 mt 3668 1838 L
%%IncludeResource: font Helvetica
/Helvetica /ISOLatin1Encoding 120 FMSR

3580 2020 mt 
(10) s
%%IncludeResource: font Helvetica
/Helvetica /ISOLatin1Encoding 80 FMSR

3713 1946 mt 
(2) s
3964 1798 mt 3964 1818 L
4137 1798 mt 4137 1818 L
4260 1798 mt 4260 1818 L
4355 1798 mt 4355 1818 L
4433 1798 mt 4433 1818 L
4499 1798 mt 4499 1818 L
4556 1798 mt 4556 1818 L
4606 1798 mt 4606 1818 L
4651 1798 mt 4651 1818 L
4651 1798 mt 4651 1838 L
%%IncludeResource: font Helvetica
/Helvetica /ISOLatin1Encoding 120 FMSR

4563 2020 mt 
(10) s
%%IncludeResource: font Helvetica
/Helvetica /ISOLatin1Encoding 80 FMSR

4696 1946 mt 
(3) s
 674 1798 mt  633 1798 L
%%IncludeResource: font Helvetica
/Helvetica /ISOLatin1Encoding 120 FMSR

 396 1842 mt 
(-25) s
 674 1503 mt  633 1503 L
 396 1547 mt 
(-20) s
 674 1208 mt  633 1208 L
 396 1252 mt 
(-15) s
 674  914 mt  633  914 L
 396  958 mt 
(-10) s
 674  619 mt  633  619 L
 463  663 mt 
(-5) s
 674  325 mt  633  325 L
 533  369 mt 
(0) s
gs 674 325 4019 1474 rc
24 w
/c8 { 1.000000 0.000000 0.000000 sr} bdef
c8
18 21 19 23 20 23 20 22 20 23 20 22 19 22 20 22 
20 22 20 22 19 22 20 21 20 21 20 21 19 21 20 20 
20 20 20 20 19 19 20 19 20 19 20 18 19 18 20 17 
20 17 20 16 19 16 20 15 20 14 20 13 20 13 19 12 
20 12 20 10 20 9 19 9 20 8 20 6 20 6 19 5 
20 4 20 2 20 2 19 1 20 0 20 -2 20 -2 19 -3 
20 -4 20 -5 20 -6 20 -6 19 -8 20 -8 20 -8 20 -9 
19 -10 20 -10 20 -11 20 -11 19 -11 20 -12 20 -12 20 -12 
19 -12 20 -12 20 -12 20 -12 19 -12 20 -11 20 -12 20 -11 
19 -11 20 -11 20 -10 20 -10 20 -10 19 -9 20 -9 20 -9 
20 -8 19 -8 20 -7 20 -7 20 -7 19 -6 20 -6 20 -5 
20 -5 19 -5 20 -5 20 -4 20 -4 19 -3 20 -4 20 -3 
20 -3 19 -2 20 -3 20 -2 20 -2 20 -2 19 -2 20 -1 
20 -2 20 -1 19 -1 20 -1 20 -1 20 -1 19 -1 20 -1 
20 -1 20 0 19 -1 20 -1 20 0 20 -1 19 0 20 0 
20 -1 20 0 19 0 20 -1 20 0 20 0 20 0 19 -1 
20 0 20 0 20 0 19 0 20 0 20 0 20 0 19 -1 
20 0 20 0 20 0 19 0 20 0 20 0 20 0 19 0 
20 0 20 0 20 0 20 0 19 0 20 0 20 0 20 0 
19 0 20 0 20 0 20 0 19 0 20 0 20 0 20 0 
19 0 20 0 20 0 20 0 19 0 20 0 20 0 20 0 
19 0 20 0 20 0 20 0 20 0 718 1555 174 MP stroke
6 w
gr

c8
gs 645 1033 3418 840 rc
0 sg
  36   36  718 1661 PO
  36   36 1014 1604 PO
  36   36 1406 1702 PO
  36   36 1702 1542 PO
  36   36 1998 1527 PO
  36   36 2389 1413 PO
  36   36 2685 1362 PO
  36   36 2981 1223 PO
  36   36 3372 1106 PO
  36   36 3668 1419 PO
  36   36 3964 1644 PO
  36   36  718 1661 FO
  36   36 1014 1604 FO
  36   36 1406 1702 FO
  36   36 1702 1542 FO
  36   36 1998 1527 FO
  36   36 2389 1413 FO
  36   36 2685 1362 FO
  36   36 2981 1223 FO
  36   36 3372 1106 FO
  36   36 3668 1419 FO
  36   36 3964 1644 FO
gr

0 sg
gs 674 325 4019 1474 rc
DA
c8
0 -1473 2627 1798 2 MP stroke
/c9 { 0.000000 1.000000 0.000000 sr} bdef
c9
0 -1473 3284 1798 2 MP stroke
gr

c9
DA
0 sg
3284  367 mt 
(**) s
 260 1569 mt  -90 rotate
(20 log) s
90 rotate
%%IncludeResource: font Helvetica
/Helvetica /ISOLatin1Encoding 96 FMSR

 320 1243 mt  -90 rotate
(10) s
90 rotate
%%IncludeResource: font Helvetica
/Helvetica /ISOLatin1Encoding 120 FMSR

 260 1137 mt  -90 rotate
( \(r) s
90 rotate
%%IncludeResource: font Helvetica
/Helvetica /ISOLatin1Encoding 96 FMSR

 320 1024 mt  -90 rotate
(1) s
90 rotate
%%IncludeResource: font Helvetica
/Helvetica /ISOLatin1Encoding 120 FMSR

 260  971 mt  -90 rotate
(/r) s
90 rotate
%%IncludeResource: font Helvetica
/Helvetica /ISOLatin1Encoding 96 FMSR

 320  898 mt  -90 rotate
(0) s
90 rotate
%%IncludeResource: font Helvetica
/Helvetica /ISOLatin1Encoding 120 FMSR

 260  845 mt  -90 rotate
(\) \(dB\)) s
90 rotate
2283  230 mt 
(M = 1  -  N = 2) s
SO
1 sg
0 1473 4018 0 0 -1473 674 3845 4 MP
PP
-4018 0 0 1473 4018 0 0 -1473 674 3845 5 MP stroke
4 w
DO
SO
6 w
0 sg
 674 3845 mt 4692 3845 L
 674 3845 mt  674 2372 L
 718 3845 mt  718 3865 L
 674 3845 mt  674 3865 L
 718 3845 mt  718 3885 L
 606 4067 mt 
(10) s
%%IncludeResource: font Helvetica
/Helvetica /ISOLatin1Encoding 80 FMSR

 739 3993 mt 
(-1) s
1014 3845 mt 1014 3865 L
1188 3845 mt 1188 3865 L
1310 3845 mt 1310 3865 L
1406 3845 mt 1406 3865 L
1483 3845 mt 1483 3865 L
1549 3845 mt 1549 3865 L
1606 3845 mt 1606 3865 L
1657 3845 mt 1657 3865 L
1702 3845 mt 1702 3865 L
1702 3845 mt 1702 3885 L
%%IncludeResource: font Helvetica
/Helvetica /ISOLatin1Encoding 120 FMSR

1614 4067 mt 
(10) s
%%IncludeResource: font Helvetica
/Helvetica /ISOLatin1Encoding 80 FMSR

1747 3993 mt 
(0) s
1998 3845 mt 1998 3865 L
2171 3845 mt 2171 3865 L
2293 3845 mt 2293 3865 L
2389 3845 mt 2389 3865 L
2467 3845 mt 2467 3865 L
2532 3845 mt 2532 3865 L
2589 3845 mt 2589 3865 L
2640 3845 mt 2640 3865 L
2685 3845 mt 2685 3865 L
2685 3845 mt 2685 3885 L
%%IncludeResource: font Helvetica
/Helvetica /ISOLatin1Encoding 120 FMSR

2597 4067 mt 
(10) s
%%IncludeResource: font Helvetica
/Helvetica /ISOLatin1Encoding 80 FMSR

2730 3993 mt 
(1) s
2981 3845 mt 2981 3865 L
3154 3845 mt 3154 3865 L
3277 3845 mt 3277 3865 L
3372 3845 mt 3372 3865 L
3450 3845 mt 3450 3865 L
3515 3845 mt 3515 3865 L
3572 3845 mt 3572 3865 L
3623 3845 mt 3623 3865 L
3668 3845 mt 3668 3865 L
3668 3845 mt 3668 3885 L
%%IncludeResource: font Helvetica
/Helvetica /ISOLatin1Encoding 120 FMSR

3580 4067 mt 
(10) s
%%IncludeResource: font Helvetica
/Helvetica /ISOLatin1Encoding 80 FMSR

3713 3993 mt 
(2) s
3964 3845 mt 3964 3865 L
4137 3845 mt 4137 3865 L
4260 3845 mt 4260 3865 L
4355 3845 mt 4355 3865 L
4433 3845 mt 4433 3865 L
4499 3845 mt 4499 3865 L
4556 3845 mt 4556 3865 L
4606 3845 mt 4606 3865 L
4651 3845 mt 4651 3865 L
4651 3845 mt 4651 3885 L
%%IncludeResource: font Helvetica
/Helvetica /ISOLatin1Encoding 120 FMSR

4563 4067 mt 
(10) s
%%IncludeResource: font Helvetica
/Helvetica /ISOLatin1Encoding 80 FMSR

4696 3993 mt 
(3) s
 674 3845 mt  633 3845 L
%%IncludeResource: font Helvetica
/Helvetica /ISOLatin1Encoding 120 FMSR

 329 3889 mt 
(-400) s
 674 3354 mt  633 3354 L
 329 3398 mt 
(-200) s
 674 2863 mt  633 2863 L
 533 2907 mt 
(0) s
 674 2372 mt  633 2372 L
 399 2416 mt 
(200) s
gs 674 2372 4019 1474 rc
24 w
c8
20 0 20 1 19 0 20 1 20 0 20 1 20 1 19 0 
20 1 20 1 20 1 19 0 20 1 20 1 20 1 19 1 
20 1 20 1 20 1 19 1 20 1 20 2 20 1 19 1 
20 2 20 1 20 2 19 2 20 1 20 2 20 2 20 2 
19 2 20 2 20 2 20 3 19 2 20 3 20 2 20 3 
19 3 20 3 20 3 20 3 19 4 20 3 20 4 20 3 
19 4 20 4 20 4 20 4 19 5 20 4 20 5 20 4 
20 5 19 5 20 5 20 5 20 5 19 5 20 5 20 6 
20 5 19 5 20 5 20 6 20 5 19 5 20 5 20 5 
20 5 19 5 20 4 20 5 20 4 20 4 19 4 20 4 
20 4 20 3 19 3 20 3 20 3 20 3 19 2 20 2 
20 2 20 2 19 1 20 1 20 1 20 1 19 1 20 0 
20 1 20 0 19 0 20 -1 20 0 20 0 20 -1 19 -1 
20 0 20 -1 20 -1 19 -1 20 -1 20 -1 20 -2 19 -1 
20 -1 20 -1 20 -1 19 -2 20 -1 20 -1 20 -1 19 -2 
20 -1 20 -1 20 -1 19 -1 20 -1 20 -1 20 -1 20 -1 
19 -1 20 -1 20 -1 20 -1 19 -1 20 0 20 -1 20 -1 
19 -1 20 0 20 -1 20 -1 19 0 20 -1 20 0 20 -1 
19 0 20 -1 20 0 20 -1 19 0 20 -1 20 0 20 0 
20 -1 19 0 20 0 20 -1 20 0 19 0 20 -1 20 0 
20 0 19 0 20 -1 20 0 20 0 19 0 20 0 20 -1 
20 0 19 0 20 0 20 0 20 0 20 -1 19 0 20 0 
20 0 20 0 19 0 20 0 20 0 20 0 19 -1 20 0 
20 0 20 0 19 0 20 0 20 0 20 0 19 0 20 0 
20 0 20 0 19 0 20 0 20 0 20 -1 20 0 718 2862 200 MP stroke
6 w
gr

c8
gs 645 2726 4080 966 rc
0 sg
  36   36  718 2876 PO
  36   36 1014 2849 PO
  36   36 1406 2850 PO
  36   36 1702 2835 PO
  36   36 1998 2799 PO
  36   36 2389 2822 PO
  36   36 2685 2841 PO
  36   36 2981 2851 PO
  36   36 3372 2888 PO
  36   36 3668 2948 PO
  36   36 3964 2802 PO
  36   36 4355 3184 PO
  36   36 4433 3618 PO
  36   36 4651 3177 PO
  36   36  718 2876 FO
  36   36 1014 2849 FO
  36   36 1406 2850 FO
  36   36 1702 2835 FO
  36   36 1998 2799 FO
  36   36 2389 2822 FO
  36   36 2685 2841 FO
  36   36 2981 2851 FO
  36   36 3372 2888 FO
  36   36 3668 2948 FO
  36   36 3964 2802 FO
  36   36 4355 3184 FO
  36   36 4433 3618 FO
  36   36 4651 3177 FO
gr

0 sg
gs 674 2372 4019 1474 rc
DA
c8
0 -1473 2627 3845 2 MP stroke
c9
0 -1473 3284 3845 2 MP stroke
0 -1473 3284 3845 2 MP stroke
gr

c9
DA
0 sg
2340 2277 mt 
(Dt = 1.87 ms) s
2271 4210 mt 
(Frequency \(Hz\)) s
%%IncludeResource: font Symbol
/Symbol /ISOLatin1Encoding 120 FMSR

 239 3155 mt  -90 rotate
(F) s
90 rotate
SO

end %%Color Dict

eplot
%%EndObject

epage
end

showpage

%%Trailer
%%EOF
