%!PS-Adobe-3.0 EPSF-3.0
%%Creator: MATLAB, The MathWorks, Inc. Version 7.14.0.739 (R2012a). Operating System: Linux 2.6.33.7.2-rt30-rt #1 SMP PREEMPT RT Tue Apr 17 15:22:21 CEST 2012 x86_64.
%%Title: ./modulation_phase_shift_ap_peak.eps
%%CreationDate: 07/08/2015  15:33:14
%%DocumentNeededFonts: Helvetica
%%DocumentProcessColors: Cyan Magenta Yellow Black
%%LanguageLevel: 2
%%Pages: 1
%%BoundingBox:    29    31   532   545
%%EndComments

%%BeginProlog
% MathWorks dictionary
/MathWorks 160 dict begin
% definition operators
/bdef {bind def} bind def
/ldef {load def} bind def
/xdef {exch def} bdef
/xstore {exch store} bdef
% operator abbreviations
/c  /clip ldef
/cc /concat ldef
/cp /closepath ldef
/gr /grestore ldef
/gs /gsave ldef
/mt /moveto ldef
/np /newpath ldef
/cm /currentmatrix ldef
/sm /setmatrix ldef
/rm /rmoveto ldef
/rl /rlineto ldef
/s {show newpath} bdef
/sc {setcmykcolor} bdef
/sr /setrgbcolor ldef
/sg /setgray ldef
/w /setlinewidth ldef
/j /setlinejoin ldef
/cap /setlinecap ldef
/rc {rectclip} bdef
/rf {rectfill} bdef
% page state control
/pgsv () def
/bpage {/pgsv save def} bdef
/epage {pgsv restore} bdef
/bplot /gsave ldef
/eplot {stroke grestore} bdef
% orientation switch
/portraitMode 0 def /landscapeMode 1 def /rotateMode 2 def
% coordinate system mappings
/dpi2point 0 def
% font control
/FontSize 0 def
/FMS {/FontSize xstore findfont [FontSize 0 0 FontSize neg 0 0]
  makefont setfont} bdef
/reencode {exch dup where {pop load} {pop StandardEncoding} ifelse
  exch dup 3 1 roll findfont dup length dict begin
  { 1 index /FID ne {def}{pop pop} ifelse } forall
  /Encoding exch def currentdict end definefont pop} bdef
/isroman {findfont /CharStrings get /Agrave known} bdef
/FMSR {3 1 roll 1 index dup isroman {reencode} {pop pop} ifelse
  exch FMS} bdef
/csm {1 dpi2point div -1 dpi2point div scale neg translate
 dup landscapeMode eq {pop -90 rotate}
  {rotateMode eq {90 rotate} if} ifelse} bdef
% line types: solid, dotted, dashed, dotdash
/SO { [] 0 setdash } bdef
/DO { [.5 dpi2point mul 4 dpi2point mul] 0 setdash } bdef
/DA { [6 dpi2point mul] 0 setdash } bdef
/DD { [.5 dpi2point mul 4 dpi2point mul 6 dpi2point mul 4
  dpi2point mul] 0 setdash } bdef
% macros for lines and objects
/L {lineto stroke} bdef
/MP {3 1 roll moveto 1 sub {rlineto} repeat} bdef
/AP {{rlineto} repeat} bdef
/PDlw -1 def
/W {/PDlw currentlinewidth def setlinewidth} def
/PP {closepath eofill} bdef
/DP {closepath stroke} bdef
/MR {4 -2 roll moveto dup  0 exch rlineto exch 0 rlineto
  neg 0 exch rlineto closepath} bdef
/FR {MR stroke} bdef
/PR {MR fill} bdef
/L1i {{currentfile picstr readhexstring pop} image} bdef
/tMatrix matrix def
/MakeOval {newpath tMatrix currentmatrix pop translate scale
0 0 1 0 360 arc tMatrix setmatrix} bdef
/FO {MakeOval stroke} bdef
/PO {MakeOval fill} bdef
/PD {currentlinewidth 2 div 0 360 arc fill
   PDlw -1 eq not {PDlw w /PDlw -1 def} if} def
/FA {newpath tMatrix currentmatrix pop translate scale
  0 0 1 5 -2 roll arc tMatrix setmatrix stroke} bdef
/PA {newpath tMatrix currentmatrix pop	translate 0 0 moveto scale
  0 0 1 5 -2 roll arc closepath tMatrix setmatrix fill} bdef
/FAn {newpath tMatrix currentmatrix pop translate scale
  0 0 1 5 -2 roll arcn tMatrix setmatrix stroke} bdef
/PAn {newpath tMatrix currentmatrix pop translate 0 0 moveto scale
  0 0 1 5 -2 roll arcn closepath tMatrix setmatrix fill} bdef
/vradius 0 def /hradius 0 def /lry 0 def
/lrx 0 def /uly 0 def /ulx 0 def /rad 0 def
/MRR {/vradius xdef /hradius xdef /lry xdef /lrx xdef /uly xdef
  /ulx xdef newpath tMatrix currentmatrix pop ulx hradius add uly
  vradius add translate hradius vradius scale 0 0 1 180 270 arc 
  tMatrix setmatrix lrx hradius sub uly vradius add translate
  hradius vradius scale 0 0 1 270 360 arc tMatrix setmatrix
  lrx hradius sub lry vradius sub translate hradius vradius scale
  0 0 1 0 90 arc tMatrix setmatrix ulx hradius add lry vradius sub
  translate hradius vradius scale 0 0 1 90 180 arc tMatrix setmatrix
  closepath} bdef
/FRR {MRR stroke } bdef
/PRR {MRR fill } bdef
/MlrRR {/lry xdef /lrx xdef /uly xdef /ulx xdef /rad lry uly sub 2 div def
  newpath tMatrix currentmatrix pop ulx rad add uly rad add translate
  rad rad scale 0 0 1 90 270 arc tMatrix setmatrix lrx rad sub lry rad
  sub translate rad rad scale 0 0 1 270 90 arc tMatrix setmatrix
  closepath} bdef
/FlrRR {MlrRR stroke } bdef
/PlrRR {MlrRR fill } bdef
/MtbRR {/lry xdef /lrx xdef /uly xdef /ulx xdef /rad lrx ulx sub 2 div def
  newpath tMatrix currentmatrix pop ulx rad add uly rad add translate
  rad rad scale 0 0 1 180 360 arc tMatrix setmatrix lrx rad sub lry rad
  sub translate rad rad scale 0 0 1 0 180 arc tMatrix setmatrix
  closepath} bdef
/FtbRR {MtbRR stroke } bdef
/PtbRR {MtbRR fill } bdef
/stri 6 array def /dtri 6 array def
/smat 6 array def /dmat 6 array def
/tmat1 6 array def /tmat2 6 array def /dif 3 array def
/asub {/ind2 exch def /ind1 exch def dup dup
  ind1 get exch ind2 get sub exch } bdef
/tri_to_matrix {
  2 0 asub 3 1 asub 4 0 asub 5 1 asub
  dup 0 get exch 1 get 7 -1 roll astore } bdef
/compute_transform {
  dmat dtri tri_to_matrix tmat1 invertmatrix 
  smat stri tri_to_matrix tmat2 concatmatrix } bdef
/ds {stri astore pop} bdef
/dt {dtri astore pop} bdef
/db {2 copy /cols xdef /rows xdef mul dup 3 mul string
  currentfile 
  3 index 0 eq {/ASCIIHexDecode filter}
  {/ASCII85Decode filter 3 index 2 eq {/RunLengthDecode filter} if }
  ifelse exch readstring pop
  dup 0 3 index getinterval /rbmap xdef
  dup 2 index dup getinterval /gbmap xdef
  1 index dup 2 mul exch getinterval /bbmap xdef pop pop}bdef
/it {gs np dtri aload pop moveto lineto lineto cp c
  cols rows 8 compute_transform 
  rbmap gbmap bbmap true 3 colorimage gr}bdef
/il {newpath moveto lineto stroke}bdef
currentdict end def
%%EndProlog

%%BeginSetup
MathWorks begin

0 cap

end
%%EndSetup

%%Page: 1 1
%%BeginPageSetup
%%PageBoundingBox:    29    31   532   545
MathWorks begin
bpage
%%EndPageSetup

%%BeginObject: obj1
bplot

/dpi2point 12 def
portraitMode 0000 6912 csm

  358   366  6035  6163 rc
85 dict begin %Colortable dictionary
/c0 { 0.000000 0.000000 0.000000 sr} bdef
/c1 { 1.000000 1.000000 1.000000 sr} bdef
/c2 { 0.900000 0.000000 0.000000 sr} bdef
/c3 { 0.000000 0.820000 0.000000 sr} bdef
/c4 { 0.000000 0.000000 0.800000 sr} bdef
/c5 { 0.910000 0.820000 0.320000 sr} bdef
/c6 { 1.000000 0.260000 0.820000 sr} bdef
/c7 { 0.000000 0.820000 0.820000 sr} bdef
c0
1 j
1 sg
   0    0 6913 6913 rf
6 w
0 2359 5356 0 0 -2359 899 2877 4 MP
PP
-5356 0 0 2359 5356 0 0 -2359 899 2877 5 MP stroke
4 w
DO
SO
6 w
0 sg
 899 2877 mt 6255 2877 L
 899  518 mt 6255  518 L
 899 2877 mt  899  518 L
6255 2877 mt 6255  518 L
 899 2877 mt 6255 2877 L
 899 2877 mt  899  518 L
 899 2877 mt  899 2850 L
 899  518 mt  899  544 L
 899 2877 mt  899 2823 L
 899  518 mt  899  571 L
%%IncludeResource: font Helvetica
/Helvetica /ISOLatin1Encoding 120 FMSR

 787 3059 mt 
(10) s
%%IncludeResource: font Helvetica
/Helvetica /ISOLatin1Encoding 80 FMSR

 920 2985 mt 
(-1) s
1302 2877 mt 1302 2850 L
1302  518 mt 1302  544 L
1537 2877 mt 1537 2850 L
1537  518 mt 1537  544 L
1705 2877 mt 1705 2850 L
1705  518 mt 1705  544 L
1834 2877 mt 1834 2850 L
1834  518 mt 1834  544 L
1940 2877 mt 1940 2850 L
1940  518 mt 1940  544 L
2030 2877 mt 2030 2850 L
2030  518 mt 2030  544 L
2108 2877 mt 2108 2850 L
2108  518 mt 2108  544 L
2176 2877 mt 2176 2850 L
2176  518 mt 2176  544 L
2238 2877 mt 2238 2850 L
2238  518 mt 2238  544 L
2238 2877 mt 2238 2823 L
2238  518 mt 2238  571 L
%%IncludeResource: font Helvetica
/Helvetica /ISOLatin1Encoding 120 FMSR

2150 3059 mt 
(10) s
%%IncludeResource: font Helvetica
/Helvetica /ISOLatin1Encoding 80 FMSR

2283 2985 mt 
(0) s
2641 2877 mt 2641 2850 L
2641  518 mt 2641  544 L
2876 2877 mt 2876 2850 L
2876  518 mt 2876  544 L
3044 2877 mt 3044 2850 L
3044  518 mt 3044  544 L
3173 2877 mt 3173 2850 L
3173  518 mt 3173  544 L
3279 2877 mt 3279 2850 L
3279  518 mt 3279  544 L
3369 2877 mt 3369 2850 L
3369  518 mt 3369  544 L
3447 2877 mt 3447 2850 L
3447  518 mt 3447  544 L
3515 2877 mt 3515 2850 L
3515  518 mt 3515  544 L
3577 2877 mt 3577 2850 L
3577  518 mt 3577  544 L
3577 2877 mt 3577 2823 L
3577  518 mt 3577  571 L
%%IncludeResource: font Helvetica
/Helvetica /ISOLatin1Encoding 120 FMSR

3489 3059 mt 
(10) s
%%IncludeResource: font Helvetica
/Helvetica /ISOLatin1Encoding 80 FMSR

3622 2985 mt 
(1) s
3980 2877 mt 3980 2850 L
3980  518 mt 3980  544 L
4215 2877 mt 4215 2850 L
4215  518 mt 4215  544 L
4383 2877 mt 4383 2850 L
4383  518 mt 4383  544 L
4512 2877 mt 4512 2850 L
4512  518 mt 4512  544 L
4618 2877 mt 4618 2850 L
4618  518 mt 4618  544 L
4708 2877 mt 4708 2850 L
4708  518 mt 4708  544 L
4786 2877 mt 4786 2850 L
4786  518 mt 4786  544 L
4854 2877 mt 4854 2850 L
4854  518 mt 4854  544 L
4916 2877 mt 4916 2850 L
4916  518 mt 4916  544 L
4916 2877 mt 4916 2823 L
4916  518 mt 4916  571 L
%%IncludeResource: font Helvetica
/Helvetica /ISOLatin1Encoding 120 FMSR

4828 3059 mt 
(10) s
%%IncludeResource: font Helvetica
/Helvetica /ISOLatin1Encoding 80 FMSR

4961 2985 mt 
(2) s
5319 2877 mt 5319 2850 L
5319  518 mt 5319  544 L
5554 2877 mt 5554 2850 L
5554  518 mt 5554  544 L
5722 2877 mt 5722 2850 L
5722  518 mt 5722  544 L
5851 2877 mt 5851 2850 L
5851  518 mt 5851  544 L
5957 2877 mt 5957 2850 L
5957  518 mt 5957  544 L
6047 2877 mt 6047 2850 L
6047  518 mt 6047  544 L
6125 2877 mt 6125 2850 L
6125  518 mt 6125  544 L
6193 2877 mt 6193 2850 L
6193  518 mt 6193  544 L
6255 2877 mt 6255 2850 L
6255  518 mt 6255  544 L
6255 2877 mt 6255 2823 L
6255  518 mt 6255  571 L
%%IncludeResource: font Helvetica
/Helvetica /ISOLatin1Encoding 120 FMSR

6167 3059 mt 
(10) s
%%IncludeResource: font Helvetica
/Helvetica /ISOLatin1Encoding 80 FMSR

6300 2985 mt 
(3) s
 899 2877 mt  925 2877 L
6255 2877 mt 6228 2877 L
 899 2877 mt  952 2877 L
6255 2877 mt 6201 2877 L
%%IncludeResource: font Helvetica
/Helvetica /ISOLatin1Encoding 120 FMSR

 640 2921 mt 
(10) s
%%IncludeResource: font Helvetica
/Helvetica /ISOLatin1Encoding 80 FMSR

 773 2847 mt 
(-2) s
 899 2521 mt  925 2521 L
6255 2521 mt 6228 2521 L
 899 2314 mt  925 2314 L
6255 2314 mt 6228 2314 L
 899 2166 mt  925 2166 L
6255 2166 mt 6228 2166 L
 899 2052 mt  925 2052 L
6255 2052 mt 6228 2052 L
 899 1959 mt  925 1959 L
6255 1959 mt 6228 1959 L
 899 1880 mt  925 1880 L
6255 1880 mt 6228 1880 L
 899 1811 mt  925 1811 L
6255 1811 mt 6228 1811 L
 899 1751 mt  925 1751 L
6255 1751 mt 6228 1751 L
 899 1697 mt  925 1697 L
6255 1697 mt 6228 1697 L
 899 1697 mt  952 1697 L
6255 1697 mt 6201 1697 L
%%IncludeResource: font Helvetica
/Helvetica /ISOLatin1Encoding 120 FMSR

 640 1741 mt 
(10) s
%%IncludeResource: font Helvetica
/Helvetica /ISOLatin1Encoding 80 FMSR

 773 1667 mt 
(-1) s
 899 1342 mt  925 1342 L
6255 1342 mt 6228 1342 L
 899 1134 mt  925 1134 L
6255 1134 mt 6228 1134 L
 899  987 mt  925  987 L
6255  987 mt 6228  987 L
 899  873 mt  925  873 L
6255  873 mt 6228  873 L
 899  779 mt  925  779 L
6255  779 mt 6228  779 L
 899  700 mt  925  700 L
6255  700 mt 6228  700 L
 899  632 mt  925  632 L
6255  632 mt 6228  632 L
 899  571 mt  925  571 L
6255  571 mt 6228  571 L
 899  518 mt  925  518 L
6255  518 mt 6228  518 L
 899  518 mt  952  518 L
6255  518 mt 6201  518 L
%%IncludeResource: font Helvetica
/Helvetica /ISOLatin1Encoding 120 FMSR

 640  562 mt 
(10) s
%%IncludeResource: font Helvetica
/Helvetica /ISOLatin1Encoding 80 FMSR

 773  488 mt 
(0) s
 899 2877 mt 6255 2877 L
 899  518 mt 6255  518 L
 899 2877 mt  899  518 L
6255 2877 mt 6255  518 L
gs 899 518 5357 2360 rc
24 w
298 -34 106 174 297 -260 235 -84 403 193 404 603 532 192 403 -153 
404 -61 532 -21 403 70 404 -63 532 97 403 -59 899 1419 15 MP stroke
gr

24 w
gs 825 1155 5505 1137 rc
  24   24  899 1419 PO
  24   24 1302 1360 PO
  24   24 1834 1457 PO
  24   24 2238 1394 PO
  24   24 2641 1464 PO
  24   24 3173 1443 PO
  24   24 3577 1382 PO
  24   24 3980 1229 PO
  24   24 4512 1421 PO
  24   24 4916 2024 PO
  24   24 5319 2217 PO
  24   24 5554 2133 PO
  24   24 5851 1873 PO
  24   24 5957 2047 PO
  24   24 6255 2013 PO
  24   24  899 1419 FO
  24   24 1302 1360 FO
  24   24 1834 1457 FO
  24   24 2238 1394 FO
  24   24 2641 1464 FO
  24   24 3173 1443 FO
  24   24 3577 1382 FO
  24   24 3980 1229 FO
  24   24 4512 1421 FO
  24   24 4916 2024 FO
  24   24 5319 2217 FO
  24   24 5554 2133 FO
  24   24 5851 1873 FO
  24   24 5957 2047 FO
  24   24 6255 2013 FO
gr

gs 899 518 5357 2360 rc
gr

gs 825 2126 5505 545 rc
  24   24  899 2591 PO
  24   24 1302 2596 PO
  24   24 1834 2547 PO
  24   24 2238 2548 PO
  24   24 2641 2587 PO
  24   24 3173 2528 PO
  24   24 3577 2512 PO
  24   24 3980 2344 PO
  24   24 4512 2213 PO
  24   24 4916 2200 PO
  24   24 5319 2207 PO
  24   24 5554 2262 PO
  24   24 5851 2209 PO
  24   24 5957 2268 PO
  24   24 6255 2268 PO
/c8 { 0.000000 0.000000 1.000000 sr} bdef
c8
  24   24  899 2591 FO
  24   24 1302 2596 FO
  24   24 1834 2547 FO
  24   24 2238 2548 FO
  24   24 2641 2587 FO
  24   24 3173 2528 FO
  24   24 3577 2512 FO
  24   24 3980 2344 FO
  24   24 4512 2213 FO
  24   24 4916 2200 FO
  24   24 5319 2207 FO
  24   24 5554 2262 FO
  24   24 5851 2209 FO
  24   24 5957 2268 FO
  24   24 6255 2268 FO
gr

c8
gs 899 518 5357 2360 rc
gr

0 sg
%%IncludeResource: font Helvetica
/Helvetica /ISOLatin1Encoding 120 FMSR

 504 1807 mt  -90 rotate
(r) s
90 rotate
%%IncludeResource: font Helvetica
/Helvetica /ISOLatin1Encoding 96 FMSR

 564 1768 mt  -90 rotate
(1) s
90 rotate
%%IncludeResource: font Helvetica
/Helvetica /ISOLatin1Encoding 120 FMSR

 504 1715 mt  -90 rotate
(/r) s
90 rotate
%%IncludeResource: font Helvetica
/Helvetica /ISOLatin1Encoding 96 FMSR

 564 1642 mt  -90 rotate
(0) s
90 rotate
%%IncludeResource: font Helvetica
/Helvetica /ISOLatin1Encoding 120 FMSR

 882 2920 mt 
( ) s
6239  560 mt 
( ) s
6 w
1 sg
0 334 1577 0 0 -334 959 2818 4 MP
PP
-1577 0 0 334 1577 0 0 -334 959 2818 5 MP stroke
4 w
DO
SO
6 w
0 sg
 959 2818 mt 2536 2818 L
 959 2484 mt 2536 2484 L
 959 2818 mt  959 2484 L
2536 2818 mt 2536 2484 L
 959 2818 mt 2536 2818 L
 959 2818 mt  959 2484 L
 959 2818 mt 2536 2818 L
 959 2484 mt 2536 2484 L
 959 2818 mt  959 2484 L
2536 2818 mt 2536 2484 L
1427 2618 mt 
(Real spike times) s
gs 959 2484 1578 335 rc
24 w
360 0 1030 2575 2 MP stroke
gs 1136 2501 149 149 rc
  24   24 1210 2575 PO
  24   24 1210 2575 FO
gr

gr

24 w
1427 2769 mt 
(Shuffled spike times) s
gs 959 2484 1578 335 rc
gs 1136 2652 149 149 rc
  24   24 1210 2726 PO
c8
  24   24 1210 2726 FO
gr

c8
6 w
gr

6 w
c8
1 sg
0 2358 5356 0 0 -2358 899 6152 4 MP
PP
-5356 0 0 2358 5356 0 0 -2358 899 6152 5 MP stroke
4 w
DO
SO
6 w
0 sg
 899 6152 mt 6255 6152 L
 899 3794 mt 6255 3794 L
 899 6152 mt  899 3794 L
6255 6152 mt 6255 3794 L
 899 6152 mt 6255 6152 L
 899 6152 mt  899 3794 L
 899 6152 mt  899 6125 L
 899 3794 mt  899 3820 L
 899 6152 mt  899 6098 L
 899 3794 mt  899 3847 L
 787 6334 mt 
(10) s
%%IncludeResource: font Helvetica
/Helvetica /ISOLatin1Encoding 80 FMSR

 920 6260 mt 
(-1) s
1302 6152 mt 1302 6125 L
1302 3794 mt 1302 3820 L
1537 6152 mt 1537 6125 L
1537 3794 mt 1537 3820 L
1705 6152 mt 1705 6125 L
1705 3794 mt 1705 3820 L
1834 6152 mt 1834 6125 L
1834 3794 mt 1834 3820 L
1940 6152 mt 1940 6125 L
1940 3794 mt 1940 3820 L
2030 6152 mt 2030 6125 L
2030 3794 mt 2030 3820 L
2108 6152 mt 2108 6125 L
2108 3794 mt 2108 3820 L
2176 6152 mt 2176 6125 L
2176 3794 mt 2176 3820 L
2238 6152 mt 2238 6125 L
2238 3794 mt 2238 3820 L
2238 6152 mt 2238 6098 L
2238 3794 mt 2238 3847 L
%%IncludeResource: font Helvetica
/Helvetica /ISOLatin1Encoding 120 FMSR

2150 6334 mt 
(10) s
%%IncludeResource: font Helvetica
/Helvetica /ISOLatin1Encoding 80 FMSR

2283 6260 mt 
(0) s
2641 6152 mt 2641 6125 L
2641 3794 mt 2641 3820 L
2876 6152 mt 2876 6125 L
2876 3794 mt 2876 3820 L
3044 6152 mt 3044 6125 L
3044 3794 mt 3044 3820 L
3173 6152 mt 3173 6125 L
3173 3794 mt 3173 3820 L
3279 6152 mt 3279 6125 L
3279 3794 mt 3279 3820 L
3369 6152 mt 3369 6125 L
3369 3794 mt 3369 3820 L
3447 6152 mt 3447 6125 L
3447 3794 mt 3447 3820 L
3515 6152 mt 3515 6125 L
3515 3794 mt 3515 3820 L
3577 6152 mt 3577 6125 L
3577 3794 mt 3577 3820 L
3577 6152 mt 3577 6098 L
3577 3794 mt 3577 3847 L
%%IncludeResource: font Helvetica
/Helvetica /ISOLatin1Encoding 120 FMSR

3489 6334 mt 
(10) s
%%IncludeResource: font Helvetica
/Helvetica /ISOLatin1Encoding 80 FMSR

3622 6260 mt 
(1) s
3980 6152 mt 3980 6125 L
3980 3794 mt 3980 3820 L
4215 6152 mt 4215 6125 L
4215 3794 mt 4215 3820 L
4383 6152 mt 4383 6125 L
4383 3794 mt 4383 3820 L
4512 6152 mt 4512 6125 L
4512 3794 mt 4512 3820 L
4618 6152 mt 4618 6125 L
4618 3794 mt 4618 3820 L
4708 6152 mt 4708 6125 L
4708 3794 mt 4708 3820 L
4786 6152 mt 4786 6125 L
4786 3794 mt 4786 3820 L
4854 6152 mt 4854 6125 L
4854 3794 mt 4854 3820 L
4916 6152 mt 4916 6125 L
4916 3794 mt 4916 3820 L
4916 6152 mt 4916 6098 L
4916 3794 mt 4916 3847 L
%%IncludeResource: font Helvetica
/Helvetica /ISOLatin1Encoding 120 FMSR

4828 6334 mt 
(10) s
%%IncludeResource: font Helvetica
/Helvetica /ISOLatin1Encoding 80 FMSR

4961 6260 mt 
(2) s
5319 6152 mt 5319 6125 L
5319 3794 mt 5319 3820 L
5554 6152 mt 5554 6125 L
5554 3794 mt 5554 3820 L
5722 6152 mt 5722 6125 L
5722 3794 mt 5722 3820 L
5851 6152 mt 5851 6125 L
5851 3794 mt 5851 3820 L
5957 6152 mt 5957 6125 L
5957 3794 mt 5957 3820 L
6047 6152 mt 6047 6125 L
6047 3794 mt 6047 3820 L
6125 6152 mt 6125 6125 L
6125 3794 mt 6125 3820 L
6193 6152 mt 6193 6125 L
6193 3794 mt 6193 3820 L
6255 6152 mt 6255 6125 L
6255 3794 mt 6255 3820 L
6255 6152 mt 6255 6098 L
6255 3794 mt 6255 3847 L
%%IncludeResource: font Helvetica
/Helvetica /ISOLatin1Encoding 120 FMSR

6167 6334 mt 
(10) s
%%IncludeResource: font Helvetica
/Helvetica /ISOLatin1Encoding 80 FMSR

6300 6260 mt 
(3) s
 899 6152 mt  952 6152 L
6255 6152 mt 6201 6152 L
%%IncludeResource: font Helvetica
/Helvetica /ISOLatin1Encoding 120 FMSR

 594 6196 mt 
(-350) s
 899 5857 mt  952 5857 L
6255 5857 mt 6201 5857 L
 594 5901 mt 
(-300) s
 899 5562 mt  952 5562 L
6255 5562 mt 6201 5562 L
 594 5606 mt 
(-250) s
 899 5267 mt  952 5267 L
6255 5267 mt 6201 5267 L
 594 5311 mt 
(-200) s
 899 4973 mt  952 4973 L
6255 4973 mt 6201 4973 L
 594 5017 mt 
(-150) s
 899 4678 mt  952 4678 L
6255 4678 mt 6201 4678 L
 594 4722 mt 
(-100) s
 899 4383 mt  952 4383 L
6255 4383 mt 6201 4383 L
 661 4427 mt 
(-50) s
 899 4088 mt  952 4088 L
6255 4088 mt 6201 4088 L
 798 4132 mt 
(0) s
 899 3794 mt  952 3794 L
6255 3794 mt 6201 3794 L
 731 3838 mt 
(50) s
 899 6152 mt 6255 6152 L
 899 3794 mt 6255 3794 L
 899 6152 mt  899 3794 L
6255 6152 mt 6255 3794 L
gs 899 3794 5357 2359 rc
24 w
298 246 106 641 297 335 235 29 403 178 404 60 532 405 403 97 
404 6 532 -2 403 -35 404 -11 532 34 403 -48 899 4124 15 MP stroke
gr

24 w
gs 825 3988 5505 2146 rc
  24   24  899 4124 PO
  24   24 1302 4076 PO
  24   24 1834 4110 PO
  24   24 2238 4099 PO
  24   24 2641 4064 PO
  24   24 3173 4062 PO
  24   24 3577 4068 PO
  24   24 3980 4165 PO
  24   24 4512 4570 PO
  24   24 4916 4630 PO
  24   24 5319 4808 PO
  24   24 5554 4837 PO
  24   24 5851 5172 PO
  24   24 5957 5813 PO
  24   24 6255 6059 PO
  24   24  899 4124 FO
  24   24 1302 4076 FO
  24   24 1834 4110 FO
  24   24 2238 4099 FO
  24   24 2641 4064 FO
  24   24 3173 4062 FO
  24   24 3577 4068 FO
  24   24 3980 4165 FO
  24   24 4512 4570 FO
  24   24 4916 4630 FO
  24   24 5319 4808 FO
  24   24 5554 4837 FO
  24   24 5851 5172 FO
  24   24 5957 5813 FO
  24   24 6255 6059 FO
gr

gs 899 3794 5357 2359 rc
gr

3409 6477 mt 
(F \(Hz\)) s
%%IncludeResource: font Symbol
/Symbol /ISOLatin1Encoding 120 FMSR

 504 5020 mt  -90 rotate
(F) s
90 rotate
6 w

end %%Color Dict

eplot
%%EndObject

epage
end

showpage

%%Trailer
%%EOF
