%!PS-Adobe-3.0 EPSF-3.0
%%Creator: MATLAB, The MathWorks, Inc. Version 7.14.0.739 (R2012a). Operating System: Linux 2.6.33.7.2-rt30-rt #1 SMP PREEMPT RT Tue Apr 17 15:22:21 CEST 2012 x86_64.
%%Title: ./modulation_phase_shift_ap_peak.eps
%%CreationDate: 07/08/2015  16:08:55
%%DocumentNeededFonts: Helvetica
%%DocumentProcessColors: Cyan Magenta Yellow Black
%%LanguageLevel: 2
%%Pages: 1
%%BoundingBox:    24    31   532   545
%%EndComments

%%BeginProlog
% MathWorks dictionary
/MathWorks 160 dict begin
% definition operators
/bdef {bind def} bind def
/ldef {load def} bind def
/xdef {exch def} bdef
/xstore {exch store} bdef
% operator abbreviations
/c  /clip ldef
/cc /concat ldef
/cp /closepath ldef
/gr /grestore ldef
/gs /gsave ldef
/mt /moveto ldef
/np /newpath ldef
/cm /currentmatrix ldef
/sm /setmatrix ldef
/rm /rmoveto ldef
/rl /rlineto ldef
/s {show newpath} bdef
/sc {setcmykcolor} bdef
/sr /setrgbcolor ldef
/sg /setgray ldef
/w /setlinewidth ldef
/j /setlinejoin ldef
/cap /setlinecap ldef
/rc {rectclip} bdef
/rf {rectfill} bdef
% page state control
/pgsv () def
/bpage {/pgsv save def} bdef
/epage {pgsv restore} bdef
/bplot /gsave ldef
/eplot {stroke grestore} bdef
% orientation switch
/portraitMode 0 def /landscapeMode 1 def /rotateMode 2 def
% coordinate system mappings
/dpi2point 0 def
% font control
/FontSize 0 def
/FMS {/FontSize xstore findfont [FontSize 0 0 FontSize neg 0 0]
  makefont setfont} bdef
/reencode {exch dup where {pop load} {pop StandardEncoding} ifelse
  exch dup 3 1 roll findfont dup length dict begin
  { 1 index /FID ne {def}{pop pop} ifelse } forall
  /Encoding exch def currentdict end definefont pop} bdef
/isroman {findfont /CharStrings get /Agrave known} bdef
/FMSR {3 1 roll 1 index dup isroman {reencode} {pop pop} ifelse
  exch FMS} bdef
/csm {1 dpi2point div -1 dpi2point div scale neg translate
 dup landscapeMode eq {pop -90 rotate}
  {rotateMode eq {90 rotate} if} ifelse} bdef
% line types: solid, dotted, dashed, dotdash
/SO { [] 0 setdash } bdef
/DO { [.5 dpi2point mul 4 dpi2point mul] 0 setdash } bdef
/DA { [6 dpi2point mul] 0 setdash } bdef
/DD { [.5 dpi2point mul 4 dpi2point mul 6 dpi2point mul 4
  dpi2point mul] 0 setdash } bdef
% macros for lines and objects
/L {lineto stroke} bdef
/MP {3 1 roll moveto 1 sub {rlineto} repeat} bdef
/AP {{rlineto} repeat} bdef
/PDlw -1 def
/W {/PDlw currentlinewidth def setlinewidth} def
/PP {closepath eofill} bdef
/DP {closepath stroke} bdef
/MR {4 -2 roll moveto dup  0 exch rlineto exch 0 rlineto
  neg 0 exch rlineto closepath} bdef
/FR {MR stroke} bdef
/PR {MR fill} bdef
/L1i {{currentfile picstr readhexstring pop} image} bdef
/tMatrix matrix def
/MakeOval {newpath tMatrix currentmatrix pop translate scale
0 0 1 0 360 arc tMatrix setmatrix} bdef
/FO {MakeOval stroke} bdef
/PO {MakeOval fill} bdef
/PD {currentlinewidth 2 div 0 360 arc fill
   PDlw -1 eq not {PDlw w /PDlw -1 def} if} def
/FA {newpath tMatrix currentmatrix pop translate scale
  0 0 1 5 -2 roll arc tMatrix setmatrix stroke} bdef
/PA {newpath tMatrix currentmatrix pop	translate 0 0 moveto scale
  0 0 1 5 -2 roll arc closepath tMatrix setmatrix fill} bdef
/FAn {newpath tMatrix currentmatrix pop translate scale
  0 0 1 5 -2 roll arcn tMatrix setmatrix stroke} bdef
/PAn {newpath tMatrix currentmatrix pop translate 0 0 moveto scale
  0 0 1 5 -2 roll arcn closepath tMatrix setmatrix fill} bdef
/vradius 0 def /hradius 0 def /lry 0 def
/lrx 0 def /uly 0 def /ulx 0 def /rad 0 def
/MRR {/vradius xdef /hradius xdef /lry xdef /lrx xdef /uly xdef
  /ulx xdef newpath tMatrix currentmatrix pop ulx hradius add uly
  vradius add translate hradius vradius scale 0 0 1 180 270 arc 
  tMatrix setmatrix lrx hradius sub uly vradius add translate
  hradius vradius scale 0 0 1 270 360 arc tMatrix setmatrix
  lrx hradius sub lry vradius sub translate hradius vradius scale
  0 0 1 0 90 arc tMatrix setmatrix ulx hradius add lry vradius sub
  translate hradius vradius scale 0 0 1 90 180 arc tMatrix setmatrix
  closepath} bdef
/FRR {MRR stroke } bdef
/PRR {MRR fill } bdef
/MlrRR {/lry xdef /lrx xdef /uly xdef /ulx xdef /rad lry uly sub 2 div def
  newpath tMatrix currentmatrix pop ulx rad add uly rad add translate
  rad rad scale 0 0 1 90 270 arc tMatrix setmatrix lrx rad sub lry rad
  sub translate rad rad scale 0 0 1 270 90 arc tMatrix setmatrix
  closepath} bdef
/FlrRR {MlrRR stroke } bdef
/PlrRR {MlrRR fill } bdef
/MtbRR {/lry xdef /lrx xdef /uly xdef /ulx xdef /rad lrx ulx sub 2 div def
  newpath tMatrix currentmatrix pop ulx rad add uly rad add translate
  rad rad scale 0 0 1 180 360 arc tMatrix setmatrix lrx rad sub lry rad
  sub translate rad rad scale 0 0 1 0 180 arc tMatrix setmatrix
  closepath} bdef
/FtbRR {MtbRR stroke } bdef
/PtbRR {MtbRR fill } bdef
/stri 6 array def /dtri 6 array def
/smat 6 array def /dmat 6 array def
/tmat1 6 array def /tmat2 6 array def /dif 3 array def
/asub {/ind2 exch def /ind1 exch def dup dup
  ind1 get exch ind2 get sub exch } bdef
/tri_to_matrix {
  2 0 asub 3 1 asub 4 0 asub 5 1 asub
  dup 0 get exch 1 get 7 -1 roll astore } bdef
/compute_transform {
  dmat dtri tri_to_matrix tmat1 invertmatrix 
  smat stri tri_to_matrix tmat2 concatmatrix } bdef
/ds {stri astore pop} bdef
/dt {dtri astore pop} bdef
/db {2 copy /cols xdef /rows xdef mul dup 3 mul string
  currentfile 
  3 index 0 eq {/ASCIIHexDecode filter}
  {/ASCII85Decode filter 3 index 2 eq {/RunLengthDecode filter} if }
  ifelse exch readstring pop
  dup 0 3 index getinterval /rbmap xdef
  dup 2 index dup getinterval /gbmap xdef
  1 index dup 2 mul exch getinterval /bbmap xdef pop pop}bdef
/it {gs np dtri aload pop moveto lineto lineto cp c
  cols rows 8 compute_transform 
  rbmap gbmap bbmap true 3 colorimage gr}bdef
/il {newpath moveto lineto stroke}bdef
currentdict end def
%%EndProlog

%%BeginSetup
MathWorks begin

0 cap

end
%%EndSetup

%%Page: 1 1
%%BeginPageSetup
%%PageBoundingBox:    24    31   532   545
MathWorks begin
bpage
%%EndPageSetup

%%BeginObject: obj1
bplot

/dpi2point 12 def
portraitMode 0000 6912 csm

  292   366  6101  6163 rc
85 dict begin %Colortable dictionary
/c0 { 0.000000 0.000000 0.000000 sr} bdef
/c1 { 1.000000 1.000000 1.000000 sr} bdef
/c2 { 0.900000 0.000000 0.000000 sr} bdef
/c3 { 0.000000 0.820000 0.000000 sr} bdef
/c4 { 0.000000 0.000000 0.800000 sr} bdef
/c5 { 0.910000 0.820000 0.320000 sr} bdef
/c6 { 1.000000 0.260000 0.820000 sr} bdef
/c7 { 0.000000 0.820000 0.820000 sr} bdef
c0
1 j
1 sg
   0    0 6913 6913 rf
6 w
0 2359 5356 0 0 -2359 899 2877 4 MP
PP
-5356 0 0 2359 5356 0 0 -2359 899 2877 5 MP stroke
4 w
DO
SO
6 w
0 sg
 899 2877 mt 6255 2877 L
 899  518 mt 6255  518 L
 899 2877 mt  899  518 L
6255 2877 mt 6255  518 L
 899 2877 mt 6255 2877 L
 899 2877 mt  899  518 L
 899 2877 mt  899 2850 L
 899  518 mt  899  544 L
 899 2877 mt  899 2823 L
 899  518 mt  899  571 L
%%IncludeResource: font Helvetica
/Helvetica /ISOLatin1Encoding 120 FMSR

 787 3059 mt 
(10) s
%%IncludeResource: font Helvetica
/Helvetica /ISOLatin1Encoding 80 FMSR

 920 2985 mt 
(-1) s
1302 2877 mt 1302 2850 L
1302  518 mt 1302  544 L
1537 2877 mt 1537 2850 L
1537  518 mt 1537  544 L
1705 2877 mt 1705 2850 L
1705  518 mt 1705  544 L
1834 2877 mt 1834 2850 L
1834  518 mt 1834  544 L
1940 2877 mt 1940 2850 L
1940  518 mt 1940  544 L
2030 2877 mt 2030 2850 L
2030  518 mt 2030  544 L
2108 2877 mt 2108 2850 L
2108  518 mt 2108  544 L
2176 2877 mt 2176 2850 L
2176  518 mt 2176  544 L
2238 2877 mt 2238 2850 L
2238  518 mt 2238  544 L
2238 2877 mt 2238 2823 L
2238  518 mt 2238  571 L
%%IncludeResource: font Helvetica
/Helvetica /ISOLatin1Encoding 120 FMSR

2150 3059 mt 
(10) s
%%IncludeResource: font Helvetica
/Helvetica /ISOLatin1Encoding 80 FMSR

2283 2985 mt 
(0) s
2641 2877 mt 2641 2850 L
2641  518 mt 2641  544 L
2876 2877 mt 2876 2850 L
2876  518 mt 2876  544 L
3044 2877 mt 3044 2850 L
3044  518 mt 3044  544 L
3173 2877 mt 3173 2850 L
3173  518 mt 3173  544 L
3279 2877 mt 3279 2850 L
3279  518 mt 3279  544 L
3369 2877 mt 3369 2850 L
3369  518 mt 3369  544 L
3447 2877 mt 3447 2850 L
3447  518 mt 3447  544 L
3515 2877 mt 3515 2850 L
3515  518 mt 3515  544 L
3577 2877 mt 3577 2850 L
3577  518 mt 3577  544 L
3577 2877 mt 3577 2823 L
3577  518 mt 3577  571 L
%%IncludeResource: font Helvetica
/Helvetica /ISOLatin1Encoding 120 FMSR

3489 3059 mt 
(10) s
%%IncludeResource: font Helvetica
/Helvetica /ISOLatin1Encoding 80 FMSR

3622 2985 mt 
(1) s
3980 2877 mt 3980 2850 L
3980  518 mt 3980  544 L
4215 2877 mt 4215 2850 L
4215  518 mt 4215  544 L
4383 2877 mt 4383 2850 L
4383  518 mt 4383  544 L
4512 2877 mt 4512 2850 L
4512  518 mt 4512  544 L
4618 2877 mt 4618 2850 L
4618  518 mt 4618  544 L
4708 2877 mt 4708 2850 L
4708  518 mt 4708  544 L
4786 2877 mt 4786 2850 L
4786  518 mt 4786  544 L
4854 2877 mt 4854 2850 L
4854  518 mt 4854  544 L
4916 2877 mt 4916 2850 L
4916  518 mt 4916  544 L
4916 2877 mt 4916 2823 L
4916  518 mt 4916  571 L
%%IncludeResource: font Helvetica
/Helvetica /ISOLatin1Encoding 120 FMSR

4828 3059 mt 
(10) s
%%IncludeResource: font Helvetica
/Helvetica /ISOLatin1Encoding 80 FMSR

4961 2985 mt 
(2) s
5319 2877 mt 5319 2850 L
5319  518 mt 5319  544 L
5554 2877 mt 5554 2850 L
5554  518 mt 5554  544 L
5722 2877 mt 5722 2850 L
5722  518 mt 5722  544 L
5851 2877 mt 5851 2850 L
5851  518 mt 5851  544 L
5957 2877 mt 5957 2850 L
5957  518 mt 5957  544 L
6047 2877 mt 6047 2850 L
6047  518 mt 6047  544 L
6125 2877 mt 6125 2850 L
6125  518 mt 6125  544 L
6193 2877 mt 6193 2850 L
6193  518 mt 6193  544 L
6255 2877 mt 6255 2850 L
6255  518 mt 6255  544 L
6255 2877 mt 6255 2823 L
6255  518 mt 6255  571 L
%%IncludeResource: font Helvetica
/Helvetica /ISOLatin1Encoding 120 FMSR

6167 3059 mt 
(10) s
%%IncludeResource: font Helvetica
/Helvetica /ISOLatin1Encoding 80 FMSR

6300 2985 mt 
(3) s
 899 2877 mt  925 2877 L
6255 2877 mt 6228 2877 L
 899 2877 mt  952 2877 L
6255 2877 mt 6201 2877 L
%%IncludeResource: font Helvetica
/Helvetica /ISOLatin1Encoding 120 FMSR

 640 2921 mt 
(10) s
%%IncludeResource: font Helvetica
/Helvetica /ISOLatin1Encoding 80 FMSR

 773 2847 mt 
(-3) s
 899 2640 mt  925 2640 L
6255 2640 mt 6228 2640 L
 899 2501 mt  925 2501 L
6255 2501 mt 6228 2501 L
 899 2403 mt  925 2403 L
6255 2403 mt 6228 2403 L
 899 2327 mt  925 2327 L
6255 2327 mt 6228 2327 L
 899 2265 mt  925 2265 L
6255 2265 mt 6228 2265 L
 899 2212 mt  925 2212 L
6255 2212 mt 6228 2212 L
 899 2166 mt  925 2166 L
6255 2166 mt 6228 2166 L
 899 2126 mt  925 2126 L
6255 2126 mt 6228 2126 L
 899 2090 mt  925 2090 L
6255 2090 mt 6228 2090 L
 899 2090 mt  952 2090 L
6255 2090 mt 6201 2090 L
%%IncludeResource: font Helvetica
/Helvetica /ISOLatin1Encoding 120 FMSR

 640 2134 mt 
(10) s
%%IncludeResource: font Helvetica
/Helvetica /ISOLatin1Encoding 80 FMSR

 773 2060 mt 
(-2) s
 899 1853 mt  925 1853 L
6255 1853 mt 6228 1853 L
 899 1715 mt  925 1715 L
6255 1715 mt 6228 1715 L
 899 1617 mt  925 1617 L
6255 1617 mt 6228 1617 L
 899 1541 mt  925 1541 L
6255 1541 mt 6228 1541 L
 899 1478 mt  925 1478 L
6255 1478 mt 6228 1478 L
 899 1426 mt  925 1426 L
6255 1426 mt 6228 1426 L
 899 1380 mt  925 1380 L
6255 1380 mt 6228 1380 L
 899 1340 mt  925 1340 L
6255 1340 mt 6228 1340 L
 899 1304 mt  925 1304 L
6255 1304 mt 6228 1304 L
 899 1304 mt  952 1304 L
6255 1304 mt 6201 1304 L
%%IncludeResource: font Helvetica
/Helvetica /ISOLatin1Encoding 120 FMSR

 640 1348 mt 
(10) s
%%IncludeResource: font Helvetica
/Helvetica /ISOLatin1Encoding 80 FMSR

 773 1274 mt 
(-1) s
 899 1067 mt  925 1067 L
6255 1067 mt 6228 1067 L
 899  929 mt  925  929 L
6255  929 mt 6228  929 L
 899  830 mt  925  830 L
6255  830 mt 6228  830 L
 899  754 mt  925  754 L
6255  754 mt 6228  754 L
 899  692 mt  925  692 L
6255  692 mt 6228  692 L
 899  639 mt  925  639 L
6255  639 mt 6228  639 L
 899  594 mt  925  594 L
6255  594 mt 6228  594 L
 899  553 mt  925  553 L
6255  553 mt 6228  553 L
 899  518 mt  925  518 L
6255  518 mt 6228  518 L
 899  518 mt  952  518 L
6255  518 mt 6201  518 L
%%IncludeResource: font Helvetica
/Helvetica /ISOLatin1Encoding 120 FMSR

 640  562 mt 
(10) s
%%IncludeResource: font Helvetica
/Helvetica /ISOLatin1Encoding 80 FMSR

 773  488 mt 
(0) s
 899 2877 mt 6255 2877 L
 899  518 mt 6255  518 L
 899 2877 mt  899  518 L
6255 2877 mt 6255  518 L
gs 899 517 5357 2361 rc
24 w
298 76 106 -102 297 -474 235 704 403 150 404 209 532 -78 403 -93 
404 -34 532 -76 403 -10 404 -106 532 65 403 -38 899 1409 15 MP stroke
gr

24 w
gs 825 965 5505 1212 rc
  24   24  899 1409 PO
  24   24 1302 1371 PO
  24   24 1834 1436 PO
  24   24 2238 1330 PO
  24   24 2641 1320 PO
  24   24 3173 1244 PO
  24   24 3577 1210 PO
  24   24 3980 1117 PO
  24   24 4512 1039 PO
  24   24 4916 1248 PO
  24   24 5319 1398 PO
  24   24 5554 2102 PO
  24   24 5851 1628 PO
  24   24 5957 1526 PO
  24   24 6255 1602 PO
  24   24  899 1409 FO
  24   24 1302 1371 FO
  24   24 1834 1436 FO
  24   24 2238 1330 FO
  24   24 2641 1320 FO
  24   24 3173 1244 FO
  24   24 3577 1210 FO
  24   24 3980 1117 FO
  24   24 4512 1039 FO
  24   24 4916 1248 FO
  24   24 5319 1398 FO
  24   24 5554 2102 FO
  24   24 5851 1628 FO
  24   24 5957 1526 FO
  24   24 6255 1602 FO
gr

gs 899 517 5357 2361 rc
gr

gs 825 1568 5505 416 rc
  24   24  899 1909 PO
  24   24 1302 1883 PO
  24   24 1834 1874 PO
  24   24 2238 1890 PO
  24   24 2641 1869 PO
  24   24 3173 1847 PO
  24   24 3577 1847 PO
  24   24 3980 1788 PO
  24   24 4512 1652 PO
  24   24 4916 1687 PO
  24   24 5319 1695 PO
  24   24 5554 1689 PO
  24   24 5851 1661 PO
  24   24 5957 1702 PO
  24   24 6255 1642 PO
/c8 { 0.000000 0.000000 1.000000 sr} bdef
c8
  24   24  899 1909 FO
  24   24 1302 1883 FO
  24   24 1834 1874 FO
  24   24 2238 1890 FO
  24   24 2641 1869 FO
  24   24 3173 1847 FO
  24   24 3577 1847 FO
  24   24 3980 1788 FO
  24   24 4512 1652 FO
  24   24 4916 1687 FO
  24   24 5319 1695 FO
  24   24 5554 1689 FO
  24   24 5851 1661 FO
  24   24 5957 1702 FO
  24   24 6255 1642 FO
gr

c8
gs 899 517 5357 2361 rc
gr

0 sg
%%IncludeResource: font Helvetica
/Helvetica /ISOLatin1Encoding 120 FMSR

 504 1807 mt  -90 rotate
(r) s
90 rotate
%%IncludeResource: font Helvetica
/Helvetica /ISOLatin1Encoding 96 FMSR

 564 1768 mt  -90 rotate
(1) s
90 rotate
%%IncludeResource: font Helvetica
/Helvetica /ISOLatin1Encoding 120 FMSR

 504 1715 mt  -90 rotate
(/r) s
90 rotate
%%IncludeResource: font Helvetica
/Helvetica /ISOLatin1Encoding 96 FMSR

 564 1642 mt  -90 rotate
(0) s
90 rotate
%%IncludeResource: font Helvetica
/Helvetica /ISOLatin1Encoding 120 FMSR

 882 2920 mt 
( ) s
6239  559 mt 
( ) s
6 w
1 sg
0 334 1577 0 0 -334 959 2818 4 MP
PP
-1577 0 0 334 1577 0 0 -334 959 2818 5 MP stroke
4 w
DO
SO
6 w
0 sg
 959 2818 mt 2536 2818 L
 959 2484 mt 2536 2484 L
 959 2818 mt  959 2484 L
2536 2818 mt 2536 2484 L
 959 2818 mt 2536 2818 L
 959 2818 mt  959 2484 L
 959 2818 mt 2536 2818 L
 959 2484 mt 2536 2484 L
 959 2818 mt  959 2484 L
2536 2818 mt 2536 2484 L
1427 2618 mt 
(Real spike times) s
gs 959 2484 1578 335 rc
24 w
360 0 1030 2575 2 MP stroke
gs 1136 2501 149 149 rc
  24   24 1210 2575 PO
  24   24 1210 2575 FO
gr

gr

24 w
1427 2769 mt 
(Shuffled spike times) s
gs 959 2484 1578 335 rc
gs 1136 2652 149 149 rc
  24   24 1210 2726 PO
c8
  24   24 1210 2726 FO
gr

c8
6 w
gr

6 w
c8
1 sg
0 2358 5356 0 0 -2358 899 6152 4 MP
PP
-5356 0 0 2358 5356 0 0 -2358 899 6152 5 MP stroke
4 w
DO
SO
6 w
0 sg
 899 6152 mt 6255 6152 L
 899 3794 mt 6255 3794 L
 899 6152 mt  899 3794 L
6255 6152 mt 6255 3794 L
 899 6152 mt 6255 6152 L
 899 6152 mt  899 3794 L
 899 6152 mt  899 6125 L
 899 3794 mt  899 3820 L
 899 6152 mt  899 6098 L
 899 3794 mt  899 3847 L
 787 6334 mt 
(10) s
%%IncludeResource: font Helvetica
/Helvetica /ISOLatin1Encoding 80 FMSR

 920 6260 mt 
(-1) s
1302 6152 mt 1302 6125 L
1302 3794 mt 1302 3820 L
1537 6152 mt 1537 6125 L
1537 3794 mt 1537 3820 L
1705 6152 mt 1705 6125 L
1705 3794 mt 1705 3820 L
1834 6152 mt 1834 6125 L
1834 3794 mt 1834 3820 L
1940 6152 mt 1940 6125 L
1940 3794 mt 1940 3820 L
2030 6152 mt 2030 6125 L
2030 3794 mt 2030 3820 L
2108 6152 mt 2108 6125 L
2108 3794 mt 2108 3820 L
2176 6152 mt 2176 6125 L
2176 3794 mt 2176 3820 L
2238 6152 mt 2238 6125 L
2238 3794 mt 2238 3820 L
2238 6152 mt 2238 6098 L
2238 3794 mt 2238 3847 L
%%IncludeResource: font Helvetica
/Helvetica /ISOLatin1Encoding 120 FMSR

2150 6334 mt 
(10) s
%%IncludeResource: font Helvetica
/Helvetica /ISOLatin1Encoding 80 FMSR

2283 6260 mt 
(0) s
2641 6152 mt 2641 6125 L
2641 3794 mt 2641 3820 L
2876 6152 mt 2876 6125 L
2876 3794 mt 2876 3820 L
3044 6152 mt 3044 6125 L
3044 3794 mt 3044 3820 L
3173 6152 mt 3173 6125 L
3173 3794 mt 3173 3820 L
3279 6152 mt 3279 6125 L
3279 3794 mt 3279 3820 L
3369 6152 mt 3369 6125 L
3369 3794 mt 3369 3820 L
3447 6152 mt 3447 6125 L
3447 3794 mt 3447 3820 L
3515 6152 mt 3515 6125 L
3515 3794 mt 3515 3820 L
3577 6152 mt 3577 6125 L
3577 3794 mt 3577 3820 L
3577 6152 mt 3577 6098 L
3577 3794 mt 3577 3847 L
%%IncludeResource: font Helvetica
/Helvetica /ISOLatin1Encoding 120 FMSR

3489 6334 mt 
(10) s
%%IncludeResource: font Helvetica
/Helvetica /ISOLatin1Encoding 80 FMSR

3622 6260 mt 
(1) s
3980 6152 mt 3980 6125 L
3980 3794 mt 3980 3820 L
4215 6152 mt 4215 6125 L
4215 3794 mt 4215 3820 L
4383 6152 mt 4383 6125 L
4383 3794 mt 4383 3820 L
4512 6152 mt 4512 6125 L
4512 3794 mt 4512 3820 L
4618 6152 mt 4618 6125 L
4618 3794 mt 4618 3820 L
4708 6152 mt 4708 6125 L
4708 3794 mt 4708 3820 L
4786 6152 mt 4786 6125 L
4786 3794 mt 4786 3820 L
4854 6152 mt 4854 6125 L
4854 3794 mt 4854 3820 L
4916 6152 mt 4916 6125 L
4916 3794 mt 4916 3820 L
4916 6152 mt 4916 6098 L
4916 3794 mt 4916 3847 L
%%IncludeResource: font Helvetica
/Helvetica /ISOLatin1Encoding 120 FMSR

4828 6334 mt 
(10) s
%%IncludeResource: font Helvetica
/Helvetica /ISOLatin1Encoding 80 FMSR

4961 6260 mt 
(2) s
5319 6152 mt 5319 6125 L
5319 3794 mt 5319 3820 L
5554 6152 mt 5554 6125 L
5554 3794 mt 5554 3820 L
5722 6152 mt 5722 6125 L
5722 3794 mt 5722 3820 L
5851 6152 mt 5851 6125 L
5851 3794 mt 5851 3820 L
5957 6152 mt 5957 6125 L
5957 3794 mt 5957 3820 L
6047 6152 mt 6047 6125 L
6047 3794 mt 6047 3820 L
6125 6152 mt 6125 6125 L
6125 3794 mt 6125 3820 L
6193 6152 mt 6193 6125 L
6193 3794 mt 6193 3820 L
6255 6152 mt 6255 6125 L
6255 3794 mt 6255 3820 L
6255 6152 mt 6255 6098 L
6255 3794 mt 6255 3847 L
%%IncludeResource: font Helvetica
/Helvetica /ISOLatin1Encoding 120 FMSR

6167 6334 mt 
(10) s
%%IncludeResource: font Helvetica
/Helvetica /ISOLatin1Encoding 80 FMSR

6300 6260 mt 
(3) s
 899 6152 mt  952 6152 L
6255 6152 mt 6201 6152 L
%%IncludeResource: font Helvetica
/Helvetica /ISOLatin1Encoding 120 FMSR

 528 6196 mt 
(-1000) s
 899 5759 mt  952 5759 L
6255 5759 mt 6201 5759 L
 594 5803 mt 
(-800) s
 899 5366 mt  952 5366 L
6255 5366 mt 6201 5366 L
 594 5410 mt 
(-600) s
 899 4973 mt  952 4973 L
6255 4973 mt 6201 4973 L
 594 5017 mt 
(-400) s
 899 4580 mt  952 4580 L
6255 4580 mt 6201 4580 L
 594 4624 mt 
(-200) s
 899 4187 mt  952 4187 L
6255 4187 mt 6201 4187 L
 798 4231 mt 
(0) s
 899 3794 mt  952 3794 L
6255 3794 mt 6201 3794 L
 664 3838 mt 
(200) s
 899 6152 mt 6255 6152 L
 899 3794 mt 6255 3794 L
 899 6152 mt  899 3794 L
6255 6152 mt 6255 3794 L
gs 899 3794 5357 2359 rc
24 w
298 176 106 479 297 367 235 336 403 15 404 114 532 69 403 21 
404 22 532 23 403 -28 404 -11 532 1 403 -22 899 4198 15 MP stroke
gr

24 w
gs 825 4064 5505 1771 rc
  24   24  899 4198 PO
  24   24 1302 4176 PO
  24   24 1834 4177 PO
  24   24 2238 4166 PO
  24   24 2641 4138 PO
  24   24 3173 4161 PO
  24   24 3577 4183 PO
  24   24 3980 4204 PO
  24   24 4512 4273 PO
  24   24 4916 4387 PO
  24   24 5319 4402 PO
  24   24 5554 4738 PO
  24   24 5851 5105 PO
  24   24 5957 5584 PO
  24   24 6255 5760 PO
  24   24  899 4198 FO
  24   24 1302 4176 FO
  24   24 1834 4177 FO
  24   24 2238 4166 FO
  24   24 2641 4138 FO
  24   24 3173 4161 FO
  24   24 3577 4183 FO
  24   24 3980 4204 FO
  24   24 4512 4273 FO
  24   24 4916 4387 FO
  24   24 5319 4402 FO
  24   24 5554 4738 FO
  24   24 5851 5105 FO
  24   24 5957 5584 FO
  24   24 6255 5760 FO
gr

gs 899 3794 5357 2359 rc
gr

3409 6477 mt 
(F \(Hz\)) s
%%IncludeResource: font Symbol
/Symbol /ISOLatin1Encoding 120 FMSR

 438 5020 mt  -90 rotate
(F) s
90 rotate
6 w

end %%Color Dict

eplot
%%EndObject

epage
end

showpage

%%Trailer
%%EOF
